<?xml version='1.0' encoding='UTF-8' standalone='no'?>
<!-- Created with Fritzing (https://fritzing.org/) -->
<svg xmlns="http://www.w3.org/2000/svg" height="2.16535in" version="1.2"
     viewBox="0 0 226.772 155.906" y="0in" x="0in" baseProfile="tiny"
     width="3.14961in">
 <g partID="196230">
  <g  id="board">
   <rect stroke="black" height="155.33" fill-opacity="0.5" y="0.288" fill="none"  x="0.288" id="boardoutline" stroke-width="0.5" width="226.196"/>
  </g>
 </g>
 <g partID="854776410">
  <g transform="translate(109.778,141.364)">
   <g  id="copper0">
    <circle stroke="black" r="0.992124" cx="3.01733" fill="black"  cy="3.01733" id="connector0pin" stroke-width="1.57039"/>
   </g>
  </g>
 </g>
 <g partID="854659280">
  <g transform="translate(201.751,37.5906)">
   <g  id="copper0">
    <circle stroke="black" r="0.992124" cx="3.01732" fill="black"  cy="3.01732" id="connector0pin" stroke-width="1.57039"/>
   </g>
  </g>
 </g>
 <g partID="854663370">
  <g transform="translate(57.2866,26.5557)">
   <g  id="copper0">
    <circle stroke="black" r="0.992124" cx="3.01733" fill="black"  cy="3.01733" id="connector0pin" stroke-width="1.57039"/>
   </g>
  </g>
 </g>
 <g partID="854666430">
  <g transform="translate(107.047,43.4743)">
   <g  id="copper0">
    <circle stroke="black" r="0.992124" cx="3.01733" fill="black"  cy="3.01733" id="connector0pin" stroke-width="1.57039"/>
   </g>
  </g>
 </g>
 <g partID="854673340">
  <g transform="translate(145.243,108.772)">
   <g  id="copper0">
    <circle stroke="black" r="0.992124" cx="3.01733" fill="black"  cy="3.01733" id="connector0pin" stroke-width="1.57039"/>
   </g>
  </g>
 </g>
 <g partID="854677900">
  <g transform="translate(214.759,78.9589)">
   <g  id="copper0">
    <circle stroke="black" r="0.992124" cx="3.01733" fill="black"  cy="3.01733" id="connector0pin" stroke-width="1.57039"/>
   </g>
  </g>
 </g>
 <g partID="854678140">
  <g transform="translate(214.759,129.981)">
   <g  id="copper0">
    <circle stroke="black" r="0.992124" cx="3.01733" fill="black"  cy="3.01733" id="connector0pin" stroke-width="1.57039"/>
   </g>
  </g>
 </g>
 <g partID="854678420">
  <g transform="translate(207.612,96.0717)">
   <g  id="copper0">
    <circle stroke="black" r="0.992124" cx="3.01733" fill="black"  cy="3.01733" id="connector0pin" stroke-width="1.57039"/>
   </g>
  </g>
 </g>
 <g partID="854679460">
  <g transform="translate(125.404,142.841)">
   <g  id="copper0">
    <circle stroke="black" r="0.992124" cx="3.01733" fill="black"  cy="3.01733" id="connector0pin" stroke-width="1.57039"/>
   </g>
  </g>
 </g>
 <g partID="854679740">
  <g transform="translate(136.726,43.5437)">
   <g  id="copper0">
    <circle stroke="black" r="0.992124" cx="3.01733" fill="black"  cy="3.01733" id="connector0pin" stroke-width="1.57039"/>
   </g>
  </g>
 </g>
 <g partID="854515660">
  <g transform="translate(176.787,112.833)">
   <g transform="matrix(1, 0, 0, 1, 0.377238, -800.114)">
    <g id="copper0">
     <g transform="matrix(1, 0, 0, 1, -0.288, 797.219)">
      <g>
       <g gorn="0.3.0.0.0.0.0.0.0.0">
        <circle stroke="black" gorn="0.3.0.0.0.0.0.0.0.0.0" r="2.69291" cx="13.0439" connectorname="PWR" fill="black" cy="6.12" id="connector2pad" stroke-width="1.57039"/>
        <circle stroke="black" gorn="0.3.0.0.0.0.0.0.0.0.1" r="2.69291" cx="13.0439" connectorname="GND" fill="black" cy="22.5609" id="connector0pad" stroke-width="1.57039"/>
        <circle stroke="black" gorn="0.3.0.0.0.0.0.0.0.0.2" r="2.69291" cx="26.6502" connectorname="GNDBREAK" fill="black" cy="14.6239" id="connector1pad" stroke-width="1.57039"/>
        <g gorn="0.3.0.0.0.0.0.0.0.0.3" id="copper1">
         <circle stroke="black" gorn="0.3.0.0.0.0.0.0.0.0.3.0" r="2.69291" cx="13.0439" connectorname="PWR" fill="black" cy="6.12" id="connector2pad2" stroke-width="1.57039"/>
         <circle stroke="black" gorn="0.3.0.0.0.0.0.0.0.0.3.1" r="2.69291" cx="13.0439" connectorname="GND" fill="black" cy="22.5609" id="connector0pad2" stroke-width="1.57039"/>
         <circle stroke="black" gorn="0.3.0.0.0.0.0.0.0.0.3.2" r="2.69291" cx="26.6502" connectorname="GNDBREAK" fill="black" cy="14.6239" id="connector1pad2" stroke-width="1.57039"/>
        </g>
       </g>
      </g>
     </g>
    </g>
   </g>
  </g>
 </g>
 <g partID="854511850">
  <g transform="translate(140.66,120.308)">
   <g transform="matrix(1, 0, 0, 1, 0.615231, 1.27105)">
    <g id="copper0">
     <g gorn="0.3.0.0.5">
      <path stroke="black" gorn="0.3.0.0.5.0" d="m3.68929,-1.13043a2.83464,2.83465,0,0,0,-2.83447,2.83447,2.83464,2.83465,0,0,0,2.83447,2.83595l5.67039,0a2.83464,2.83465,0,0,0,2.83447,-2.83595,2.83464,2.83465,0,0,0,-2.83447,-2.83447zm2.85352,0.706054a2.12598,2.12598,0,0,1,2.12549,2.12549,2.12598,2.12598,0,0,1,-2.12549,2.12549,2.12598,2.12598,0,0,1,-2.12695,-2.12549,2.12598,2.12598,0,0,1,2.12695,-2.12549z" fill="black" id="path1831" stroke-width="0.72"/>
      <path stroke="black" gorn="0.3.0.0.5.1" d="m3.68929,-1.13043a2.83464,2.83465,0,0,0,-2.83447,2.83447,2.83464,2.83465,0,0,0,2.83447,2.83595l5.67042,0a2.83464,2.83465,0,0,0,2.83447,-2.83595,2.83464,2.83465,0,0,0,-2.83447,-2.83447zm2.85352,0.706054a2.12598,2.12598,0,0,1,2.12549,2.12549,2.12598,2.12598,0,0,1,-2.12549,2.12549,2.12598,2.12598,0,0,1,-2.12695,-2.12549,2.12598,2.12598,0,0,1,2.12695,-2.12549z" fill="black" id="connector2extra2" stroke-width="0.72"/>
      <circle stroke="black" r="2.55118" gorn="0.3.0.0.5.2" cx="6.52411" connectorname="PWR" fill="black" cy="1.70533" id="connector2pad2" stroke-width="1.57039"/>
      <circle stroke="black" r="2.55118" gorn="0.3.0.0.5.3" cx="6.52411" connectorname="GND@1" fill="black" cy="15.8786" id="connector0pad2" stroke-width="1.57039"/>
      <g transform="matrix(0.264583, 0, 0, 0.264583, -0.5625, -1.12932)">
       <g>
        <g>
         <path stroke="black" gorn="0.3.0.0.5.4.0.0" d="m16.0722,53.5703a10.7136,10.7136,0,0,0,-10.713,10.713,10.7136,10.7136,0,0,0,10.713,10.713l21.4259,0a10.7136,10.7136,0,0,0,10.713,-10.713,10.7136,10.7136,0,0,0,-10.713,-10.713zm10.713,2.67409a8.03522,8.03523,0,0,1,8.03332,8.03889,8.03522,8.03523,0,0,1,-8.03332,8.03336,8.03522,8.03523,0,0,1,-8.03888,-8.03336,8.03522,8.03523,0,0,1,8.03888,-8.03889z" fill="black" id="connector0extra2" stroke-width="0.72"/>
        </g>
       </g>
      </g>
      <circle stroke="black" r="2.55118" gorn="0.3.0.0.5.5" cx="14.0961" connectorname="GND@2" fill="black" cy="8.79404" id="connector1pad2" stroke-width="1.57039"/>
     </g>
    </g>
   </g>
  </g>
 </g>
 <g partID="854511840">
  <g transform="translate(101.821,120.168)">
   <g transform="matrix(1, 0, 0, 1, 0.615231, 1.27105)">
    <g id="copper0">
     <g gorn="0.3.0.0.5">
      <path stroke="black" gorn="0.3.0.0.5.0" d="m3.68929,-1.13043a2.83464,2.83465,0,0,0,-2.83447,2.83447,2.83464,2.83465,0,0,0,2.83447,2.83595l5.67039,0a2.83464,2.83465,0,0,0,2.83447,-2.83595,2.83464,2.83465,0,0,0,-2.83447,-2.83447zm2.85352,0.706054a2.12598,2.12598,0,0,1,2.12549,2.12549,2.12598,2.12598,0,0,1,-2.12549,2.12549,2.12598,2.12598,0,0,1,-2.12695,-2.12549,2.12598,2.12598,0,0,1,2.12695,-2.12549z" fill="black" id="path1831" stroke-width="0.72"/>
      <path stroke="black" gorn="0.3.0.0.5.1" d="m3.68929,-1.13043a2.83464,2.83465,0,0,0,-2.83447,2.83447,2.83464,2.83465,0,0,0,2.83447,2.83595l5.67042,0a2.83464,2.83465,0,0,0,2.83447,-2.83595,2.83464,2.83465,0,0,0,-2.83447,-2.83447zm2.85352,0.706054a2.12598,2.12598,0,0,1,2.12549,2.12549,2.12598,2.12598,0,0,1,-2.12549,2.12549,2.12598,2.12598,0,0,1,-2.12695,-2.12549,2.12598,2.12598,0,0,1,2.12695,-2.12549z" fill="black" id="connector2extra2" stroke-width="0.72"/>
      <circle stroke="black" r="2.55118" gorn="0.3.0.0.5.2" cx="6.52411" connectorname="PWR" fill="black" cy="1.70533" id="connector2pad2" stroke-width="1.57039"/>
      <circle stroke="black" r="2.55118" gorn="0.3.0.0.5.3" cx="6.52411" connectorname="GND@1" fill="black" cy="15.8786" id="connector0pad2" stroke-width="1.57039"/>
      <g transform="matrix(0.264583, 0, 0, 0.264583, -0.5625, -1.12932)">
       <g>
        <g>
         <path stroke="black" gorn="0.3.0.0.5.4.0.0" d="m16.0722,53.5703a10.7136,10.7136,0,0,0,-10.713,10.713,10.7136,10.7136,0,0,0,10.713,10.713l21.4259,0a10.7136,10.7136,0,0,0,10.713,-10.713,10.7136,10.7136,0,0,0,-10.713,-10.713zm10.713,2.67409a8.03522,8.03523,0,0,1,8.03332,8.03889,8.03522,8.03523,0,0,1,-8.03332,8.03336,8.03522,8.03523,0,0,1,-8.03888,-8.03336,8.03522,8.03523,0,0,1,8.03888,-8.03889z" fill="black" id="connector0extra2" stroke-width="0.72"/>
        </g>
       </g>
      </g>
      <circle stroke="black" r="2.55118" gorn="0.3.0.0.5.5" cx="14.0961" connectorname="GND@2" fill="black" cy="8.79404" id="connector1pad2" stroke-width="1.57039"/>
     </g>
    </g>
   </g>
  </g>
 </g>
 <g partID="854511830">
  <g transform="translate(64.125,120.308)">
   <g transform="matrix(1, 0, 0, 1, 0.615231, 1.27105)">
    <g id="copper0">
     <g gorn="0.3.0.0.5">
      <path stroke="black" gorn="0.3.0.0.5.0" d="m3.68929,-1.13043a2.83464,2.83465,0,0,0,-2.83447,2.83447,2.83464,2.83465,0,0,0,2.83447,2.83595l5.67039,0a2.83464,2.83465,0,0,0,2.83447,-2.83595,2.83464,2.83465,0,0,0,-2.83447,-2.83447zm2.85352,0.706054a2.12598,2.12598,0,0,1,2.12549,2.12549,2.12598,2.12598,0,0,1,-2.12549,2.12549,2.12598,2.12598,0,0,1,-2.12695,-2.12549,2.12598,2.12598,0,0,1,2.12695,-2.12549z" fill="black" id="path1831" stroke-width="0.72"/>
      <path stroke="black" gorn="0.3.0.0.5.1" d="m3.68929,-1.13043a2.83464,2.83465,0,0,0,-2.83447,2.83447,2.83464,2.83465,0,0,0,2.83447,2.83595l5.67042,0a2.83464,2.83465,0,0,0,2.83447,-2.83595,2.83464,2.83465,0,0,0,-2.83447,-2.83447zm2.85352,0.706054a2.12598,2.12598,0,0,1,2.12549,2.12549,2.12598,2.12598,0,0,1,-2.12549,2.12549,2.12598,2.12598,0,0,1,-2.12695,-2.12549,2.12598,2.12598,0,0,1,2.12695,-2.12549z" fill="black" id="connector2extra2" stroke-width="0.72"/>
      <circle stroke="black" r="2.55118" gorn="0.3.0.0.5.2" cx="6.52411" connectorname="PWR" fill="black" cy="1.70533" id="connector2pad2" stroke-width="1.57039"/>
      <circle stroke="black" r="2.55118" gorn="0.3.0.0.5.3" cx="6.52411" connectorname="GND@1" fill="black" cy="15.8786" id="connector0pad2" stroke-width="1.57039"/>
      <g transform="matrix(0.264583, 0, 0, 0.264583, -0.5625, -1.12932)">
       <g>
        <g>
         <path stroke="black" gorn="0.3.0.0.5.4.0.0" d="m16.0722,53.5703a10.7136,10.7136,0,0,0,-10.713,10.713,10.7136,10.7136,0,0,0,10.713,10.713l21.4259,0a10.7136,10.7136,0,0,0,10.713,-10.713,10.7136,10.7136,0,0,0,-10.713,-10.713zm10.713,2.67409a8.03522,8.03523,0,0,1,8.03332,8.03889,8.03522,8.03523,0,0,1,-8.03332,8.03336,8.03522,8.03523,0,0,1,-8.03888,-8.03336,8.03522,8.03523,0,0,1,8.03888,-8.03889z" fill="black" id="connector0extra2" stroke-width="0.72"/>
        </g>
       </g>
      </g>
      <circle stroke="black" r="2.55118" gorn="0.3.0.0.5.5" cx="14.0961" connectorname="GND@2" fill="black" cy="8.79404" id="connector1pad2" stroke-width="1.57039"/>
     </g>
    </g>
   </g>
  </g>
 </g>
 <g partID="854511860">
  <g transform="translate(26.7032,120.168)">
   <g transform="matrix(1, 0, 0, 1, 0.615231, 1.27105)">
    <g id="copper0">
     <g gorn="0.3.0.0.5">
      <path stroke="black" gorn="0.3.0.0.5.0" d="m3.68929,-1.13043a2.83464,2.83465,0,0,0,-2.83447,2.83447,2.83464,2.83465,0,0,0,2.83447,2.83595l5.67039,0a2.83464,2.83465,0,0,0,2.83447,-2.83595,2.83464,2.83465,0,0,0,-2.83447,-2.83447zm2.85352,0.706054a2.12598,2.12598,0,0,1,2.12549,2.12549,2.12598,2.12598,0,0,1,-2.12549,2.12549,2.12598,2.12598,0,0,1,-2.12695,-2.12549,2.12598,2.12598,0,0,1,2.12695,-2.12549z" fill="black" id="path1831" stroke-width="0.72"/>
      <path stroke="black" gorn="0.3.0.0.5.1" d="m3.68929,-1.13043a2.83464,2.83465,0,0,0,-2.83447,2.83447,2.83464,2.83465,0,0,0,2.83447,2.83595l5.67042,0a2.83464,2.83465,0,0,0,2.83447,-2.83595,2.83464,2.83465,0,0,0,-2.83447,-2.83447zm2.85352,0.706054a2.12598,2.12598,0,0,1,2.12549,2.12549,2.12598,2.12598,0,0,1,-2.12549,2.12549,2.12598,2.12598,0,0,1,-2.12695,-2.12549,2.12598,2.12598,0,0,1,2.12695,-2.12549z" fill="black" id="connector2extra2" stroke-width="0.72"/>
      <circle stroke="black" r="2.55118" gorn="0.3.0.0.5.2" cx="6.52411" connectorname="PWR" fill="black" cy="1.70533" id="connector2pad2" stroke-width="1.57039"/>
      <circle stroke="black" r="2.55118" gorn="0.3.0.0.5.3" cx="6.52411" connectorname="GND@1" fill="black" cy="15.8786" id="connector0pad2" stroke-width="1.57039"/>
      <g transform="matrix(0.264583, 0, 0, 0.264583, -0.5625, -1.12932)">
       <g>
        <g>
         <path stroke="black" gorn="0.3.0.0.5.4.0.0" d="m16.0722,53.5703a10.7136,10.7136,0,0,0,-10.713,10.713,10.7136,10.7136,0,0,0,10.713,10.713l21.4259,0a10.7136,10.7136,0,0,0,10.713,-10.713,10.7136,10.7136,0,0,0,-10.713,-10.713zm10.713,2.67409a8.03522,8.03523,0,0,1,8.03332,8.03889,8.03522,8.03523,0,0,1,-8.03332,8.03336,8.03522,8.03523,0,0,1,-8.03888,-8.03336,8.03522,8.03523,0,0,1,8.03888,-8.03889z" fill="black" id="connector0extra2" stroke-width="0.72"/>
        </g>
       </g>
      </g>
      <circle stroke="black" r="2.55118" gorn="0.3.0.0.5.5" cx="14.0961" connectorname="GND@2" fill="black" cy="8.79404" id="connector1pad2" stroke-width="1.57039"/>
     </g>
    </g>
   </g>
  </g>
 </g>
 <g partID="854422620">
  <g transform="translate(4.20968,4.61544)">
   <g  id="copper0">
    <circle stroke="black" r="3.54331" cx="5.14331" fill="black"  cy="5.14331" id="nonconn0" stroke-width="0.72"/>
   </g>
  </g>
 </g>
 <g partID="854422600">
  <g transform="translate(4.20968,142.096)">
   <g  id="copper0">
    <circle stroke="black" r="3.54331" cx="5.14331" fill="black"  cy="5.14331" id="nonconn0" stroke-width="0.72"/>
   </g>
  </g>
 </g>
 <g partID="854749150">
  <g transform="translate(48.1466,142.096)">
   <g  id="copper0">
    <circle stroke="black" r="3.54331" cx="5.14331" fill="black"  cy="5.14331" id="nonconn0" stroke-width="0.72"/>
   </g>
  </g>
 </g>
 <g partID="854422360">
  <g transform="translate(212.556,142.096)">
   <g  id="copper0">
    <circle stroke="black" r="3.54331" cx="5.14331" fill="black"  cy="5.14331" id="nonconn0" stroke-width="0.72"/>
   </g>
  </g>
 </g>
 <g partID="854422070">
  <g transform="translate(212.556,4.61544)">
   <g  id="copper0">
    <circle stroke="black" r="3.54331" cx="5.14331" fill="black"  cy="5.14331" id="nonconn0" stroke-width="0.72"/>
   </g>
  </g>
 </g>
 <g partID="854384890">
  <g transform="translate(154.975,25.1225)">
   <g  id="copper0">
    <rect height="4.464" stroke="black" y="12.168" fill="black"  x="6.408" stroke-width="2.16" width="4.464"/>
    <circle stroke="black" r="2.232" cx="8.64" fill="black"  cy="14.4" id="connector0pad" stroke-width="2.16"/>
    <circle stroke="black" r="2.232" cx="15.84" fill="black"  cy="14.4" id="connector1pad" stroke-width="2.16"/>
    <circle stroke="black" r="2.232" cx="23.04" fill="black"  cy="14.4" id="connector2pad" stroke-width="2.16"/>
   </g>
  </g>
 </g>
 <g partID="854133740">
  <g transform="translate(105.866,36.4265)">
   <g  id="copper0">
    <g  id="copper1">
     <!-- <rect width="55" x="10" y="15.5" fill="none" height="55" stroke="rgb(255, 191, 0)" stroke-width="20" />  -->
     <circle stroke="black" r="1.98" cx="2.7" fill="black"  cy="3.096" id="connector0pin" stroke-width="2.16"/>
     <circle stroke="black" r="1.98" cx="31.5" fill="black"  cy="3.096" id="connector1pin" stroke-width="2.16"/>
    </g>
   </g>
  </g>
 </g>
 <g partID="198050">
  <g transform="translate(195.184,21.088)">
   <g transform="matrix(-1,0,0,-1,0,0)">
    <g transform="matrix(1, 0, 0, 1, -21.472, -3.00704)">
     <g id="copper0">
      <g gorn="0.3.0">
       <g gorn="0.3.0.0" id="copper1">
        <circle stroke="black" gorn="0.3.0.0.0" r="2.088" cx="24.185" fill="black" cy="12.919" id="connector0pin" stroke-width="1.97"/>
        <circle stroke="black" gorn="0.3.0.0.1" r="2.088" cx="31.384" fill="black" cy="12.919" id="connector1pin" stroke-width="1.97"/>
        <circle stroke="black" gorn="0.3.0.0.2" r="2.088" cx="38.585" fill="black" cy="12.919" id="connector2pin" stroke-width="1.97"/>
        <circle stroke="black" gorn="0.3.0.0.3" r="2.088" cx="45.784" fill="black" cy="12.919" id="connector3pin" stroke-width="1.97"/>
        <circle stroke="black" gorn="0.3.0.0.4" r="2.088" cx="52.9849" fill="black" cy="12.919" id="connector4pin" stroke-width="1.97"/>
        <circle stroke="black" gorn="0.3.0.0.5" r="2.088" cx="60.1849" fill="black" cy="12.919" id="connector5pin" stroke-width="1.97"/>
        <circle stroke="black" gorn="0.3.0.0.6" r="2.088" cx="67.3839" fill="black" cy="12.919" id="connector6pin" stroke-width="1.97"/>
        <circle stroke="black" gorn="0.3.0.0.7" r="2.088" cx="74.5849" fill="black" cy="12.919" id="connector7pin" stroke-width="1.97"/>
        <circle stroke="black" gorn="0.3.0.0.8" r="2.088" cx="81.7839" fill="black" cy="12.919" id="connector8pin" stroke-width="1.97"/>
        <circle stroke="black" gorn="0.3.0.0.9" r="2.088" cx="88.9849" fill="black" cy="12.919" id="connector9pin" stroke-width="1.97"/>
        <circle stroke="black" gorn="0.3.0.0.10" r="2.088" cx="96.1849" fill="black" cy="12.919" id="connector10pin" stroke-width="1.97"/>
        <circle stroke="black" gorn="0.3.0.0.11" r="2.088" cx="103.385" fill="black" cy="12.919" id="connector11pin" stroke-width="1.97"/>
        <circle stroke="black" gorn="0.3.0.0.12" r="2.088" cx="110.585" fill="black" cy="12.919" id="connector12pin" stroke-width="1.97"/>
        <circle stroke="black" gorn="0.3.0.0.13" r="2.088" cx="117.784" fill="black" cy="12.919" id="connector13pin" stroke-width="1.97"/>
        <circle stroke="black" gorn="0.3.0.0.14" r="2.088" cx="124.986" fill="black" cy="12.919" id="connector14pin" stroke-width="1.97"/>
        <circle stroke="black" gorn="0.3.0.0.15" r="2.088" cx="132.185" fill="black" cy="12.919" id="connector15pin" stroke-width="1.97"/>
        <circle stroke="black" gorn="0.3.0.0.16" r="2.088" cx="139.385" fill="black" cy="12.919" id="connector16pin" stroke-width="1.97"/>
        <circle stroke="black" gorn="0.3.0.0.17" r="2.088" cx="146.585" fill="black" cy="12.919" id="connector17pin" stroke-width="1.97"/>
        <circle stroke="black" gorn="0.3.0.0.18" r="2.088" cx="153.784" fill="black" cy="12.919" id="connector18pin" stroke-width="1.97"/>
        <circle stroke="black" gorn="0.3.0.0.19" r="2.088" cx="160.986" fill="black" cy="12.919" id="connector19pin" stroke-width="1.97"/>
        <circle stroke="black" gorn="0.3.0.0.20" r="2.088" cx="160.986" fill="black" cy="5.72001" id="connector20pin" stroke-width="1.97"/>
        <circle stroke="black" gorn="0.3.0.0.21" r="2.088" cx="153.784" fill="black" cy="5.72001" id="connector21pin" stroke-width="1.97"/>
        <circle stroke="black" gorn="0.3.0.0.22" r="2.088" cx="146.585" fill="black" cy="5.72001" id="connector22pin" stroke-width="1.97"/>
        <circle stroke="black" gorn="0.3.0.0.23" r="2.088" cx="139.385" fill="black" cy="5.72001" id="connector23pin" stroke-width="1.97"/>
        <circle stroke="black" gorn="0.3.0.0.24" r="2.088" cx="132.185" fill="black" cy="5.72001" id="connector24pin" stroke-width="1.97"/>
        <circle stroke="black" gorn="0.3.0.0.25" r="2.088" cx="124.986" fill="black" cy="5.72001" id="connector25pin" stroke-width="1.97"/>
        <circle stroke="black" gorn="0.3.0.0.26" r="2.088" cx="117.784" fill="black" cy="5.72001" id="connector26pin" stroke-width="1.97"/>
        <circle stroke="black" gorn="0.3.0.0.27" r="2.088" cx="110.585" fill="black" cy="5.72001" id="connector27pin" stroke-width="1.97"/>
        <circle stroke="black" gorn="0.3.0.0.28" r="2.088" cx="103.385" fill="black" cy="5.72001" id="connector28pin" stroke-width="1.97"/>
        <circle stroke="black" gorn="0.3.0.0.29" r="2.088" cx="96.1849" fill="black" cy="5.72001" id="connector29pin" stroke-width="1.97"/>
        <circle stroke="black" gorn="0.3.0.0.30" r="2.088" cx="88.9849" fill="black" cy="5.72001" id="connector30pin" stroke-width="1.97"/>
        <circle stroke="black" gorn="0.3.0.0.31" r="2.088" cx="81.7839" fill="black" cy="5.72001" id="connector31pin" stroke-width="1.97"/>
        <circle stroke="black" gorn="0.3.0.0.32" r="2.088" cx="74.5849" fill="black" cy="5.72001" id="connector32pin" stroke-width="1.97"/>
        <circle stroke="black" gorn="0.3.0.0.33" r="2.088" cx="67.3839" fill="black" cy="5.72001" id="connector33pin" stroke-width="1.97"/>
        <circle stroke="black" gorn="0.3.0.0.34" r="2.088" cx="60.1849" fill="black" cy="5.72001" id="connector34pin" stroke-width="1.97"/>
        <circle stroke="black" gorn="0.3.0.0.35" r="2.088" cx="52.9849" fill="black" cy="5.72001" id="connector35pin" stroke-width="1.97"/>
        <circle stroke="black" gorn="0.3.0.0.36" r="2.088" cx="45.784" fill="black" cy="5.72001" id="connector36pin" stroke-width="1.97"/>
        <circle stroke="black" gorn="0.3.0.0.37" r="2.088" cx="38.585" fill="black" cy="5.72001" id="connector37pin" stroke-width="1.97"/>
        <circle stroke="black" gorn="0.3.0.0.38" r="2.088" cx="31.384" fill="black" cy="5.72001" id="connector38pin" stroke-width="1.97"/>
        <circle stroke="black" gorn="0.3.0.0.39" r="2.088" cx="24.185" fill="black" cy="5.72001" id="connector39pin" stroke-width="1.97"/>
       </g>
      </g>
     </g>
    </g>
   </g>
  </g>
 </g>
 <g partID="337480">
  <g transform="translate(208.407,27.1691)">
   <g  id="copper0">
    <circle stroke="black" r="2.088" cx="5.04" fill="black"  cy="5.04" id="connector0pin" stroke-width="2.16"/>
    <circle stroke="black" r="2.088" cx="5.04" fill="black"  cy="12.24" id="connector1pin" stroke-width="2.16"/>
    <circle stroke="black" r="2.088" cx="5.04" fill="black"  cy="19.44" id="connector2pin" stroke-width="2.16"/>
    <circle stroke="black" r="2.088" cx="5.04" fill="black"  cy="26.64" id="connector3pin" stroke-width="2.16"/>
    <circle stroke="black" r="2.088" cx="5.04" fill="black"  cy="33.84" id="connector4pin" stroke-width="2.16"/>
   </g>
  </g>
 </g>
 <g partID="854708380">
  <g transform="translate(44.6258,19.5282)">
   <g  id="copper0">
    <circle stroke="black" r="0.992124" cx="3.01733" fill="black"  cy="3.01733" id="connector0pin" stroke-width="1.57039"/>
   </g>
  </g>
 </g>
 <g partID="854709190">
  <g transform="translate(174.951,29.3898)">
   <g  id="copper0">
    <circle stroke="black" r="0.992124" cx="3.01733" fill="black"  cy="3.01733" id="connector0pin" stroke-width="1.57039"/>
   </g>
  </g>
 </g>
 <g partID="854749310">
  <g transform="translate(136.712,59.2005)">
   <g  id="copper0">
    <circle stroke="black" r="0.992124" cx="3.01733" fill="black"  cy="3.01733" id="connector0pin" stroke-width="1.57039"/>
   </g>
  </g>
 </g>
 <g partID="854753780">
  <g transform="translate(160.799,49.2835)">
   <g  id="copper0">
    <circle stroke="black" r="0.992124" cx="3.01733" fill="black"  cy="3.01733" id="connector0pin" stroke-width="1.57039"/>
   </g>
  </g>
 </g>
 <g partID="854763090">
  <g transform="translate(0.39312,55.9651)">
   <g transform="matrix(1, 0, 0, 1, 0, -794.551)">
    <g id="copper0">
     <g transform="matrix(0.352778, 0, 0, 0.352778, -8.05732, 795.261)">
      <g>
       <g gorn="0.3.0.0.0.0.0.1.0" stroke-width="0">
        <circle stroke="black" gorn="0.3.0.0.0.0.0.1.0.0" r="5.81669" cx="46.9444" connectorname="ST" fill="black" cy="14.0617" id="connector0pin" stroke-width="4.18961"/>
        <circle stroke="black" gorn="0.3.0.0.0.0.0.1.0.1" r="5.81669" cx="87.7472" connectorname="ZOUT" fill="black" cy="14.078" id="connector1pin" stroke-width="4.18961"/>
        <circle stroke="black" gorn="0.3.0.0.0.0.0.1.0.2" r="5.81669" cx="169.395" connectorname="YOUT" fill="black" cy="14.0842" id="connector2pin" stroke-width="4.18961"/>
        <circle stroke="black" gorn="0.3.0.0.0.0.0.1.0.3" r="5.81669" cx="169.386" connectorname="XOUT" fill="black" cy="116.093" id="connector3pin" stroke-width="4.18961"/>
        <circle stroke="black" gorn="0.3.0.0.0.0.0.1.0.4" r="5.81669" cx="128.59" connectorname="GND" fill="black" cy="116.1" id="connector4pin" stroke-width="4.18961"/>
       </g>
      </g>
     </g>
    </g>
   </g>
  </g>
 </g>
 <g partID="854763390">
  <g transform="translate(71.8338,56.4226)">
   <g transform="matrix(1, 0, 0, 1, 0, -794.551)">
    <g id="copper0">
     <g transform="matrix(0.352778, 0, 0, 0.352778, -8.05732, 795.261)">
      <g>
       <g gorn="0.3.0.0.0.0.0.1.0" stroke-width="0">
        <circle stroke="black" gorn="0.3.0.0.0.0.0.1.0.0" r="5.81669" cx="46.9444" connectorname="ST" fill="black" cy="14.0617" id="connector0pin" stroke-width="4.18961"/>
        <circle stroke="black" gorn="0.3.0.0.0.0.0.1.0.1" r="5.81669" cx="87.7472" connectorname="ZOUT" fill="black" cy="14.078" id="connector1pin" stroke-width="4.18961"/>
        <circle stroke="black" gorn="0.3.0.0.0.0.0.1.0.2" r="5.81669" cx="169.395" connectorname="YOUT" fill="black" cy="14.0842" id="connector2pin" stroke-width="4.18961"/>
        <circle stroke="black" gorn="0.3.0.0.0.0.0.1.0.3" r="5.81669" cx="169.386" connectorname="XOUT" fill="black" cy="116.093" id="connector3pin" stroke-width="4.18961"/>
        <circle stroke="black" gorn="0.3.0.0.0.0.0.1.0.4" r="5.81669" cx="128.59" connectorname="GND" fill="black" cy="116.1" id="connector4pin" stroke-width="4.18961"/>
       </g>
      </g>
     </g>
    </g>
   </g>
  </g>
 </g>
 <g partID="854763730">
  <g transform="translate(141.283,56.4226)">
   <g transform="matrix(1, 0, 0, 1, 0, -794.551)">
    <g id="copper0">
     <g transform="matrix(0.352778, 0, 0, 0.352778, -8.05732, 795.261)">
      <g>
       <g gorn="0.3.0.0.0.0.0.1.0" stroke-width="0">
        <circle stroke="black" gorn="0.3.0.0.0.0.0.1.0.0" r="5.81669" cx="46.9444" connectorname="ST" fill="black" cy="14.0617" id="connector0pin" stroke-width="4.18961"/>
        <circle stroke="black" gorn="0.3.0.0.0.0.0.1.0.1" r="5.81669" cx="87.7472" connectorname="ZOUT" fill="black" cy="14.078" id="connector1pin" stroke-width="4.18961"/>
        <circle stroke="black" gorn="0.3.0.0.0.0.0.1.0.2" r="5.81669" cx="169.395" connectorname="YOUT" fill="black" cy="14.0842" id="connector2pin" stroke-width="4.18961"/>
        <circle stroke="black" gorn="0.3.0.0.0.0.0.1.0.3" r="5.81669" cx="169.386" connectorname="XOUT" fill="black" cy="116.093" id="connector3pin" stroke-width="4.18961"/>
        <circle stroke="black" gorn="0.3.0.0.0.0.0.1.0.4" r="5.81669" cx="128.59" connectorname="GND" fill="black" cy="116.1" id="connector4pin" stroke-width="4.18961"/>
       </g>
      </g>
     </g>
    </g>
   </g>
  </g>
 </g>
 <g partID="854772050">
  <g transform="translate(207.64,140.006)">
   <g  id="copper0">
    <circle stroke="black" r="0.992124" cx="3.01733" fill="black"  cy="3.01733" id="connector0pin" stroke-width="1.57039"/>
   </g>
  </g>
 </g>
</svg>
