<?xml version='1.0' encoding='UTF-8' standalone='no'?>
<!-- Created with Fritzing (https://fritzing.org/) -->
<svg xmlns="http://www.w3.org/2000/svg" height="2.16535in" version="1.2"
     viewBox="0 0 226.772 155.906" y="0in" x="0in" baseProfile="tiny"
     width="3.14961in">
 <g partID="196230">
  <g  id="board">
   <rect stroke="black" height="155.33" fill-opacity="0.5" y="0.288" fill="none"  x="0.288" id="boardoutline" stroke-width="0.5" width="226.196"/>
  </g>
 </g>
 <g partID="854776411">
  <g transform="translate(109.778,141.364)">
   <g  id="copper1">
    <circle stroke="black" r="0.992124" cx="3.01733" fill="none"  cy="3.01733" id="connector0pin" stroke-width="0.850392"/>
   </g>
  </g>
 </g>
 <g partID="854659281">
  <g transform="translate(201.751,37.5906)">
   <g  id="copper1">
    <circle stroke="black" r="0.992124" cx="3.01732" fill="none"  cy="3.01732" id="connector0pin" stroke-width="0.850392"/>
   </g>
  </g>
 </g>
 <g partID="854663371">
  <g transform="translate(57.2866,26.5557)">
   <g  id="copper1">
    <circle stroke="black" r="0.992124" cx="3.01733" fill="none"  cy="3.01733" id="connector0pin" stroke-width="0.850392"/>
   </g>
  </g>
 </g>
 <g partID="854666431">
  <g transform="translate(107.047,43.4743)">
   <g  id="copper1">
    <circle stroke="black" r="0.992124" cx="3.01733" fill="none"  cy="3.01733" id="connector0pin" stroke-width="0.850392"/>
   </g>
  </g>
 </g>
 <g partID="854673341">
  <g transform="translate(145.243,108.772)">
   <g  id="copper1">
    <circle stroke="black" r="0.992124" cx="3.01733" fill="none"  cy="3.01733" id="connector0pin" stroke-width="0.850392"/>
   </g>
  </g>
 </g>
 <g partID="854677901">
  <g transform="translate(214.759,78.9589)">
   <g  id="copper1">
    <circle stroke="black" r="0.992124" cx="3.01733" fill="none"  cy="3.01733" id="connector0pin" stroke-width="0.850392"/>
   </g>
  </g>
 </g>
 <g partID="854678141">
  <g transform="translate(214.759,129.981)">
   <g  id="copper1">
    <circle stroke="black" r="0.992124" cx="3.01733" fill="none"  cy="3.01733" id="connector0pin" stroke-width="0.850392"/>
   </g>
  </g>
 </g>
 <g partID="854678421">
  <g transform="translate(207.612,96.0717)">
   <g  id="copper1">
    <circle stroke="black" r="0.992124" cx="3.01733" fill="none"  cy="3.01733" id="connector0pin" stroke-width="0.850392"/>
   </g>
  </g>
 </g>
 <g partID="854679461">
  <g transform="translate(125.404,142.841)">
   <g  id="copper1">
    <circle stroke="black" r="0.992124" cx="3.01733" fill="none"  cy="3.01733" id="connector0pin" stroke-width="0.850392"/>
   </g>
  </g>
 </g>
 <g partID="854679741">
  <g transform="translate(136.726,43.5437)">
   <g  id="copper1">
    <circle stroke="black" r="0.992124" cx="3.01733" fill="none"  cy="3.01733" id="connector0pin" stroke-width="0.850392"/>
   </g>
  </g>
 </g>
 <g partID="854515662">
  <g transform="translate(176.787,112.833)">
   <g transform="matrix(1, 0, 0, 1, 0.377238, -800.114)">
    <g id="copper1">
     <g transform="matrix(1, 0, 0, 1, -0.288, 797.219)">
      <g>
       <g gorn="0.3.0.0.0.0.0.0.0.0.3">
        <circle stroke="black" gorn="0.3.0.0.0.0.0.0.0.0.3.0" r="2.69291" cx="13.0439" connectorname="PWR" fill="none" cy="6.12" id="connector2pad2" stroke-width="0.850394"/>
        <circle stroke="black" gorn="0.3.0.0.0.0.0.0.0.0.3.1" r="2.69291" cx="13.0439" connectorname="GND" fill="none" cy="22.5609" id="connector0pad2" stroke-width="0.850394"/>
        <circle stroke="black" gorn="0.3.0.0.0.0.0.0.0.0.3.2" r="2.69291" cx="26.6502" connectorname="GNDBREAK" fill="none" cy="14.6239" id="connector1pad2" stroke-width="0.850394"/>
       </g>
      </g>
     </g>
    </g>
   </g>
  </g>
 </g>
 <g partID="854511852">
  <g transform="translate(140.66,120.308)">
   <g transform="matrix(1, 0, 0, 1, 0.615231, 1.27105)">
    <g id="copper1">
     <g gorn="0.3.0.0">
      <circle stroke="black" r="2.55118" gorn="0.3.0.0.0" cx="6.52411" connectorname="PWR" fill="none" cy="1.70533" id="connector2pad" stroke-width="0.850393"/>
      <path stroke="none" gorn="0.3.0.0.1" d="M3.68929,-1.13043A2.83464,2.83465,0,0,0,0.854824,1.70404,2.83464,2.83465,0,0,0,3.68929,4.53997L9.35971,4.53997A2.83464,2.83465,0,0,0,12.1942,1.70404,2.83464,2.83465,0,0,0,9.35971,-1.13043Zm2.85352,0.706054A2.12598,2.12598,0,0,1,8.66828,1.70111,2.12598,2.12598,0,0,1,6.54281,3.8266,2.12598,2.12598,0,0,1,4.41587,1.70111,2.12598,2.12598,0,0,1,6.54281,-0.424381Z" fill="black" id="connector2extra" stroke-width="0"/>
      <circle stroke="black" r="2.55118" gorn="0.3.0.0.2" cx="6.58983" connectorname="GND@1" fill="none" cy="15.8982" id="connector0pad" stroke-width="0.850393"/>
      <g transform="matrix(0.264583, 0, 0, 0.264583, -0.5625, -1.12932)">
       <g>
        <g>
         <path stroke="none" gorn="0.3.0.0.3.0.0" d="m16.0722,53.5703a10.7136,10.7136,0,0,0,-10.713,10.713,10.7136,10.7136,0,0,0,10.713,10.713l21.4259,0a10.7136,10.7136,0,0,0,10.713,-10.713,10.7136,10.7136,0,0,0,-10.713,-10.713zm10.713,2.70731A8.03522,8.03523,0,0,1,34.8185,64.311,8.03522,8.03523,0,0,1,26.7852,72.3498,8.03522,8.03523,0,0,1,18.7463,64.311,8.03522,8.03523,0,0,1,26.7852,56.2776Z" fill="black" id="connector0extra" stroke-width="0"/>
        </g>
       </g>
      </g>
      <circle stroke="black" r="2.55118" gorn="0.3.0.0.4" cx="14.0961" connectorname="GND@2" fill="none" cy="8.79404" id="connector1pad" stroke-width="0.850393"/>
      <g gorn="0.3.0.0.5" id="copper0">
       <path stroke="none" gorn="0.3.0.0.5.0" d="m3.68929,-1.13043a2.83464,2.83465,0,0,0,-2.83447,2.83447,2.83464,2.83465,0,0,0,2.83447,2.83595l5.67039,0a2.83464,2.83465,0,0,0,2.83447,-2.83595,2.83464,2.83465,0,0,0,-2.83447,-2.83447zm2.85352,0.706054a2.12598,2.12598,0,0,1,2.12549,2.12549,2.12598,2.12598,0,0,1,-2.12549,2.12549,2.12598,2.12598,0,0,1,-2.12695,-2.12549,2.12598,2.12598,0,0,1,2.12695,-2.12549z" fill="black" id="path1831" stroke-width="0"/>
       <path stroke="none" gorn="0.3.0.0.5.1" d="m3.68929,-1.13043a2.83464,2.83465,0,0,0,-2.83447,2.83447,2.83464,2.83465,0,0,0,2.83447,2.83595l5.67042,0a2.83464,2.83465,0,0,0,2.83447,-2.83595,2.83464,2.83465,0,0,0,-2.83447,-2.83447zm2.85352,0.706054a2.12598,2.12598,0,0,1,2.12549,2.12549,2.12598,2.12598,0,0,1,-2.12549,2.12549,2.12598,2.12598,0,0,1,-2.12695,-2.12549,2.12598,2.12598,0,0,1,2.12695,-2.12549z" fill="black" id="connector2extra2" stroke-width="0"/>
       <circle stroke="black" r="2.55118" gorn="0.3.0.0.5.2" cx="6.52411" connectorname="PWR" fill="none" cy="1.70533" id="connector2pad2" stroke-width="0.850393"/>
       <circle stroke="black" r="2.55118" gorn="0.3.0.0.5.3" cx="6.52411" connectorname="GND@1" fill="none" cy="15.8786" id="connector0pad2" stroke-width="0.850393"/>
       <g transform="matrix(0.264583, 0, 0, 0.264583, -0.5625, -1.12932)">
        <g>
         <g>
          <path stroke="none" gorn="0.3.0.0.5.4.0.0" d="m16.0722,53.5703a10.7136,10.7136,0,0,0,-10.713,10.713,10.7136,10.7136,0,0,0,10.713,10.713l21.4259,0a10.7136,10.7136,0,0,0,10.713,-10.713,10.7136,10.7136,0,0,0,-10.713,-10.713zm10.713,2.67409a8.03522,8.03523,0,0,1,8.03332,8.03889,8.03522,8.03523,0,0,1,-8.03332,8.03336,8.03522,8.03523,0,0,1,-8.03888,-8.03336,8.03522,8.03523,0,0,1,8.03888,-8.03889z" fill="black" id="connector0extra2" stroke-width="0"/>
         </g>
        </g>
       </g>
       <circle stroke="black" r="2.55118" gorn="0.3.0.0.5.5" cx="14.0961" connectorname="GND@2" fill="none" cy="8.79404" id="connector1pad2" stroke-width="0.850393"/>
      </g>
     </g>
    </g>
   </g>
  </g>
 </g>
 <g partID="854511842">
  <g transform="translate(101.821,120.168)">
   <g transform="matrix(1, 0, 0, 1, 0.615231, 1.27105)">
    <g id="copper1">
     <g gorn="0.3.0.0">
      <circle stroke="black" r="2.55118" gorn="0.3.0.0.0" cx="6.52411" connectorname="PWR" fill="none" cy="1.70533" id="connector2pad" stroke-width="0.850393"/>
      <path stroke="none" gorn="0.3.0.0.1" d="M3.68929,-1.13043A2.83464,2.83465,0,0,0,0.854824,1.70404,2.83464,2.83465,0,0,0,3.68929,4.53997L9.35971,4.53997A2.83464,2.83465,0,0,0,12.1942,1.70404,2.83464,2.83465,0,0,0,9.35971,-1.13043Zm2.85352,0.706054A2.12598,2.12598,0,0,1,8.66828,1.70111,2.12598,2.12598,0,0,1,6.54281,3.8266,2.12598,2.12598,0,0,1,4.41587,1.70111,2.12598,2.12598,0,0,1,6.54281,-0.424381Z" fill="black" id="connector2extra" stroke-width="0"/>
      <circle stroke="black" r="2.55118" gorn="0.3.0.0.2" cx="6.58983" connectorname="GND@1" fill="none" cy="15.8982" id="connector0pad" stroke-width="0.850393"/>
      <g transform="matrix(0.264583, 0, 0, 0.264583, -0.5625, -1.12932)">
       <g>
        <g>
         <path stroke="none" gorn="0.3.0.0.3.0.0" d="m16.0722,53.5703a10.7136,10.7136,0,0,0,-10.713,10.713,10.7136,10.7136,0,0,0,10.713,10.713l21.4259,0a10.7136,10.7136,0,0,0,10.713,-10.713,10.7136,10.7136,0,0,0,-10.713,-10.713zm10.713,2.70731A8.03522,8.03523,0,0,1,34.8185,64.311,8.03522,8.03523,0,0,1,26.7852,72.3498,8.03522,8.03523,0,0,1,18.7463,64.311,8.03522,8.03523,0,0,1,26.7852,56.2776Z" fill="black" id="connector0extra" stroke-width="0"/>
        </g>
       </g>
      </g>
      <circle stroke="black" r="2.55118" gorn="0.3.0.0.4" cx="14.0961" connectorname="GND@2" fill="none" cy="8.79404" id="connector1pad" stroke-width="0.850393"/>
      <g gorn="0.3.0.0.5" id="copper0">
       <path stroke="none" gorn="0.3.0.0.5.0" d="m3.68929,-1.13043a2.83464,2.83465,0,0,0,-2.83447,2.83447,2.83464,2.83465,0,0,0,2.83447,2.83595l5.67039,0a2.83464,2.83465,0,0,0,2.83447,-2.83595,2.83464,2.83465,0,0,0,-2.83447,-2.83447zm2.85352,0.706054a2.12598,2.12598,0,0,1,2.12549,2.12549,2.12598,2.12598,0,0,1,-2.12549,2.12549,2.12598,2.12598,0,0,1,-2.12695,-2.12549,2.12598,2.12598,0,0,1,2.12695,-2.12549z" fill="black" id="path1831" stroke-width="0"/>
       <path stroke="none" gorn="0.3.0.0.5.1" d="m3.68929,-1.13043a2.83464,2.83465,0,0,0,-2.83447,2.83447,2.83464,2.83465,0,0,0,2.83447,2.83595l5.67042,0a2.83464,2.83465,0,0,0,2.83447,-2.83595,2.83464,2.83465,0,0,0,-2.83447,-2.83447zm2.85352,0.706054a2.12598,2.12598,0,0,1,2.12549,2.12549,2.12598,2.12598,0,0,1,-2.12549,2.12549,2.12598,2.12598,0,0,1,-2.12695,-2.12549,2.12598,2.12598,0,0,1,2.12695,-2.12549z" fill="black" id="connector2extra2" stroke-width="0"/>
       <circle stroke="black" r="2.55118" gorn="0.3.0.0.5.2" cx="6.52411" connectorname="PWR" fill="none" cy="1.70533" id="connector2pad2" stroke-width="0.850393"/>
       <circle stroke="black" r="2.55118" gorn="0.3.0.0.5.3" cx="6.52411" connectorname="GND@1" fill="none" cy="15.8786" id="connector0pad2" stroke-width="0.850393"/>
       <g transform="matrix(0.264583, 0, 0, 0.264583, -0.5625, -1.12932)">
        <g>
         <g>
          <path stroke="none" gorn="0.3.0.0.5.4.0.0" d="m16.0722,53.5703a10.7136,10.7136,0,0,0,-10.713,10.713,10.7136,10.7136,0,0,0,10.713,10.713l21.4259,0a10.7136,10.7136,0,0,0,10.713,-10.713,10.7136,10.7136,0,0,0,-10.713,-10.713zm10.713,2.67409a8.03522,8.03523,0,0,1,8.03332,8.03889,8.03522,8.03523,0,0,1,-8.03332,8.03336,8.03522,8.03523,0,0,1,-8.03888,-8.03336,8.03522,8.03523,0,0,1,8.03888,-8.03889z" fill="black" id="connector0extra2" stroke-width="0"/>
         </g>
        </g>
       </g>
       <circle stroke="black" r="2.55118" gorn="0.3.0.0.5.5" cx="14.0961" connectorname="GND@2" fill="none" cy="8.79404" id="connector1pad2" stroke-width="0.850393"/>
      </g>
     </g>
    </g>
   </g>
  </g>
 </g>
 <g partID="854511832">
  <g transform="translate(64.125,120.308)">
   <g transform="matrix(1, 0, 0, 1, 0.615231, 1.27105)">
    <g id="copper1">
     <g gorn="0.3.0.0">
      <circle stroke="black" r="2.55118" gorn="0.3.0.0.0" cx="6.52411" connectorname="PWR" fill="none" cy="1.70533" id="connector2pad" stroke-width="0.850393"/>
      <path stroke="none" gorn="0.3.0.0.1" d="M3.68929,-1.13043A2.83464,2.83465,0,0,0,0.854824,1.70404,2.83464,2.83465,0,0,0,3.68929,4.53997L9.35971,4.53997A2.83464,2.83465,0,0,0,12.1942,1.70404,2.83464,2.83465,0,0,0,9.35971,-1.13043Zm2.85352,0.706054A2.12598,2.12598,0,0,1,8.66828,1.70111,2.12598,2.12598,0,0,1,6.54281,3.8266,2.12598,2.12598,0,0,1,4.41587,1.70111,2.12598,2.12598,0,0,1,6.54281,-0.424381Z" fill="black" id="connector2extra" stroke-width="0"/>
      <circle stroke="black" r="2.55118" gorn="0.3.0.0.2" cx="6.58983" connectorname="GND@1" fill="none" cy="15.8982" id="connector0pad" stroke-width="0.850393"/>
      <g transform="matrix(0.264583, 0, 0, 0.264583, -0.5625, -1.12932)">
       <g>
        <g>
         <path stroke="none" gorn="0.3.0.0.3.0.0" d="m16.0722,53.5703a10.7136,10.7136,0,0,0,-10.713,10.713,10.7136,10.7136,0,0,0,10.713,10.713l21.4259,0a10.7136,10.7136,0,0,0,10.713,-10.713,10.7136,10.7136,0,0,0,-10.713,-10.713zm10.713,2.70731A8.03522,8.03523,0,0,1,34.8185,64.311,8.03522,8.03523,0,0,1,26.7852,72.3498,8.03522,8.03523,0,0,1,18.7463,64.311,8.03522,8.03523,0,0,1,26.7852,56.2776Z" fill="black" id="connector0extra" stroke-width="0"/>
        </g>
       </g>
      </g>
      <circle stroke="black" r="2.55118" gorn="0.3.0.0.4" cx="14.0961" connectorname="GND@2" fill="none" cy="8.79404" id="connector1pad" stroke-width="0.850393"/>
      <g gorn="0.3.0.0.5" id="copper0">
       <path stroke="none" gorn="0.3.0.0.5.0" d="m3.68929,-1.13043a2.83464,2.83465,0,0,0,-2.83447,2.83447,2.83464,2.83465,0,0,0,2.83447,2.83595l5.67039,0a2.83464,2.83465,0,0,0,2.83447,-2.83595,2.83464,2.83465,0,0,0,-2.83447,-2.83447zm2.85352,0.706054a2.12598,2.12598,0,0,1,2.12549,2.12549,2.12598,2.12598,0,0,1,-2.12549,2.12549,2.12598,2.12598,0,0,1,-2.12695,-2.12549,2.12598,2.12598,0,0,1,2.12695,-2.12549z" fill="black" id="path1831" stroke-width="0"/>
       <path stroke="none" gorn="0.3.0.0.5.1" d="m3.68929,-1.13043a2.83464,2.83465,0,0,0,-2.83447,2.83447,2.83464,2.83465,0,0,0,2.83447,2.83595l5.67042,0a2.83464,2.83465,0,0,0,2.83447,-2.83595,2.83464,2.83465,0,0,0,-2.83447,-2.83447zm2.85352,0.706054a2.12598,2.12598,0,0,1,2.12549,2.12549,2.12598,2.12598,0,0,1,-2.12549,2.12549,2.12598,2.12598,0,0,1,-2.12695,-2.12549,2.12598,2.12598,0,0,1,2.12695,-2.12549z" fill="black" id="connector2extra2" stroke-width="0"/>
       <circle stroke="black" r="2.55118" gorn="0.3.0.0.5.2" cx="6.52411" connectorname="PWR" fill="none" cy="1.70533" id="connector2pad2" stroke-width="0.850393"/>
       <circle stroke="black" r="2.55118" gorn="0.3.0.0.5.3" cx="6.52411" connectorname="GND@1" fill="none" cy="15.8786" id="connector0pad2" stroke-width="0.850393"/>
       <g transform="matrix(0.264583, 0, 0, 0.264583, -0.5625, -1.12932)">
        <g>
         <g>
          <path stroke="none" gorn="0.3.0.0.5.4.0.0" d="m16.0722,53.5703a10.7136,10.7136,0,0,0,-10.713,10.713,10.7136,10.7136,0,0,0,10.713,10.713l21.4259,0a10.7136,10.7136,0,0,0,10.713,-10.713,10.7136,10.7136,0,0,0,-10.713,-10.713zm10.713,2.67409a8.03522,8.03523,0,0,1,8.03332,8.03889,8.03522,8.03523,0,0,1,-8.03332,8.03336,8.03522,8.03523,0,0,1,-8.03888,-8.03336,8.03522,8.03523,0,0,1,8.03888,-8.03889z" fill="black" id="connector0extra2" stroke-width="0"/>
         </g>
        </g>
       </g>
       <circle stroke="black" r="2.55118" gorn="0.3.0.0.5.5" cx="14.0961" connectorname="GND@2" fill="none" cy="8.79404" id="connector1pad2" stroke-width="0.850393"/>
      </g>
     </g>
    </g>
   </g>
  </g>
 </g>
 <g partID="854511862">
  <g transform="translate(26.7032,120.168)">
   <g transform="matrix(1, 0, 0, 1, 0.615231, 1.27105)">
    <g id="copper1">
     <g gorn="0.3.0.0">
      <circle stroke="black" r="2.55118" gorn="0.3.0.0.0" cx="6.52411" connectorname="PWR" fill="none" cy="1.70533" id="connector2pad" stroke-width="0.850393"/>
      <path stroke="none" gorn="0.3.0.0.1" d="M3.68929,-1.13043A2.83464,2.83465,0,0,0,0.854824,1.70404,2.83464,2.83465,0,0,0,3.68929,4.53997L9.35971,4.53997A2.83464,2.83465,0,0,0,12.1942,1.70404,2.83464,2.83465,0,0,0,9.35971,-1.13043Zm2.85352,0.706054A2.12598,2.12598,0,0,1,8.66828,1.70111,2.12598,2.12598,0,0,1,6.54281,3.8266,2.12598,2.12598,0,0,1,4.41587,1.70111,2.12598,2.12598,0,0,1,6.54281,-0.424381Z" fill="black" id="connector2extra" stroke-width="0"/>
      <circle stroke="black" r="2.55118" gorn="0.3.0.0.2" cx="6.58983" connectorname="GND@1" fill="none" cy="15.8982" id="connector0pad" stroke-width="0.850393"/>
      <g transform="matrix(0.264583, 0, 0, 0.264583, -0.5625, -1.12932)">
       <g>
        <g>
         <path stroke="none" gorn="0.3.0.0.3.0.0" d="m16.0722,53.5703a10.7136,10.7136,0,0,0,-10.713,10.713,10.7136,10.7136,0,0,0,10.713,10.713l21.4259,0a10.7136,10.7136,0,0,0,10.713,-10.713,10.7136,10.7136,0,0,0,-10.713,-10.713zm10.713,2.70731A8.03522,8.03523,0,0,1,34.8185,64.311,8.03522,8.03523,0,0,1,26.7852,72.3498,8.03522,8.03523,0,0,1,18.7463,64.311,8.03522,8.03523,0,0,1,26.7852,56.2776Z" fill="black" id="connector0extra" stroke-width="0"/>
        </g>
       </g>
      </g>
      <circle stroke="black" r="2.55118" gorn="0.3.0.0.4" cx="14.0961" connectorname="GND@2" fill="none" cy="8.79404" id="connector1pad" stroke-width="0.850393"/>
      <g gorn="0.3.0.0.5" id="copper0">
       <path stroke="none" gorn="0.3.0.0.5.0" d="m3.68929,-1.13043a2.83464,2.83465,0,0,0,-2.83447,2.83447,2.83464,2.83465,0,0,0,2.83447,2.83595l5.67039,0a2.83464,2.83465,0,0,0,2.83447,-2.83595,2.83464,2.83465,0,0,0,-2.83447,-2.83447zm2.85352,0.706054a2.12598,2.12598,0,0,1,2.12549,2.12549,2.12598,2.12598,0,0,1,-2.12549,2.12549,2.12598,2.12598,0,0,1,-2.12695,-2.12549,2.12598,2.12598,0,0,1,2.12695,-2.12549z" fill="black" id="path1831" stroke-width="0"/>
       <path stroke="none" gorn="0.3.0.0.5.1" d="m3.68929,-1.13043a2.83464,2.83465,0,0,0,-2.83447,2.83447,2.83464,2.83465,0,0,0,2.83447,2.83595l5.67042,0a2.83464,2.83465,0,0,0,2.83447,-2.83595,2.83464,2.83465,0,0,0,-2.83447,-2.83447zm2.85352,0.706054a2.12598,2.12598,0,0,1,2.12549,2.12549,2.12598,2.12598,0,0,1,-2.12549,2.12549,2.12598,2.12598,0,0,1,-2.12695,-2.12549,2.12598,2.12598,0,0,1,2.12695,-2.12549z" fill="black" id="connector2extra2" stroke-width="0"/>
       <circle stroke="black" r="2.55118" gorn="0.3.0.0.5.2" cx="6.52411" connectorname="PWR" fill="none" cy="1.70533" id="connector2pad2" stroke-width="0.850393"/>
       <circle stroke="black" r="2.55118" gorn="0.3.0.0.5.3" cx="6.52411" connectorname="GND@1" fill="none" cy="15.8786" id="connector0pad2" stroke-width="0.850393"/>
       <g transform="matrix(0.264583, 0, 0, 0.264583, -0.5625, -1.12932)">
        <g>
         <g>
          <path stroke="none" gorn="0.3.0.0.5.4.0.0" d="m16.0722,53.5703a10.7136,10.7136,0,0,0,-10.713,10.713,10.7136,10.7136,0,0,0,10.713,10.713l21.4259,0a10.7136,10.7136,0,0,0,10.713,-10.713,10.7136,10.7136,0,0,0,-10.713,-10.713zm10.713,2.67409a8.03522,8.03523,0,0,1,8.03332,8.03889,8.03522,8.03523,0,0,1,-8.03332,8.03336,8.03522,8.03523,0,0,1,-8.03888,-8.03336,8.03522,8.03523,0,0,1,8.03888,-8.03889z" fill="black" id="connector0extra2" stroke-width="0"/>
         </g>
        </g>
       </g>
       <circle stroke="black" r="2.55118" gorn="0.3.0.0.5.5" cx="14.0961" connectorname="GND@2" fill="none" cy="8.79404" id="connector1pad2" stroke-width="0.850393"/>
      </g>
     </g>
    </g>
   </g>
  </g>
 </g>
 <g partID="854422621">
  <g transform="translate(4.20968,4.61544)">
   <g  id="copper1">
    <circle stroke="black" r="3.54331" cx="5.14331" fill="black"  cy="5.14331" id="nonconn0" stroke-width="0"/>
   </g>
  </g>
 </g>
 <g partID="854422601">
  <g transform="translate(4.20968,142.096)">
   <g  id="copper1">
    <circle stroke="black" r="3.54331" cx="5.14331" fill="black"  cy="5.14331" id="nonconn0" stroke-width="0"/>
   </g>
  </g>
 </g>
 <g partID="854749151">
  <g transform="translate(48.1466,142.096)">
   <g  id="copper1">
    <circle stroke="black" r="3.54331" cx="5.14331" fill="black"  cy="5.14331" id="nonconn0" stroke-width="0"/>
   </g>
  </g>
 </g>
 <g partID="854422361">
  <g transform="translate(212.556,142.096)">
   <g  id="copper1">
    <circle stroke="black" r="3.54331" cx="5.14331" fill="black"  cy="5.14331" id="nonconn0" stroke-width="0"/>
   </g>
  </g>
 </g>
 <g partID="854422071">
  <g transform="translate(212.556,4.61544)">
   <g  id="copper1">
    <circle stroke="black" r="3.54331" cx="5.14331" fill="black"  cy="5.14331" id="nonconn0" stroke-width="0"/>
   </g>
  </g>
 </g>
 <g partID="854384892">
  <g transform="translate(154.975,25.1225)">
   <g  id="copper1">
    <g  id="copper0">
     <rect height="4.464" stroke="black" y="12.168" fill="none"  x="6.408" stroke-width="1.44" width="4.464"/>
     <circle stroke="black" r="2.232" cx="8.64" fill="none"  cy="14.4" id="connector0pad" stroke-width="1.44"/>
     <circle stroke="black" r="2.232" cx="15.84" fill="none"  cy="14.4" id="connector1pad" stroke-width="1.44"/>
     <circle stroke="black" r="2.232" cx="23.04" fill="none"  cy="14.4" id="connector2pad" stroke-width="1.44"/>
    </g>
   </g>
  </g>
 </g>
 <g partID="854133742">
  <g transform="translate(105.866,36.4265)">
   <g  id="copper1">
    <!-- <rect width="55" x="10" y="15.5" fill="none" height="55" stroke="rgb(255, 191, 0)" stroke-width="20" />  -->
    <circle stroke="black" r="1.98" cx="2.7" fill="none"  cy="3.096" id="connector0pin" stroke-width="1.44"/>
    <circle stroke="black" r="1.98" cx="31.5" fill="none"  cy="3.096" id="connector1pin" stroke-width="1.44"/>
   </g>
  </g>
 </g>
 <g partID="198051">
  <g transform="translate(195.184,21.088)">
   <g transform="matrix(-1,0,0,-1,0,0)">
    <g transform="matrix(1, 0, 0, 1, -21.472, -3.00704)">
     <g id="copper1">
      <g gorn="0.3.0.0">
       <circle stroke="black" gorn="0.3.0.0.0" r="2.088" cx="24.185" fill="none" cy="12.919" id="connector0pin" stroke-width="1.25"/>
       <circle stroke="black" gorn="0.3.0.0.1" r="2.088" cx="31.384" fill="none" cy="12.919" id="connector1pin" stroke-width="1.25"/>
       <circle stroke="black" gorn="0.3.0.0.2" r="2.088" cx="38.585" fill="none" cy="12.919" id="connector2pin" stroke-width="1.25"/>
       <circle stroke="black" gorn="0.3.0.0.3" r="2.088" cx="45.784" fill="none" cy="12.919" id="connector3pin" stroke-width="1.25"/>
       <circle stroke="black" gorn="0.3.0.0.4" r="2.088" cx="52.9849" fill="none" cy="12.919" id="connector4pin" stroke-width="1.25"/>
       <circle stroke="black" gorn="0.3.0.0.5" r="2.088" cx="60.1849" fill="none" cy="12.919" id="connector5pin" stroke-width="1.25"/>
       <circle stroke="black" gorn="0.3.0.0.6" r="2.088" cx="67.3839" fill="none" cy="12.919" id="connector6pin" stroke-width="1.25"/>
       <circle stroke="black" gorn="0.3.0.0.7" r="2.088" cx="74.5849" fill="none" cy="12.919" id="connector7pin" stroke-width="1.25"/>
       <circle stroke="black" gorn="0.3.0.0.8" r="2.088" cx="81.7839" fill="none" cy="12.919" id="connector8pin" stroke-width="1.25"/>
       <circle stroke="black" gorn="0.3.0.0.9" r="2.088" cx="88.9849" fill="none" cy="12.919" id="connector9pin" stroke-width="1.25"/>
       <circle stroke="black" gorn="0.3.0.0.10" r="2.088" cx="96.1849" fill="none" cy="12.919" id="connector10pin" stroke-width="1.25"/>
       <circle stroke="black" gorn="0.3.0.0.11" r="2.088" cx="103.385" fill="none" cy="12.919" id="connector11pin" stroke-width="1.25"/>
       <circle stroke="black" gorn="0.3.0.0.12" r="2.088" cx="110.585" fill="none" cy="12.919" id="connector12pin" stroke-width="1.25"/>
       <circle stroke="black" gorn="0.3.0.0.13" r="2.088" cx="117.784" fill="none" cy="12.919" id="connector13pin" stroke-width="1.25"/>
       <circle stroke="black" gorn="0.3.0.0.14" r="2.088" cx="124.986" fill="none" cy="12.919" id="connector14pin" stroke-width="1.25"/>
       <circle stroke="black" gorn="0.3.0.0.15" r="2.088" cx="132.185" fill="none" cy="12.919" id="connector15pin" stroke-width="1.25"/>
       <circle stroke="black" gorn="0.3.0.0.16" r="2.088" cx="139.385" fill="none" cy="12.919" id="connector16pin" stroke-width="1.25"/>
       <circle stroke="black" gorn="0.3.0.0.17" r="2.088" cx="146.585" fill="none" cy="12.919" id="connector17pin" stroke-width="1.25"/>
       <circle stroke="black" gorn="0.3.0.0.18" r="2.088" cx="153.784" fill="none" cy="12.919" id="connector18pin" stroke-width="1.25"/>
       <circle stroke="black" gorn="0.3.0.0.19" r="2.088" cx="160.986" fill="none" cy="12.919" id="connector19pin" stroke-width="1.25"/>
       <circle stroke="black" gorn="0.3.0.0.20" r="2.088" cx="160.986" fill="none" cy="5.72001" id="connector20pin" stroke-width="1.25"/>
       <circle stroke="black" gorn="0.3.0.0.21" r="2.088" cx="153.784" fill="none" cy="5.72001" id="connector21pin" stroke-width="1.25"/>
       <circle stroke="black" gorn="0.3.0.0.22" r="2.088" cx="146.585" fill="none" cy="5.72001" id="connector22pin" stroke-width="1.25"/>
       <circle stroke="black" gorn="0.3.0.0.23" r="2.088" cx="139.385" fill="none" cy="5.72001" id="connector23pin" stroke-width="1.25"/>
       <circle stroke="black" gorn="0.3.0.0.24" r="2.088" cx="132.185" fill="none" cy="5.72001" id="connector24pin" stroke-width="1.25"/>
       <circle stroke="black" gorn="0.3.0.0.25" r="2.088" cx="124.986" fill="none" cy="5.72001" id="connector25pin" stroke-width="1.25"/>
       <circle stroke="black" gorn="0.3.0.0.26" r="2.088" cx="117.784" fill="none" cy="5.72001" id="connector26pin" stroke-width="1.25"/>
       <circle stroke="black" gorn="0.3.0.0.27" r="2.088" cx="110.585" fill="none" cy="5.72001" id="connector27pin" stroke-width="1.25"/>
       <circle stroke="black" gorn="0.3.0.0.28" r="2.088" cx="103.385" fill="none" cy="5.72001" id="connector28pin" stroke-width="1.25"/>
       <circle stroke="black" gorn="0.3.0.0.29" r="2.088" cx="96.1849" fill="none" cy="5.72001" id="connector29pin" stroke-width="1.25"/>
       <circle stroke="black" gorn="0.3.0.0.30" r="2.088" cx="88.9849" fill="none" cy="5.72001" id="connector30pin" stroke-width="1.25"/>
       <circle stroke="black" gorn="0.3.0.0.31" r="2.088" cx="81.7839" fill="none" cy="5.72001" id="connector31pin" stroke-width="1.25"/>
       <circle stroke="black" gorn="0.3.0.0.32" r="2.088" cx="74.5849" fill="none" cy="5.72001" id="connector32pin" stroke-width="1.25"/>
       <circle stroke="black" gorn="0.3.0.0.33" r="2.088" cx="67.3839" fill="none" cy="5.72001" id="connector33pin" stroke-width="1.25"/>
       <circle stroke="black" gorn="0.3.0.0.34" r="2.088" cx="60.1849" fill="none" cy="5.72001" id="connector34pin" stroke-width="1.25"/>
       <circle stroke="black" gorn="0.3.0.0.35" r="2.088" cx="52.9849" fill="none" cy="5.72001" id="connector35pin" stroke-width="1.25"/>
       <circle stroke="black" gorn="0.3.0.0.36" r="2.088" cx="45.784" fill="none" cy="5.72001" id="connector36pin" stroke-width="1.25"/>
       <circle stroke="black" gorn="0.3.0.0.37" r="2.088" cx="38.585" fill="none" cy="5.72001" id="connector37pin" stroke-width="1.25"/>
       <circle stroke="black" gorn="0.3.0.0.38" r="2.088" cx="31.384" fill="none" cy="5.72001" id="connector38pin" stroke-width="1.25"/>
       <circle stroke="black" gorn="0.3.0.0.39" r="2.088" cx="24.185" fill="none" cy="5.72001" id="connector39pin" stroke-width="1.25"/>
      </g>
     </g>
    </g>
   </g>
  </g>
 </g>
 <g partID="337482">
  <g transform="translate(208.407,27.1691)">
   <g  id="copper1">
    <g  id="copper0">
     <circle stroke="black" r="2.088" cx="5.04" fill="none"  cy="5.04" id="connector0pin" stroke-width="1.44"/>
     <circle stroke="black" r="2.088" cx="5.04" fill="none"  cy="12.24" id="connector1pin" stroke-width="1.44"/>
     <circle stroke="black" r="2.088" cx="5.04" fill="none"  cy="19.44" id="connector2pin" stroke-width="1.44"/>
     <circle stroke="black" r="2.088" cx="5.04" fill="none"  cy="26.64" id="connector3pin" stroke-width="1.44"/>
     <circle stroke="black" r="2.088" cx="5.04" fill="none"  cy="33.84" id="connector4pin" stroke-width="1.44"/>
    </g>
   </g>
  </g>
 </g>
 <g partID="854708381">
  <g transform="translate(44.6258,19.5282)">
   <g  id="copper1">
    <circle stroke="black" r="0.992124" cx="3.01733" fill="none"  cy="3.01733" id="connector0pin" stroke-width="0.850392"/>
   </g>
  </g>
 </g>
 <g partID="854709191">
  <g transform="translate(174.951,29.3898)">
   <g  id="copper1">
    <circle stroke="black" r="0.992124" cx="3.01733" fill="none"  cy="3.01733" id="connector0pin" stroke-width="0.850392"/>
   </g>
  </g>
 </g>
 <g partID="854749311">
  <g transform="translate(136.712,59.2005)">
   <g  id="copper1">
    <circle stroke="black" r="0.992124" cx="3.01733" fill="none"  cy="3.01733" id="connector0pin" stroke-width="0.850392"/>
   </g>
  </g>
 </g>
 <g partID="854753781">
  <g transform="translate(160.799,49.2835)">
   <g  id="copper1">
    <circle stroke="black" r="0.992124" cx="3.01733" fill="none"  cy="3.01733" id="connector0pin" stroke-width="0.850392"/>
   </g>
  </g>
 </g>
 <g partID="854763092">
  <g transform="translate(0.39312,55.9651)">
   <g transform="matrix(1, 0, 0, 1, 0, -794.551)">
    <g id="copper1">
     <g transform="matrix(0.352778, 0, 0, 0.352778, -8.05732, 795.261)">
      <g>
       <g gorn="0.3.0.0.0.0.0.1" stroke-width="0">
        <g gorn="0.3.0.0.0.0.0.1.0" id="copper0" stroke-width="0">
         <circle stroke="black" gorn="0.3.0.0.0.0.0.1.0.0" r="5.81669" cx="46.9444" connectorname="ST" fill="none" cy="14.0617" id="connector0pin" stroke-width="3.46961"/>
         <circle stroke="black" gorn="0.3.0.0.0.0.0.1.0.1" r="5.81669" cx="87.7472" connectorname="ZOUT" fill="none" cy="14.078" id="connector1pin" stroke-width="3.46961"/>
         <circle stroke="black" gorn="0.3.0.0.0.0.0.1.0.2" r="5.81669" cx="169.395" connectorname="YOUT" fill="none" cy="14.0842" id="connector2pin" stroke-width="3.46961"/>
         <circle stroke="black" gorn="0.3.0.0.0.0.0.1.0.3" r="5.81669" cx="169.386" connectorname="XOUT" fill="none" cy="116.093" id="connector3pin" stroke-width="3.46961"/>
         <circle stroke="black" gorn="0.3.0.0.0.0.0.1.0.4" r="5.81669" cx="128.59" connectorname="GND" fill="none" cy="116.1" id="connector4pin" stroke-width="3.46961"/>
        </g>
       </g>
      </g>
     </g>
    </g>
   </g>
  </g>
 </g>
 <g partID="854763392">
  <g transform="translate(71.8338,56.4226)">
   <g transform="matrix(1, 0, 0, 1, 0, -794.551)">
    <g id="copper1">
     <g transform="matrix(0.352778, 0, 0, 0.352778, -8.05732, 795.261)">
      <g>
       <g gorn="0.3.0.0.0.0.0.1" stroke-width="0">
        <g gorn="0.3.0.0.0.0.0.1.0" id="copper0" stroke-width="0">
         <circle stroke="black" gorn="0.3.0.0.0.0.0.1.0.0" r="5.81669" cx="46.9444" connectorname="ST" fill="none" cy="14.0617" id="connector0pin" stroke-width="3.46961"/>
         <circle stroke="black" gorn="0.3.0.0.0.0.0.1.0.1" r="5.81669" cx="87.7472" connectorname="ZOUT" fill="none" cy="14.078" id="connector1pin" stroke-width="3.46961"/>
         <circle stroke="black" gorn="0.3.0.0.0.0.0.1.0.2" r="5.81669" cx="169.395" connectorname="YOUT" fill="none" cy="14.0842" id="connector2pin" stroke-width="3.46961"/>
         <circle stroke="black" gorn="0.3.0.0.0.0.0.1.0.3" r="5.81669" cx="169.386" connectorname="XOUT" fill="none" cy="116.093" id="connector3pin" stroke-width="3.46961"/>
         <circle stroke="black" gorn="0.3.0.0.0.0.0.1.0.4" r="5.81669" cx="128.59" connectorname="GND" fill="none" cy="116.1" id="connector4pin" stroke-width="3.46961"/>
        </g>
       </g>
      </g>
     </g>
    </g>
   </g>
  </g>
 </g>
 <g partID="854763732">
  <g transform="translate(141.283,56.4226)">
   <g transform="matrix(1, 0, 0, 1, 0, -794.551)">
    <g id="copper1">
     <g transform="matrix(0.352778, 0, 0, 0.352778, -8.05732, 795.261)">
      <g>
       <g gorn="0.3.0.0.0.0.0.1" stroke-width="0">
        <g gorn="0.3.0.0.0.0.0.1.0" id="copper0" stroke-width="0">
         <circle stroke="black" gorn="0.3.0.0.0.0.0.1.0.0" r="5.81669" cx="46.9444" connectorname="ST" fill="none" cy="14.0617" id="connector0pin" stroke-width="3.46961"/>
         <circle stroke="black" gorn="0.3.0.0.0.0.0.1.0.1" r="5.81669" cx="87.7472" connectorname="ZOUT" fill="none" cy="14.078" id="connector1pin" stroke-width="3.46961"/>
         <circle stroke="black" gorn="0.3.0.0.0.0.0.1.0.2" r="5.81669" cx="169.395" connectorname="YOUT" fill="none" cy="14.0842" id="connector2pin" stroke-width="3.46961"/>
         <circle stroke="black" gorn="0.3.0.0.0.0.0.1.0.3" r="5.81669" cx="169.386" connectorname="XOUT" fill="none" cy="116.093" id="connector3pin" stroke-width="3.46961"/>
         <circle stroke="black" gorn="0.3.0.0.0.0.0.1.0.4" r="5.81669" cx="128.59" connectorname="GND" fill="none" cy="116.1" id="connector4pin" stroke-width="3.46961"/>
        </g>
       </g>
      </g>
     </g>
    </g>
   </g>
  </g>
 </g>
 <g partID="854772051">
  <g transform="translate(207.64,140.006)">
   <g  id="copper1">
    <circle stroke="black" r="0.992124" cx="3.01733" fill="none"  cy="3.01733" id="connector0pin" stroke-width="0.850392"/>
   </g>
  </g>
 </g>
 <g partID="854776360">
  <line stroke="black" stroke-linecap="round" x2="111.352" y1="143.826" x1="112.682" y2="137.296" stroke-width="1.728"/>
 </g>
 <g partID="854774690">
  <line stroke="black" stroke-linecap="round" x2="111.352" y1="137.319" x1="109.965" y2="137.296" stroke-width="1.728"/>
 </g>
 <g partID="854774700">
  <line stroke="black" stroke-linecap="round" x2="109.966" y1="137.295" x1="111.152" y2="137.319" stroke-width="1.728"/>
 </g>
 <g partID="854680860">
  <line stroke="black" stroke-linecap="round" x2="204.886" y1="60.765" x1="204.886" y2="48.0474" stroke-width="1.728"/>
 </g>
 <g partID="854664870">
  <line stroke="black" stroke-linecap="round" x2="137.303" y1="31.0122" x1="136.939" y2="38.2641" stroke-width="1.728"/>
 </g>
 <g partID="854664800">
  <line stroke="black" stroke-linecap="round" x2="136.939" y1="30.9906" x1="156.723" y2="31.0122" stroke-width="1.728"/>
 </g>
 <g partID="854655540">
  <line stroke="black" stroke-linecap="round" x2="156.723" y1="19.8377" x1="156.501" y2="30.9906" stroke-width="1.728"/>
 </g>
 <g partID="854655700">
  <line stroke="black" stroke-linecap="round" x2="204.886" y1="60.9701" x1="212.08" y2="60.7649" stroke-width="1.728"/>
 </g>
 <g partID="854680910">
  <line stroke="black" stroke-linecap="round" x2="192.459" y1="47.9874" x1="192.227" y2="19.838" stroke-width="1.728"/>
 </g>
 <g partID="854655820">
  <line stroke="black" stroke-linecap="round" x2="192.227" y1="48.0473" x1="204.886" y2="47.9873" stroke-width="1.728"/>
 </g>
 <g partID="854680980">
  <line stroke="black" stroke-linecap="round" x2="140.31" y1="46.6386" x1="170.905" y2="46.5625" stroke-width="1.728"/>
 </g>
 <g partID="854656840">
  <line stroke="black" stroke-linecap="round" x2="136.939" y1="116.048" x1="139.743" y2="116.048" stroke-width="1.728"/>
 </g>
 <g partID="854656780">
  <line stroke="black" stroke-linecap="round" x2="170.905" y1="41.0344" x1="170.834" y2="46.6386" stroke-width="1.728"/>
 </g>
 <g partID="854656920">
  <line stroke="black" stroke-linecap="round" x2="145.739" y1="137.341" x1="136.939" y2="137.45" stroke-width="1.728"/>
 </g>
 <g partID="854656900">
  <line stroke="black" stroke-linecap="round" x2="136.939" y1="116.048" x1="136.939" y2="137.341" stroke-width="1.728"/>
 </g>
 <g partID="854658260">
  <line stroke="black" stroke-linecap="round" x2="128.422" y1="145.292" x1="128.422" y2="123.112" stroke-width="1.728"/>
 </g>
 <g partID="854658480">
  <line stroke="black" stroke-linecap="round" x2="111.087" y1="123.112" x1="128.422" y2="123.141" stroke-width="1.728"/>
 </g>
 <g partID="854659300">
  <line stroke="black" stroke-linecap="round" x2="205.025" y1="40.0411" x1="204.772" y2="2.65632" stroke-width="1.728"/>
 </g>
 <g partID="854659540">
  <line stroke="black" stroke-linecap="round" x2="156.525" y1="2.65632" x1="156.785" y2="9.71407" stroke-width="1.728"/>
 </g>
 <g partID="854659520">
  <line stroke="black" stroke-linecap="round" x2="156.785" y1="2.65632" x1="205.025" y2="2.65632" stroke-width="1.728"/>
 </g>
 <g partID="854709430">
  <line stroke="black" stroke-linecap="round" x2="178.06" y1="32.407" x1="177.968" y2="19.838" stroke-width="1.728"/>
 </g>
 <g partID="854659640">
  <line stroke="black" stroke-linecap="round" x2="177.969" y1="38.0105" x1="178.005" y2="32.407" stroke-width="1.728"/>
 </g>
 <g partID="854673960">
  <line stroke="black" stroke-linecap="round" x2="148.26" y1="123.112" x1="148.26" y2="112.357" stroke-width="1.728"/>
 </g>
 <g partID="854664530">
  <line stroke="black" stroke-linecap="round" x2="108.563" y1="28.1747" x1="108.544" y2="38.2625" stroke-width="1.728"/>
 </g>
 <g partID="854664240">
  <line stroke="black" stroke-linecap="round" x2="108.545" y1="28.1747" x1="91.5906" y2="28.1747" stroke-width="1.728"/>
 </g>
 <g partID="854663720">
  <line stroke="black" stroke-linecap="round" x2="91.5904" y1="19.838" x1="91.658" y2="28.1747" stroke-width="1.728"/>
 </g>
 <g partID="854773910">
  <line stroke="black" stroke-linecap="round" x2="60.306" y1="62.1136" x1="60.4114" y2="30.14" stroke-width="1.728"/>
 </g>
 <g partID="854657020">
  <line stroke="black" stroke-linecap="round" x2="60.4113" y1="61.725" x1="53.5323" y2="62.1136" stroke-width="1.728"/>
 </g>
 <g partID="854677120">
  <line stroke="black" stroke-linecap="round" x2="217.777" y1="132.431" x1="217.777" y2="82.5428" stroke-width="1.728"/>
 </g>
 <g partID="854673970">
  <line stroke="black" stroke-linecap="round" x2="148.26" y1="122.538" x1="149.791" y2="123.111" stroke-width="1.728"/>
 </g>
 <g partID="854708280">
  <line stroke="black" stroke-linecap="round" x2="47.545" y1="21.9786" x1="47.6378" y2="12.619" stroke-width="1.728"/>
 </g>
 <g partID="854657060">
  <line stroke="black" stroke-linecap="round" x2="47.5453" y1="12.619" x1="47.545" y2="2.65632" stroke-width="1.728"/>
 </g>
 <g partID="854657140">
  <line stroke="black" stroke-linecap="round" x2="77.433" y1="2.65632" x1="47.545" y2="2.65632" stroke-width="1.728"/>
 </g>
 <g partID="854657160">
  <line stroke="black" stroke-linecap="round" x2="77.2991" y1="2.65632" x1="77.433" y2="9.71326" stroke-width="1.728"/>
 </g>
 <g partID="854666800">
  <line stroke="black" stroke-linecap="round" x2="178.005" y1="32.974" x1="177.972" y2="38.0105" stroke-width="1.728"/>
 </g>
 <g partID="854749260">
  <line stroke="black" stroke-linecap="round" x2="139.743" y1="62.7848" x1="139.729" y2="116.049" stroke-width="1.728"/>
 </g>
 <g partID="854679930">
  <line stroke="black" stroke-linecap="round" x2="163.25" y1="52.2984" x1="109.971" y2="52.3008" stroke-width="1.728"/>
 </g>
 <g partID="854653010">
  <line stroke="black" stroke-linecap="round" x2="109.971" y1="47.0585" x1="110.056" y2="52.2985" stroke-width="1.728"/>
 </g>
 <g partID="854768370">
  <line stroke="black" stroke-linecap="round" x2="36.0341" y1="137.296" x1="51.9042" y2="137.333" stroke-width="1.728"/>
 </g>
 <g partID="854654980">
  <line stroke="black" stroke-linecap="round" x2="51.9042" y1="99.0701" x1="52.0846" y2="137.295" stroke-width="1.728"/>
 </g>
 <g partID="854677760">
  <line stroke="black" stroke-linecap="round" x2="210.657" y1="99.6562" x1="210.63" y2="142.457" stroke-width="1.728"/>
 </g>
 <g partID="854772670">
  <line stroke="black" stroke-linecap="round" x2="71.3026" y1="97.6157" x1="71.7234" y2="121.158" stroke-width="1.728"/>
 </g>
 <g partID="854667830">
  <line stroke="black" stroke-linecap="round" x2="88.7458" y1="114.671" x1="122.738" y2="114.654" stroke-width="1.728"/>
 </g>
 <g partID="854667740">
  <line stroke="black" stroke-linecap="round" x2="88.7938" y1="114.654" x1="88.7458" y2="137.328" stroke-width="1.728"/>
 </g>
 <g partID="854667690">
  <line stroke="black" stroke-linecap="round" x2="73.456" y1="137.328" x1="88.7938" y2="137.459" stroke-width="1.728"/>
 </g>
 <g partID="854655860">
  <line stroke="black" stroke-linecap="round" x2="71.7233" y1="98.0718" x1="107.7" y2="97.6155" stroke-width="1.728"/>
 </g>
 <g partID="854656100">
  <line stroke="black" stroke-linecap="round" x2="122.738" y1="99.526" x1="123.463" y2="114.671" stroke-width="1.728"/>
 </g>
 <g partID="854667340">
  <line stroke="black" stroke-linecap="round" x2="33.696" y1="97.6957" x1="33.4616" y2="116.64" stroke-width="1.728"/>
 </g>
 <g partID="854654800">
  <line stroke="black" stroke-linecap="round" x2="33.4616" y1="97.6539" x1="36.2596" y2="97.6954" stroke-width="1.728"/>
 </g>
 <g partID="854654940">
  <line stroke="black" stroke-linecap="round" x2="33.7946" y1="116.64" x1="33.6959" y2="121.019" stroke-width="1.728"/>
 </g>
</svg>
