<?xml version='1.0' encoding='UTF-8' standalone='no'?>
<!-- Created with Fritzing (https://fritzing.org/) -->
<svg xmlns="http://www.w3.org/2000/svg" height="2.16535in" version="1.2"
     viewBox="0 0 226.772 155.906" y="0in" x="0in" baseProfile="tiny"
     width="3.14961in">
 <g partID="196230">
  <g  id="board">
   <rect stroke="black" height="155.33" fill-opacity="0.5" y="0.288" fill="none"  x="0.288" id="boardoutline" stroke-width="0.5" width="226.196"/>
  </g>
 </g>
 <g partID="854776410">
  <g transform="translate(109.778,141.364)">
   <g  id="copper0">
    <circle stroke="black" r="0.992124" cx="3.01733" fill="none"  cy="3.01733" id="connector0pin" stroke-width="0.850392"/>
   </g>
  </g>
 </g>
 <g partID="854659280">
  <g transform="translate(201.751,37.5906)">
   <g  id="copper0">
    <circle stroke="black" r="0.992124" cx="3.01732" fill="none"  cy="3.01732" id="connector0pin" stroke-width="0.850392"/>
   </g>
  </g>
 </g>
 <g partID="854663370">
  <g transform="translate(57.2866,26.5557)">
   <g  id="copper0">
    <circle stroke="black" r="0.992124" cx="3.01733" fill="none"  cy="3.01733" id="connector0pin" stroke-width="0.850392"/>
   </g>
  </g>
 </g>
 <g partID="854666430">
  <g transform="translate(107.047,43.4743)">
   <g  id="copper0">
    <circle stroke="black" r="0.992124" cx="3.01733" fill="none"  cy="3.01733" id="connector0pin" stroke-width="0.850392"/>
   </g>
  </g>
 </g>
 <g partID="854673340">
  <g transform="translate(145.243,108.772)">
   <g  id="copper0">
    <circle stroke="black" r="0.992124" cx="3.01733" fill="none"  cy="3.01733" id="connector0pin" stroke-width="0.850392"/>
   </g>
  </g>
 </g>
 <g partID="854677900">
  <g transform="translate(214.759,78.9589)">
   <g  id="copper0">
    <circle stroke="black" r="0.992124" cx="3.01733" fill="none"  cy="3.01733" id="connector0pin" stroke-width="0.850392"/>
   </g>
  </g>
 </g>
 <g partID="854678140">
  <g transform="translate(214.759,129.981)">
   <g  id="copper0">
    <circle stroke="black" r="0.992124" cx="3.01733" fill="none"  cy="3.01733" id="connector0pin" stroke-width="0.850392"/>
   </g>
  </g>
 </g>
 <g partID="854678420">
  <g transform="translate(207.612,96.0717)">
   <g  id="copper0">
    <circle stroke="black" r="0.992124" cx="3.01733" fill="none"  cy="3.01733" id="connector0pin" stroke-width="0.850392"/>
   </g>
  </g>
 </g>
 <g partID="854679460">
  <g transform="translate(125.404,142.841)">
   <g  id="copper0">
    <circle stroke="black" r="0.992124" cx="3.01733" fill="none"  cy="3.01733" id="connector0pin" stroke-width="0.850392"/>
   </g>
  </g>
 </g>
 <g partID="854679740">
  <g transform="translate(136.726,43.5437)">
   <g  id="copper0">
    <circle stroke="black" r="0.992124" cx="3.01733" fill="none"  cy="3.01733" id="connector0pin" stroke-width="0.850392"/>
   </g>
  </g>
 </g>
 <g partID="854515660">
  <g transform="translate(176.787,112.833)">
   <g transform="matrix(1, 0, 0, 1, 0.377238, -800.114)">
    <g id="copper0">
     <g transform="matrix(1, 0, 0, 1, -0.288, 797.219)">
      <g>
       <g gorn="0.3.0.0.0.0.0.0.0.0">
        <circle stroke="black" gorn="0.3.0.0.0.0.0.0.0.0.0" r="2.69291" cx="13.0439" connectorname="PWR" fill="none" cy="6.12" id="connector2pad" stroke-width="0.850394"/>
        <circle stroke="black" gorn="0.3.0.0.0.0.0.0.0.0.1" r="2.69291" cx="13.0439" connectorname="GND" fill="none" cy="22.5609" id="connector0pad" stroke-width="0.850394"/>
        <circle stroke="black" gorn="0.3.0.0.0.0.0.0.0.0.2" r="2.69291" cx="26.6502" connectorname="GNDBREAK" fill="none" cy="14.6239" id="connector1pad" stroke-width="0.850394"/>
        <g gorn="0.3.0.0.0.0.0.0.0.0.3" id="copper1">
         <circle stroke="black" gorn="0.3.0.0.0.0.0.0.0.0.3.0" r="2.69291" cx="13.0439" connectorname="PWR" fill="none" cy="6.12" id="connector2pad2" stroke-width="0.850394"/>
         <circle stroke="black" gorn="0.3.0.0.0.0.0.0.0.0.3.1" r="2.69291" cx="13.0439" connectorname="GND" fill="none" cy="22.5609" id="connector0pad2" stroke-width="0.850394"/>
         <circle stroke="black" gorn="0.3.0.0.0.0.0.0.0.0.3.2" r="2.69291" cx="26.6502" connectorname="GNDBREAK" fill="none" cy="14.6239" id="connector1pad2" stroke-width="0.850394"/>
        </g>
       </g>
      </g>
     </g>
    </g>
   </g>
  </g>
 </g>
 <g partID="854511850">
  <g transform="translate(140.66,120.308)">
   <g transform="matrix(1, 0, 0, 1, 0.615231, 1.27105)">
    <g id="copper0">
     <g gorn="0.3.0.0.5">
      <path stroke="none" gorn="0.3.0.0.5.0" d="m3.68929,-1.13043a2.83464,2.83465,0,0,0,-2.83447,2.83447,2.83464,2.83465,0,0,0,2.83447,2.83595l5.67039,0a2.83464,2.83465,0,0,0,2.83447,-2.83595,2.83464,2.83465,0,0,0,-2.83447,-2.83447zm2.85352,0.706054a2.12598,2.12598,0,0,1,2.12549,2.12549,2.12598,2.12598,0,0,1,-2.12549,2.12549,2.12598,2.12598,0,0,1,-2.12695,-2.12549,2.12598,2.12598,0,0,1,2.12695,-2.12549z" fill="black" id="path1831" stroke-width="0"/>
      <path stroke="none" gorn="0.3.0.0.5.1" d="m3.68929,-1.13043a2.83464,2.83465,0,0,0,-2.83447,2.83447,2.83464,2.83465,0,0,0,2.83447,2.83595l5.67042,0a2.83464,2.83465,0,0,0,2.83447,-2.83595,2.83464,2.83465,0,0,0,-2.83447,-2.83447zm2.85352,0.706054a2.12598,2.12598,0,0,1,2.12549,2.12549,2.12598,2.12598,0,0,1,-2.12549,2.12549,2.12598,2.12598,0,0,1,-2.12695,-2.12549,2.12598,2.12598,0,0,1,2.12695,-2.12549z" fill="black" id="connector2extra2" stroke-width="0"/>
      <circle stroke="black" r="2.55118" gorn="0.3.0.0.5.2" cx="6.52411" connectorname="PWR" fill="none" cy="1.70533" id="connector2pad2" stroke-width="0.850393"/>
      <circle stroke="black" r="2.55118" gorn="0.3.0.0.5.3" cx="6.52411" connectorname="GND@1" fill="none" cy="15.8786" id="connector0pad2" stroke-width="0.850393"/>
      <g transform="matrix(0.264583, 0, 0, 0.264583, -0.5625, -1.12932)">
       <g>
        <g>
         <path stroke="none" gorn="0.3.0.0.5.4.0.0" d="m16.0722,53.5703a10.7136,10.7136,0,0,0,-10.713,10.713,10.7136,10.7136,0,0,0,10.713,10.713l21.4259,0a10.7136,10.7136,0,0,0,10.713,-10.713,10.7136,10.7136,0,0,0,-10.713,-10.713zm10.713,2.67409a8.03522,8.03523,0,0,1,8.03332,8.03889,8.03522,8.03523,0,0,1,-8.03332,8.03336,8.03522,8.03523,0,0,1,-8.03888,-8.03336,8.03522,8.03523,0,0,1,8.03888,-8.03889z" fill="black" id="connector0extra2" stroke-width="0"/>
        </g>
       </g>
      </g>
      <circle stroke="black" r="2.55118" gorn="0.3.0.0.5.5" cx="14.0961" connectorname="GND@2" fill="none" cy="8.79404" id="connector1pad2" stroke-width="0.850393"/>
     </g>
    </g>
   </g>
  </g>
 </g>
 <g partID="854511840">
  <g transform="translate(101.821,120.168)">
   <g transform="matrix(1, 0, 0, 1, 0.615231, 1.27105)">
    <g id="copper0">
     <g gorn="0.3.0.0.5">
      <path stroke="none" gorn="0.3.0.0.5.0" d="m3.68929,-1.13043a2.83464,2.83465,0,0,0,-2.83447,2.83447,2.83464,2.83465,0,0,0,2.83447,2.83595l5.67039,0a2.83464,2.83465,0,0,0,2.83447,-2.83595,2.83464,2.83465,0,0,0,-2.83447,-2.83447zm2.85352,0.706054a2.12598,2.12598,0,0,1,2.12549,2.12549,2.12598,2.12598,0,0,1,-2.12549,2.12549,2.12598,2.12598,0,0,1,-2.12695,-2.12549,2.12598,2.12598,0,0,1,2.12695,-2.12549z" fill="black" id="path1831" stroke-width="0"/>
      <path stroke="none" gorn="0.3.0.0.5.1" d="m3.68929,-1.13043a2.83464,2.83465,0,0,0,-2.83447,2.83447,2.83464,2.83465,0,0,0,2.83447,2.83595l5.67042,0a2.83464,2.83465,0,0,0,2.83447,-2.83595,2.83464,2.83465,0,0,0,-2.83447,-2.83447zm2.85352,0.706054a2.12598,2.12598,0,0,1,2.12549,2.12549,2.12598,2.12598,0,0,1,-2.12549,2.12549,2.12598,2.12598,0,0,1,-2.12695,-2.12549,2.12598,2.12598,0,0,1,2.12695,-2.12549z" fill="black" id="connector2extra2" stroke-width="0"/>
      <circle stroke="black" r="2.55118" gorn="0.3.0.0.5.2" cx="6.52411" connectorname="PWR" fill="none" cy="1.70533" id="connector2pad2" stroke-width="0.850393"/>
      <circle stroke="black" r="2.55118" gorn="0.3.0.0.5.3" cx="6.52411" connectorname="GND@1" fill="none" cy="15.8786" id="connector0pad2" stroke-width="0.850393"/>
      <g transform="matrix(0.264583, 0, 0, 0.264583, -0.5625, -1.12932)">
       <g>
        <g>
         <path stroke="none" gorn="0.3.0.0.5.4.0.0" d="m16.0722,53.5703a10.7136,10.7136,0,0,0,-10.713,10.713,10.7136,10.7136,0,0,0,10.713,10.713l21.4259,0a10.7136,10.7136,0,0,0,10.713,-10.713,10.7136,10.7136,0,0,0,-10.713,-10.713zm10.713,2.67409a8.03522,8.03523,0,0,1,8.03332,8.03889,8.03522,8.03523,0,0,1,-8.03332,8.03336,8.03522,8.03523,0,0,1,-8.03888,-8.03336,8.03522,8.03523,0,0,1,8.03888,-8.03889z" fill="black" id="connector0extra2" stroke-width="0"/>
        </g>
       </g>
      </g>
      <circle stroke="black" r="2.55118" gorn="0.3.0.0.5.5" cx="14.0961" connectorname="GND@2" fill="none" cy="8.79404" id="connector1pad2" stroke-width="0.850393"/>
     </g>
    </g>
   </g>
  </g>
 </g>
 <g partID="854511830">
  <g transform="translate(64.125,120.308)">
   <g transform="matrix(1, 0, 0, 1, 0.615231, 1.27105)">
    <g id="copper0">
     <g gorn="0.3.0.0.5">
      <path stroke="none" gorn="0.3.0.0.5.0" d="m3.68929,-1.13043a2.83464,2.83465,0,0,0,-2.83447,2.83447,2.83464,2.83465,0,0,0,2.83447,2.83595l5.67039,0a2.83464,2.83465,0,0,0,2.83447,-2.83595,2.83464,2.83465,0,0,0,-2.83447,-2.83447zm2.85352,0.706054a2.12598,2.12598,0,0,1,2.12549,2.12549,2.12598,2.12598,0,0,1,-2.12549,2.12549,2.12598,2.12598,0,0,1,-2.12695,-2.12549,2.12598,2.12598,0,0,1,2.12695,-2.12549z" fill="black" id="path1831" stroke-width="0"/>
      <path stroke="none" gorn="0.3.0.0.5.1" d="m3.68929,-1.13043a2.83464,2.83465,0,0,0,-2.83447,2.83447,2.83464,2.83465,0,0,0,2.83447,2.83595l5.67042,0a2.83464,2.83465,0,0,0,2.83447,-2.83595,2.83464,2.83465,0,0,0,-2.83447,-2.83447zm2.85352,0.706054a2.12598,2.12598,0,0,1,2.12549,2.12549,2.12598,2.12598,0,0,1,-2.12549,2.12549,2.12598,2.12598,0,0,1,-2.12695,-2.12549,2.12598,2.12598,0,0,1,2.12695,-2.12549z" fill="black" id="connector2extra2" stroke-width="0"/>
      <circle stroke="black" r="2.55118" gorn="0.3.0.0.5.2" cx="6.52411" connectorname="PWR" fill="none" cy="1.70533" id="connector2pad2" stroke-width="0.850393"/>
      <circle stroke="black" r="2.55118" gorn="0.3.0.0.5.3" cx="6.52411" connectorname="GND@1" fill="none" cy="15.8786" id="connector0pad2" stroke-width="0.850393"/>
      <g transform="matrix(0.264583, 0, 0, 0.264583, -0.5625, -1.12932)">
       <g>
        <g>
         <path stroke="none" gorn="0.3.0.0.5.4.0.0" d="m16.0722,53.5703a10.7136,10.7136,0,0,0,-10.713,10.713,10.7136,10.7136,0,0,0,10.713,10.713l21.4259,0a10.7136,10.7136,0,0,0,10.713,-10.713,10.7136,10.7136,0,0,0,-10.713,-10.713zm10.713,2.67409a8.03522,8.03523,0,0,1,8.03332,8.03889,8.03522,8.03523,0,0,1,-8.03332,8.03336,8.03522,8.03523,0,0,1,-8.03888,-8.03336,8.03522,8.03523,0,0,1,8.03888,-8.03889z" fill="black" id="connector0extra2" stroke-width="0"/>
        </g>
       </g>
      </g>
      <circle stroke="black" r="2.55118" gorn="0.3.0.0.5.5" cx="14.0961" connectorname="GND@2" fill="none" cy="8.79404" id="connector1pad2" stroke-width="0.850393"/>
     </g>
    </g>
   </g>
  </g>
 </g>
 <g partID="854511860">
  <g transform="translate(26.7032,120.168)">
   <g transform="matrix(1, 0, 0, 1, 0.615231, 1.27105)">
    <g id="copper0">
     <g gorn="0.3.0.0.5">
      <path stroke="none" gorn="0.3.0.0.5.0" d="m3.68929,-1.13043a2.83464,2.83465,0,0,0,-2.83447,2.83447,2.83464,2.83465,0,0,0,2.83447,2.83595l5.67039,0a2.83464,2.83465,0,0,0,2.83447,-2.83595,2.83464,2.83465,0,0,0,-2.83447,-2.83447zm2.85352,0.706054a2.12598,2.12598,0,0,1,2.12549,2.12549,2.12598,2.12598,0,0,1,-2.12549,2.12549,2.12598,2.12598,0,0,1,-2.12695,-2.12549,2.12598,2.12598,0,0,1,2.12695,-2.12549z" fill="black" id="path1831" stroke-width="0"/>
      <path stroke="none" gorn="0.3.0.0.5.1" d="m3.68929,-1.13043a2.83464,2.83465,0,0,0,-2.83447,2.83447,2.83464,2.83465,0,0,0,2.83447,2.83595l5.67042,0a2.83464,2.83465,0,0,0,2.83447,-2.83595,2.83464,2.83465,0,0,0,-2.83447,-2.83447zm2.85352,0.706054a2.12598,2.12598,0,0,1,2.12549,2.12549,2.12598,2.12598,0,0,1,-2.12549,2.12549,2.12598,2.12598,0,0,1,-2.12695,-2.12549,2.12598,2.12598,0,0,1,2.12695,-2.12549z" fill="black" id="connector2extra2" stroke-width="0"/>
      <circle stroke="black" r="2.55118" gorn="0.3.0.0.5.2" cx="6.52411" connectorname="PWR" fill="none" cy="1.70533" id="connector2pad2" stroke-width="0.850393"/>
      <circle stroke="black" r="2.55118" gorn="0.3.0.0.5.3" cx="6.52411" connectorname="GND@1" fill="none" cy="15.8786" id="connector0pad2" stroke-width="0.850393"/>
      <g transform="matrix(0.264583, 0, 0, 0.264583, -0.5625, -1.12932)">
       <g>
        <g>
         <path stroke="none" gorn="0.3.0.0.5.4.0.0" d="m16.0722,53.5703a10.7136,10.7136,0,0,0,-10.713,10.713,10.7136,10.7136,0,0,0,10.713,10.713l21.4259,0a10.7136,10.7136,0,0,0,10.713,-10.713,10.7136,10.7136,0,0,0,-10.713,-10.713zm10.713,2.67409a8.03522,8.03523,0,0,1,8.03332,8.03889,8.03522,8.03523,0,0,1,-8.03332,8.03336,8.03522,8.03523,0,0,1,-8.03888,-8.03336,8.03522,8.03523,0,0,1,8.03888,-8.03889z" fill="black" id="connector0extra2" stroke-width="0"/>
        </g>
       </g>
      </g>
      <circle stroke="black" r="2.55118" gorn="0.3.0.0.5.5" cx="14.0961" connectorname="GND@2" fill="none" cy="8.79404" id="connector1pad2" stroke-width="0.850393"/>
     </g>
    </g>
   </g>
  </g>
 </g>
 <g partID="854422620">
  <g transform="translate(4.20968,4.61544)">
   <g  id="copper0">
    <circle stroke="black" r="3.54331" cx="5.14331" fill="black"  cy="5.14331" id="nonconn0" stroke-width="0"/>
   </g>
  </g>
 </g>
 <g partID="854422600">
  <g transform="translate(4.20968,142.096)">
   <g  id="copper0">
    <circle stroke="black" r="3.54331" cx="5.14331" fill="black"  cy="5.14331" id="nonconn0" stroke-width="0"/>
   </g>
  </g>
 </g>
 <g partID="854749150">
  <g transform="translate(48.1466,142.096)">
   <g  id="copper0">
    <circle stroke="black" r="3.54331" cx="5.14331" fill="black"  cy="5.14331" id="nonconn0" stroke-width="0"/>
   </g>
  </g>
 </g>
 <g partID="854422360">
  <g transform="translate(212.556,142.096)">
   <g  id="copper0">
    <circle stroke="black" r="3.54331" cx="5.14331" fill="black"  cy="5.14331" id="nonconn0" stroke-width="0"/>
   </g>
  </g>
 </g>
 <g partID="854422070">
  <g transform="translate(212.556,4.61544)">
   <g  id="copper0">
    <circle stroke="black" r="3.54331" cx="5.14331" fill="black"  cy="5.14331" id="nonconn0" stroke-width="0"/>
   </g>
  </g>
 </g>
 <g partID="854384890">
  <g transform="translate(154.975,25.1225)">
   <g  id="copper0">
    <rect height="4.464" stroke="black" y="12.168" fill="none"  x="6.408" stroke-width="1.44" width="4.464"/>
    <circle stroke="black" r="2.232" cx="8.64" fill="none"  cy="14.4" id="connector0pad" stroke-width="1.44"/>
    <circle stroke="black" r="2.232" cx="15.84" fill="none"  cy="14.4" id="connector1pad" stroke-width="1.44"/>
    <circle stroke="black" r="2.232" cx="23.04" fill="none"  cy="14.4" id="connector2pad" stroke-width="1.44"/>
   </g>
  </g>
 </g>
 <g partID="854133740">
  <g transform="translate(105.866,36.4265)">
   <g  id="copper0">
    <g  id="copper1">
     <!-- <rect width="55" x="10" y="15.5" fill="none" height="55" stroke="rgb(255, 191, 0)" stroke-width="20" />  -->
     <circle stroke="black" r="1.98" cx="2.7" fill="none"  cy="3.096" id="connector0pin" stroke-width="1.44"/>
     <circle stroke="black" r="1.98" cx="31.5" fill="none"  cy="3.096" id="connector1pin" stroke-width="1.44"/>
    </g>
   </g>
  </g>
 </g>
 <g partID="198050">
  <g transform="translate(195.184,21.088)">
   <g transform="matrix(-1,0,0,-1,0,0)">
    <g transform="matrix(1, 0, 0, 1, -21.472, -3.00704)">
     <g id="copper0">
      <g gorn="0.3.0">
       <g gorn="0.3.0.0" id="copper1">
        <circle stroke="black" gorn="0.3.0.0.0" r="2.088" cx="24.185" fill="none" cy="12.919" id="connector0pin" stroke-width="1.25"/>
        <circle stroke="black" gorn="0.3.0.0.1" r="2.088" cx="31.384" fill="none" cy="12.919" id="connector1pin" stroke-width="1.25"/>
        <circle stroke="black" gorn="0.3.0.0.2" r="2.088" cx="38.585" fill="none" cy="12.919" id="connector2pin" stroke-width="1.25"/>
        <circle stroke="black" gorn="0.3.0.0.3" r="2.088" cx="45.784" fill="none" cy="12.919" id="connector3pin" stroke-width="1.25"/>
        <circle stroke="black" gorn="0.3.0.0.4" r="2.088" cx="52.9849" fill="none" cy="12.919" id="connector4pin" stroke-width="1.25"/>
        <circle stroke="black" gorn="0.3.0.0.5" r="2.088" cx="60.1849" fill="none" cy="12.919" id="connector5pin" stroke-width="1.25"/>
        <circle stroke="black" gorn="0.3.0.0.6" r="2.088" cx="67.3839" fill="none" cy="12.919" id="connector6pin" stroke-width="1.25"/>
        <circle stroke="black" gorn="0.3.0.0.7" r="2.088" cx="74.5849" fill="none" cy="12.919" id="connector7pin" stroke-width="1.25"/>
        <circle stroke="black" gorn="0.3.0.0.8" r="2.088" cx="81.7839" fill="none" cy="12.919" id="connector8pin" stroke-width="1.25"/>
        <circle stroke="black" gorn="0.3.0.0.9" r="2.088" cx="88.9849" fill="none" cy="12.919" id="connector9pin" stroke-width="1.25"/>
        <circle stroke="black" gorn="0.3.0.0.10" r="2.088" cx="96.1849" fill="none" cy="12.919" id="connector10pin" stroke-width="1.25"/>
        <circle stroke="black" gorn="0.3.0.0.11" r="2.088" cx="103.385" fill="none" cy="12.919" id="connector11pin" stroke-width="1.25"/>
        <circle stroke="black" gorn="0.3.0.0.12" r="2.088" cx="110.585" fill="none" cy="12.919" id="connector12pin" stroke-width="1.25"/>
        <circle stroke="black" gorn="0.3.0.0.13" r="2.088" cx="117.784" fill="none" cy="12.919" id="connector13pin" stroke-width="1.25"/>
        <circle stroke="black" gorn="0.3.0.0.14" r="2.088" cx="124.986" fill="none" cy="12.919" id="connector14pin" stroke-width="1.25"/>
        <circle stroke="black" gorn="0.3.0.0.15" r="2.088" cx="132.185" fill="none" cy="12.919" id="connector15pin" stroke-width="1.25"/>
        <circle stroke="black" gorn="0.3.0.0.16" r="2.088" cx="139.385" fill="none" cy="12.919" id="connector16pin" stroke-width="1.25"/>
        <circle stroke="black" gorn="0.3.0.0.17" r="2.088" cx="146.585" fill="none" cy="12.919" id="connector17pin" stroke-width="1.25"/>
        <circle stroke="black" gorn="0.3.0.0.18" r="2.088" cx="153.784" fill="none" cy="12.919" id="connector18pin" stroke-width="1.25"/>
        <circle stroke="black" gorn="0.3.0.0.19" r="2.088" cx="160.986" fill="none" cy="12.919" id="connector19pin" stroke-width="1.25"/>
        <circle stroke="black" gorn="0.3.0.0.20" r="2.088" cx="160.986" fill="none" cy="5.72001" id="connector20pin" stroke-width="1.25"/>
        <circle stroke="black" gorn="0.3.0.0.21" r="2.088" cx="153.784" fill="none" cy="5.72001" id="connector21pin" stroke-width="1.25"/>
        <circle stroke="black" gorn="0.3.0.0.22" r="2.088" cx="146.585" fill="none" cy="5.72001" id="connector22pin" stroke-width="1.25"/>
        <circle stroke="black" gorn="0.3.0.0.23" r="2.088" cx="139.385" fill="none" cy="5.72001" id="connector23pin" stroke-width="1.25"/>
        <circle stroke="black" gorn="0.3.0.0.24" r="2.088" cx="132.185" fill="none" cy="5.72001" id="connector24pin" stroke-width="1.25"/>
        <circle stroke="black" gorn="0.3.0.0.25" r="2.088" cx="124.986" fill="none" cy="5.72001" id="connector25pin" stroke-width="1.25"/>
        <circle stroke="black" gorn="0.3.0.0.26" r="2.088" cx="117.784" fill="none" cy="5.72001" id="connector26pin" stroke-width="1.25"/>
        <circle stroke="black" gorn="0.3.0.0.27" r="2.088" cx="110.585" fill="none" cy="5.72001" id="connector27pin" stroke-width="1.25"/>
        <circle stroke="black" gorn="0.3.0.0.28" r="2.088" cx="103.385" fill="none" cy="5.72001" id="connector28pin" stroke-width="1.25"/>
        <circle stroke="black" gorn="0.3.0.0.29" r="2.088" cx="96.1849" fill="none" cy="5.72001" id="connector29pin" stroke-width="1.25"/>
        <circle stroke="black" gorn="0.3.0.0.30" r="2.088" cx="88.9849" fill="none" cy="5.72001" id="connector30pin" stroke-width="1.25"/>
        <circle stroke="black" gorn="0.3.0.0.31" r="2.088" cx="81.7839" fill="none" cy="5.72001" id="connector31pin" stroke-width="1.25"/>
        <circle stroke="black" gorn="0.3.0.0.32" r="2.088" cx="74.5849" fill="none" cy="5.72001" id="connector32pin" stroke-width="1.25"/>
        <circle stroke="black" gorn="0.3.0.0.33" r="2.088" cx="67.3839" fill="none" cy="5.72001" id="connector33pin" stroke-width="1.25"/>
        <circle stroke="black" gorn="0.3.0.0.34" r="2.088" cx="60.1849" fill="none" cy="5.72001" id="connector34pin" stroke-width="1.25"/>
        <circle stroke="black" gorn="0.3.0.0.35" r="2.088" cx="52.9849" fill="none" cy="5.72001" id="connector35pin" stroke-width="1.25"/>
        <circle stroke="black" gorn="0.3.0.0.36" r="2.088" cx="45.784" fill="none" cy="5.72001" id="connector36pin" stroke-width="1.25"/>
        <circle stroke="black" gorn="0.3.0.0.37" r="2.088" cx="38.585" fill="none" cy="5.72001" id="connector37pin" stroke-width="1.25"/>
        <circle stroke="black" gorn="0.3.0.0.38" r="2.088" cx="31.384" fill="none" cy="5.72001" id="connector38pin" stroke-width="1.25"/>
        <circle stroke="black" gorn="0.3.0.0.39" r="2.088" cx="24.185" fill="none" cy="5.72001" id="connector39pin" stroke-width="1.25"/>
       </g>
      </g>
     </g>
    </g>
   </g>
  </g>
 </g>
 <g partID="337480">
  <g transform="translate(208.407,27.1691)">
   <g  id="copper0">
    <circle stroke="black" r="2.088" cx="5.04" fill="none"  cy="5.04" id="connector0pin" stroke-width="1.44"/>
    <circle stroke="black" r="2.088" cx="5.04" fill="none"  cy="12.24" id="connector1pin" stroke-width="1.44"/>
    <circle stroke="black" r="2.088" cx="5.04" fill="none"  cy="19.44" id="connector2pin" stroke-width="1.44"/>
    <circle stroke="black" r="2.088" cx="5.04" fill="none"  cy="26.64" id="connector3pin" stroke-width="1.44"/>
    <circle stroke="black" r="2.088" cx="5.04" fill="none"  cy="33.84" id="connector4pin" stroke-width="1.44"/>
   </g>
  </g>
 </g>
 <g partID="854708380">
  <g transform="translate(44.6258,19.5282)">
   <g  id="copper0">
    <circle stroke="black" r="0.992124" cx="3.01733" fill="none"  cy="3.01733" id="connector0pin" stroke-width="0.850392"/>
   </g>
  </g>
 </g>
 <g partID="854709190">
  <g transform="translate(174.951,29.3898)">
   <g  id="copper0">
    <circle stroke="black" r="0.992124" cx="3.01733" fill="none"  cy="3.01733" id="connector0pin" stroke-width="0.850392"/>
   </g>
  </g>
 </g>
 <g partID="854749310">
  <g transform="translate(136.712,59.2005)">
   <g  id="copper0">
    <circle stroke="black" r="0.992124" cx="3.01733" fill="none"  cy="3.01733" id="connector0pin" stroke-width="0.850392"/>
   </g>
  </g>
 </g>
 <g partID="854753780">
  <g transform="translate(160.799,49.2835)">
   <g  id="copper0">
    <circle stroke="black" r="0.992124" cx="3.01733" fill="none"  cy="3.01733" id="connector0pin" stroke-width="0.850392"/>
   </g>
  </g>
 </g>
 <g partID="854763090">
  <g transform="translate(0.39312,55.9651)">
   <g transform="matrix(1, 0, 0, 1, 0, -794.551)">
    <g id="copper0">
     <g transform="matrix(0.352778, 0, 0, 0.352778, -8.05732, 795.261)">
      <g>
       <g gorn="0.3.0.0.0.0.0.1.0" stroke-width="0">
        <circle stroke="black" gorn="0.3.0.0.0.0.0.1.0.0" r="5.81669" cx="46.9444" connectorname="ST" fill="none" cy="14.0617" id="connector0pin" stroke-width="3.46961"/>
        <circle stroke="black" gorn="0.3.0.0.0.0.0.1.0.1" r="5.81669" cx="87.7472" connectorname="ZOUT" fill="none" cy="14.078" id="connector1pin" stroke-width="3.46961"/>
        <circle stroke="black" gorn="0.3.0.0.0.0.0.1.0.2" r="5.81669" cx="169.395" connectorname="YOUT" fill="none" cy="14.0842" id="connector2pin" stroke-width="3.46961"/>
        <circle stroke="black" gorn="0.3.0.0.0.0.0.1.0.3" r="5.81669" cx="169.386" connectorname="XOUT" fill="none" cy="116.093" id="connector3pin" stroke-width="3.46961"/>
        <circle stroke="black" gorn="0.3.0.0.0.0.0.1.0.4" r="5.81669" cx="128.59" connectorname="GND" fill="none" cy="116.1" id="connector4pin" stroke-width="3.46961"/>
       </g>
      </g>
     </g>
    </g>
   </g>
  </g>
 </g>
 <g partID="854763390">
  <g transform="translate(71.8338,56.4226)">
   <g transform="matrix(1, 0, 0, 1, 0, -794.551)">
    <g id="copper0">
     <g transform="matrix(0.352778, 0, 0, 0.352778, -8.05732, 795.261)">
      <g>
       <g gorn="0.3.0.0.0.0.0.1.0" stroke-width="0">
        <circle stroke="black" gorn="0.3.0.0.0.0.0.1.0.0" r="5.81669" cx="46.9444" connectorname="ST" fill="none" cy="14.0617" id="connector0pin" stroke-width="3.46961"/>
        <circle stroke="black" gorn="0.3.0.0.0.0.0.1.0.1" r="5.81669" cx="87.7472" connectorname="ZOUT" fill="none" cy="14.078" id="connector1pin" stroke-width="3.46961"/>
        <circle stroke="black" gorn="0.3.0.0.0.0.0.1.0.2" r="5.81669" cx="169.395" connectorname="YOUT" fill="none" cy="14.0842" id="connector2pin" stroke-width="3.46961"/>
        <circle stroke="black" gorn="0.3.0.0.0.0.0.1.0.3" r="5.81669" cx="169.386" connectorname="XOUT" fill="none" cy="116.093" id="connector3pin" stroke-width="3.46961"/>
        <circle stroke="black" gorn="0.3.0.0.0.0.0.1.0.4" r="5.81669" cx="128.59" connectorname="GND" fill="none" cy="116.1" id="connector4pin" stroke-width="3.46961"/>
       </g>
      </g>
     </g>
    </g>
   </g>
  </g>
 </g>
 <g partID="854763730">
  <g transform="translate(141.283,56.4226)">
   <g transform="matrix(1, 0, 0, 1, 0, -794.551)">
    <g id="copper0">
     <g transform="matrix(0.352778, 0, 0, 0.352778, -8.05732, 795.261)">
      <g>
       <g gorn="0.3.0.0.0.0.0.1.0" stroke-width="0">
        <circle stroke="black" gorn="0.3.0.0.0.0.0.1.0.0" r="5.81669" cx="46.9444" connectorname="ST" fill="none" cy="14.0617" id="connector0pin" stroke-width="3.46961"/>
        <circle stroke="black" gorn="0.3.0.0.0.0.0.1.0.1" r="5.81669" cx="87.7472" connectorname="ZOUT" fill="none" cy="14.078" id="connector1pin" stroke-width="3.46961"/>
        <circle stroke="black" gorn="0.3.0.0.0.0.0.1.0.2" r="5.81669" cx="169.395" connectorname="YOUT" fill="none" cy="14.0842" id="connector2pin" stroke-width="3.46961"/>
        <circle stroke="black" gorn="0.3.0.0.0.0.0.1.0.3" r="5.81669" cx="169.386" connectorname="XOUT" fill="none" cy="116.093" id="connector3pin" stroke-width="3.46961"/>
        <circle stroke="black" gorn="0.3.0.0.0.0.0.1.0.4" r="5.81669" cx="128.59" connectorname="GND" fill="none" cy="116.1" id="connector4pin" stroke-width="3.46961"/>
       </g>
      </g>
     </g>
    </g>
   </g>
  </g>
 </g>
 <g partID="854772050">
  <g transform="translate(207.64,140.006)">
   <g  id="copper0">
    <circle stroke="black" r="0.992124" cx="3.01733" fill="none"  cy="3.01733" id="connector0pin" stroke-width="0.850392"/>
   </g>
  </g>
 </g>
 <g partID="854658800">
  <line stroke="black" stroke-linecap="round" x2="112.795" y1="151.468" x1="169.569" y2="151.467" stroke-width="1.728"/>
 </g>
 <g partID="854658920">
  <line stroke="black" stroke-linecap="round" x2="112.795" y1="151.467" x1="112.795" y2="144.948" stroke-width="1.728"/>
 </g>
 <g partID="854658780">
  <line stroke="black" stroke-linecap="round" x2="169.569" y1="143.023" x1="169.569" y2="151.468" stroke-width="1.728"/>
 </g>
 <g partID="854677440">
  <line stroke="black" stroke-linecap="round" x2="169.569" y1="143.024" x1="210.091" y2="143.023" stroke-width="1.728"/>
 </g>
 <g partID="854679210">
  <line stroke="black" stroke-linecap="round" x2="149.626" y1="89.0781" x1="186.458" y2="89.2475" stroke-width="1.728"/>
 </g>
 <g partID="854674770">
  <line stroke="black" stroke-linecap="round" x2="7.85464" y1="89.2477" x1="149.626" y2="89.0884" stroke-width="1.728"/>
 </g>
 <g partID="854674500">
  <line stroke="black" stroke-linecap="round" x2="8.84205" y1="89.0885" x1="7.85416" y2="63.075" stroke-width="1.728"/>
 </g>
 <g partID="854650610">
  <line stroke="black" stroke-linecap="round" x2="186.585" y1="116.122" x1="187.653" y2="116.152" stroke-width="1.728"/>
 </g>
 <g partID="854678960">
  <line stroke="black" stroke-linecap="round" x2="149.626" y1="89.0781" x1="186.458" y2="89.2475" stroke-width="1.728"/>
 </g>
 <g partID="854675580">
  <line stroke="black" stroke-linecap="round" x2="80.3308" y1="89.1581" x1="80.213" y2="63.5333" stroke-width="1.728"/>
 </g>
 <g partID="854675040">
  <line stroke="black" stroke-linecap="round" x2="80.2131" y1="89.2477" x1="149.626" y2="89.1582" stroke-width="1.728"/>
 </g>
 <g partID="854651060">
  <line stroke="black" stroke-linecap="round" x2="186.517" y1="116.011" x1="187.652" y2="115.987" stroke-width="1.728"/>
 </g>
 <g partID="854678710">
  <line stroke="black" stroke-linecap="round" x2="149.626" y1="89.0781" x1="186.458" y2="89.2472" stroke-width="1.728"/>
 </g>
 <g partID="854675310">
  <line stroke="black" stroke-linecap="round" x2="149.778" y1="89.2477" x1="149.626" y2="63.5336" stroke-width="1.728"/>
 </g>
 <g partID="854651490">
  <line stroke="black" stroke-linecap="round" x2="186.517" y1="116.011" x1="187.652" y2="115.987" stroke-width="1.728"/>
 </g>
 <g partID="854661920">
  <line stroke="black" stroke-linecap="round" x2="23.3398" y1="11.186" x1="25.0014" y2="60.2024" stroke-width="1.728"/>
 </g>
 <g partID="854651900">
  <line stroke="black" stroke-linecap="round" x2="25.0014" y1="11.1766" x1="54.2068" y2="11.186" stroke-width="1.728"/>
 </g>
 <g partID="854663410">
  <line stroke="black" stroke-linecap="round" x2="94.7029" y1="46.6267" x1="94.425" y2="60.6594" stroke-width="1.728"/>
 </g>
 <g partID="854663000">
  <line stroke="black" stroke-linecap="round" x2="94.4254" y1="43.8302" x1="25.0017" y2="46.6267" stroke-width="1.728"/>
 </g>
 <g partID="854662190">
  <line stroke="black" stroke-linecap="round" x2="25.0017" y1="11.186" x1="25.0014" y2="43.8302" stroke-width="1.728"/>
 </g>
 <g partID="854652290">
  <line stroke="black" stroke-linecap="round" x2="25.0014" y1="11.1766" x1="54.2068" y2="11.186" stroke-width="1.728"/>
 </g>
 <g partID="854662730">
  <line stroke="black" stroke-linecap="round" x2="109.498" y1="43.74" x1="24.8819" y2="46.4734" stroke-width="1.728"/>
 </g>
 <g partID="854662460">
  <line stroke="black" stroke-linecap="round" x2="24.882" y1="11.1859" x1="25.0017" y2="43.74" stroke-width="1.728"/>
 </g>
 <g partID="854652660">
  <line stroke="black" stroke-linecap="round" x2="25.0019" y1="11.1765" x1="54.2076" y2="11.1859" stroke-width="1.728"/>
 </g>
 <g partID="854655480">
  <line stroke="black" stroke-linecap="round" x2="138.626" y1="39.5225" x1="162.103" y2="39.5225" stroke-width="1.728"/>
 </g>
 <g partID="854680810">
  <line stroke="black" stroke-linecap="round" x2="179.492" y1="101.858" x1="179.492" y2="135.903" stroke-width="1.728"/>
 </g>
 <g partID="854657740">
  <line stroke="black" stroke-linecap="round" x2="179.493" y1="99.4904" x1="178.925" y2="101.858" stroke-width="1.728"/>
 </g>
 <g partID="854658520">
  <line stroke="black" stroke-linecap="round" x2="210.064" y1="98.1693" x1="194.419" y2="99.057" stroke-width="1.728"/>
 </g>
 <g partID="854680200">
  <line stroke="black" stroke-linecap="round" x2="204.201" y1="40.8656" x1="197.853" y2="40.6291" stroke-width="1.728"/>
 </g>
 <g partID="854777280">
  <line stroke="black" stroke-linecap="round" x2="197.853" y1="62.2611" x1="197.853" y2="40.8656" stroke-width="1.728"/>
 </g>
 <g partID="854659160">
  <line stroke="black" stroke-linecap="round" x2="197.853" y1="62.1485" x1="194.423" y2="62.2612" stroke-width="1.728"/>
 </g>
 <g partID="854667070">
  <line stroke="black" stroke-linecap="round" x2="178.535" y1="32.407" x1="204.974" y2="32.407" stroke-width="1.728"/>
 </g>
 <g partID="854659920">
  <line stroke="black" stroke-linecap="round" x2="204.974" y1="32.2411" x1="212.08" y2="32.4071" stroke-width="1.728"/>
 </g>
 <g partID="854663320">
  <line stroke="black" stroke-linecap="round" x2="47.5453" y1="29.573" x1="59.7373" y2="29.573" stroke-width="1.728"/>
 </g>
 <g partID="854663270">
  <line stroke="black" stroke-linecap="round" x2="47.6352" y1="29.573" x1="47.545" y2="23.1124" stroke-width="1.728"/>
 </g>
 <g partID="854665850">
  <line stroke="black" stroke-linecap="round" x2="124.211" y1="26.7414" x1="204.974" y2="26.8134" stroke-width="1.728"/>
 </g>
 <g partID="854665800">
  <line stroke="black" stroke-linecap="round" x2="204.974" y1="2.65632" x1="205.025" y2="26.7414" stroke-width="1.728"/>
 </g>
 <g partID="854665750">
  <line stroke="black" stroke-linecap="round" x2="205.025" y1="2.65632" x1="149.619" y2="2.65632" stroke-width="1.728"/>
 </g>
 <g partID="854665700">
  <line stroke="black" stroke-linecap="round" x2="123.563" y1="26.8134" x1="124.211" y2="60.6615" stroke-width="1.728"/>
 </g>
 <g partID="854665650">
  <line stroke="black" stroke-linecap="round" x2="149.619" y1="9.71429" x1="149.332" y2="2.65632" stroke-width="1.728"/>
 </g>
 <g partID="854678460">
  <line stroke="black" stroke-linecap="round" x2="148.296" y1="89.0781" x1="186.458" y2="89.1579" stroke-width="1.728"/>
 </g>
 <g partID="854675850">
  <line stroke="black" stroke-linecap="round" x2="148.261" y1="89.1581" x1="148.296" y2="111.223" stroke-width="1.728"/>
 </g>
 <g partID="854672680">
  <line stroke="black" stroke-linecap="round" x2="186.517" y1="116.011" x1="187.652" y2="115.987" stroke-width="1.728"/>
 </g>
 <g partID="854676870">
  <line stroke="black" stroke-linecap="round" x2="163.897" y1="81.9915" x1="217.21" y2="83.4067" stroke-width="1.728"/>
 </g>
 <g partID="854676370">
  <line stroke="black" stroke-linecap="round" x2="164.161" y1="83.4061" x1="163.897" y2="63.5385" stroke-width="1.728"/>
 </g>
 <g partID="854676120">
  <line stroke="black" stroke-linecap="round" x2="217.21" y1="132.54" x1="192.187" y2="132.989" stroke-width="1.728"/>
 </g>
 <g partID="854658240">
  <line stroke="black" stroke-linecap="round" x2="128.988" y1="145.859" x1="163.84" y2="145.859" stroke-width="1.728"/>
 </g>
 <g partID="854658160">
  <line stroke="black" stroke-linecap="round" x2="163.84" y1="135.888" x1="163.84" y2="145.859" stroke-width="1.728"/>
 </g>
 <g partID="854679500">
  <line stroke="black" stroke-linecap="round" x2="163.84" y1="135.903" x1="179.492" y2="135.887" stroke-width="1.728"/>
 </g>
 <g partID="854679590">
  <line stroke="black" stroke-linecap="round" x2="139.73" y1="47.128" x1="139.743" y2="61.6509" stroke-width="1.728"/>
 </g>
 <g partID="854749410">
  <line stroke="black" stroke-linecap="round" x2="164.127" y1="52.8673" x1="163.837" y2="60.66" stroke-width="1.728"/>
 </g>
 <g partID="854757130">
  <line stroke="black" stroke-linecap="round" x2="186.458" y1="115.986" x1="186.517" y2="89.0779" stroke-width="1.728"/>
 </g>
 <g partID="854757850">
  <line stroke="black" stroke-linecap="round" x2="186.458" y1="115.986" x1="186.517" y2="89.0779" stroke-width="1.728"/>
 </g>
 <g partID="854758100">
  <line stroke="black" stroke-linecap="round" x2="186.458" y1="115.986" x1="186.517" y2="89.0778" stroke-width="1.728"/>
 </g>
 <g partID="854758350">
  <line stroke="black" stroke-linecap="round" x2="186.458" y1="116.152" x1="186.585" y2="89.0778" stroke-width="1.728"/>
 </g>
</svg>
