<?xml version='1.0' encoding='UTF-8' standalone='no'?>
<!-- Created with Fritzing (http://www.fritzing.org/) -->
<svg xmlns="http://www.w3.org/2000/svg"  y="0in" width="3.14961in" height="2.16535in" viewBox="0 0 226.772 155.906" baseProfile="tiny" xmlns:svg="http://www.w3.org/2000/svg" version="1.2" x="0in">
 <g transform="matrix(-1, 0, 0, 1, 226.772, 0)">
  <g partID="196230">
   <g  id="board">
    <rect  y="0.288" fill-opacity="0.5" width="226.196" stroke-width="0.5" fill="none" id="boardoutline" height="155.33" x="0.288" stroke="black"/>
   </g>
  </g>
  <g partID="854544810">
   <g transform="translate(55.961,52.0103)">
    <g  id="copper0">
     <circle  cy="3.01733" cx="3.01733" stroke-width="1.57039" fill="black" id="connector0pin" r="0.992124" stroke="black"/>
    </g>
   </g>
  </g>
  <g partID="854545390">
   <g transform="translate(44.5834,6.67368)">
    <g  id="copper0">
     <circle  cy="3.01733" cx="3.01733" stroke-width="1.57039" fill="black" id="connector0pin" r="0.992124" stroke="black"/>
    </g>
   </g>
  </g>
  <g partID="854536970">
   <g transform="translate(186.374,103.142)">
    <g  id="copper0">
     <circle  cy="3.01733" cx="3.01733" stroke-width="1.57039" fill="black" id="connector0pin" r="0.992124" stroke="black"/>
    </g>
   </g>
  </g>
  <g partID="854515660">
   <g transform="translate(176.787,112.833)">
    <g transform="matrix(1, 0, 0, 1, 0.377238, -800.114)">
     <g id="copper0">
      <g transform="matrix(1, 0, 0, 1, -0.288, 797.219)">
       <g>
        <g gorn="0.3.0.0.0.0.0.0.0.0">
         <circle cy="6.12" connectorname="PWR" cx="13.0439" stroke-width="1.57039" fill="black" id="connector2pad" gorn="0.3.0.0.0.0.0.0.0.0.0" r="2.69291" stroke="black"/>
         <circle cy="22.5609" connectorname="GND" cx="13.0439" stroke-width="1.57039" fill="black" id="connector0pad" gorn="0.3.0.0.0.0.0.0.0.0.1" r="2.69291" stroke="black"/>
         <circle cy="14.6239" connectorname="GNDBREAK" cx="26.6502" stroke-width="1.57039" fill="black" id="connector1pad" gorn="0.3.0.0.0.0.0.0.0.0.2" r="2.69291" stroke="black"/>
         <g id="copper1" gorn="0.3.0.0.0.0.0.0.0.0.3">
          <circle cy="6.12" connectorname="PWR" cx="13.0439" stroke-width="1.57039" fill="black" id="connector2pad2" gorn="0.3.0.0.0.0.0.0.0.0.3.0" r="2.69291" stroke="black"/>
          <circle cy="22.5609" connectorname="GND" cx="13.0439" stroke-width="1.57039" fill="black" id="connector0pad2" gorn="0.3.0.0.0.0.0.0.0.0.3.1" r="2.69291" stroke="black"/>
          <circle cy="14.6239" connectorname="GNDBREAK" cx="26.6502" stroke-width="1.57039" fill="black" id="connector1pad2" gorn="0.3.0.0.0.0.0.0.0.0.3.2" r="2.69291" stroke="black"/>
         </g>
        </g>
       </g>
      </g>
     </g>
    </g>
   </g>
  </g>
  <g partID="854512850">
   <g transform="translate(161.444,136.445)">
    <g  id="copper0">
     <circle  cy="3.01733" cx="3.01733" stroke-width="1.57039" fill="black" id="connector0pin" r="0.992124" stroke="black"/>
    </g>
   </g>
  </g>
  <g partID="854511850">
   <g transform="translate(140.66,120.308)">
    <g transform="matrix(1, 0, 0, 1, 0.615231, 1.27105)">
     <g id="copper0">
      <g gorn="0.3.0.0.5">
       <path d="m3.68929,-1.13043a2.83464,2.83465,0,0,0,-2.83447,2.83447,2.83464,2.83465,0,0,0,2.83447,2.83595l5.67039,0a2.83464,2.83465,0,0,0,2.83447,-2.83595,2.83464,2.83465,0,0,0,-2.83447,-2.83447zm2.85352,0.706054a2.12598,2.12598,0,0,1,2.12549,2.12549,2.12598,2.12598,0,0,1,-2.12549,2.12549,2.12598,2.12598,0,0,1,-2.12695,-2.12549,2.12598,2.12598,0,0,1,2.12695,-2.12549z" stroke-width="0.72" fill="black" id="path1831" gorn="0.3.0.0.5.0" stroke="black"/>
       <path d="m3.68929,-1.13043a2.83464,2.83465,0,0,0,-2.83447,2.83447,2.83464,2.83465,0,0,0,2.83447,2.83595l5.67042,0a2.83464,2.83465,0,0,0,2.83447,-2.83595,2.83464,2.83465,0,0,0,-2.83447,-2.83447zm2.85352,0.706054a2.12598,2.12598,0,0,1,2.12549,2.12549,2.12598,2.12598,0,0,1,-2.12549,2.12549,2.12598,2.12598,0,0,1,-2.12695,-2.12549,2.12598,2.12598,0,0,1,2.12695,-2.12549z" stroke-width="0.72" fill="black" id="connector2extra2" gorn="0.3.0.0.5.1" stroke="black"/>
       <circle cy="1.70533" connectorname="PWR" cx="6.52411" stroke-width="1.57039" fill="black" id="connector2pad2" gorn="0.3.0.0.5.2" r="2.55118" stroke="black"/>
       <circle cy="15.8786" connectorname="GND@1" cx="6.52411" stroke-width="1.57039" fill="black" id="connector0pad2" gorn="0.3.0.0.5.3" r="2.55118" stroke="black"/>
       <g transform="matrix(0.264583, 0, 0, 0.264583, -0.5625, -1.12932)">
        <g>
         <g>
          <path d="m16.0722,53.5703a10.7136,10.7136,0,0,0,-10.713,10.713,10.7136,10.7136,0,0,0,10.713,10.713l21.4259,0a10.7136,10.7136,0,0,0,10.713,-10.713,10.7136,10.7136,0,0,0,-10.713,-10.713zm10.713,2.67409a8.03522,8.03523,0,0,1,8.03332,8.03889,8.03522,8.03523,0,0,1,-8.03332,8.03336,8.03522,8.03523,0,0,1,-8.03888,-8.03336,8.03522,8.03523,0,0,1,8.03888,-8.03889z" stroke-width="0.72" fill="black" id="connector0extra2" gorn="0.3.0.0.5.4.0.0" stroke="black"/>
         </g>
        </g>
       </g>
       <circle cy="8.79404" connectorname="GND@2" cx="14.0961" stroke-width="1.57039" fill="black" id="connector1pad2" gorn="0.3.0.0.5.5" r="2.55118" stroke="black"/>
      </g>
     </g>
    </g>
   </g>
  </g>
  <g partID="854511840">
   <g transform="translate(102.393,120.308)">
    <g transform="matrix(1, 0, 0, 1, 0.615231, 1.27105)">
     <g id="copper0">
      <g gorn="0.3.0.0.5">
       <path d="m3.68929,-1.13043a2.83464,2.83465,0,0,0,-2.83447,2.83447,2.83464,2.83465,0,0,0,2.83447,2.83595l5.67039,0a2.83464,2.83465,0,0,0,2.83447,-2.83595,2.83464,2.83465,0,0,0,-2.83447,-2.83447zm2.85352,0.706054a2.12598,2.12598,0,0,1,2.12549,2.12549,2.12598,2.12598,0,0,1,-2.12549,2.12549,2.12598,2.12598,0,0,1,-2.12695,-2.12549,2.12598,2.12598,0,0,1,2.12695,-2.12549z" stroke-width="0.72" fill="black" id="path1831" gorn="0.3.0.0.5.0" stroke="black"/>
       <path d="m3.68929,-1.13043a2.83464,2.83465,0,0,0,-2.83447,2.83447,2.83464,2.83465,0,0,0,2.83447,2.83595l5.67042,0a2.83464,2.83465,0,0,0,2.83447,-2.83595,2.83464,2.83465,0,0,0,-2.83447,-2.83447zm2.85352,0.706054a2.12598,2.12598,0,0,1,2.12549,2.12549,2.12598,2.12598,0,0,1,-2.12549,2.12549,2.12598,2.12598,0,0,1,-2.12695,-2.12549,2.12598,2.12598,0,0,1,2.12695,-2.12549z" stroke-width="0.72" fill="black" id="connector2extra2" gorn="0.3.0.0.5.1" stroke="black"/>
       <circle cy="1.70533" connectorname="PWR" cx="6.52411" stroke-width="1.57039" fill="black" id="connector2pad2" gorn="0.3.0.0.5.2" r="2.55118" stroke="black"/>
       <circle cy="15.8786" connectorname="GND@1" cx="6.52411" stroke-width="1.57039" fill="black" id="connector0pad2" gorn="0.3.0.0.5.3" r="2.55118" stroke="black"/>
       <g transform="matrix(0.264583, 0, 0, 0.264583, -0.5625, -1.12932)">
        <g>
         <g>
          <path d="m16.0722,53.5703a10.7136,10.7136,0,0,0,-10.713,10.713,10.7136,10.7136,0,0,0,10.713,10.713l21.4259,0a10.7136,10.7136,0,0,0,10.713,-10.713,10.7136,10.7136,0,0,0,-10.713,-10.713zm10.713,2.67409a8.03522,8.03523,0,0,1,8.03332,8.03889,8.03522,8.03523,0,0,1,-8.03332,8.03336,8.03522,8.03523,0,0,1,-8.03888,-8.03336,8.03522,8.03523,0,0,1,8.03888,-8.03889z" stroke-width="0.72" fill="black" id="connector0extra2" gorn="0.3.0.0.5.4.0.0" stroke="black"/>
         </g>
        </g>
       </g>
       <circle cy="8.79404" connectorname="GND@2" cx="14.0961" stroke-width="1.57039" fill="black" id="connector1pad2" gorn="0.3.0.0.5.5" r="2.55118" stroke="black"/>
      </g>
     </g>
    </g>
   </g>
  </g>
  <g partID="854468370">
   <g transform="translate(121.167,134.267)">
    <g  id="copper0">
     <circle  cy="3.01733" cx="3.01733" stroke-width="1.57039" fill="black" id="connector0pin" r="0.992124" stroke="black"/>
    </g>
   </g>
  </g>
  <g partID="854511830">
   <g transform="translate(64.125,120.308)">
    <g transform="matrix(1, 0, 0, 1, 0.615231, 1.27105)">
     <g id="copper0">
      <g gorn="0.3.0.0.5">
       <path d="m3.68929,-1.13043a2.83464,2.83465,0,0,0,-2.83447,2.83447,2.83464,2.83465,0,0,0,2.83447,2.83595l5.67039,0a2.83464,2.83465,0,0,0,2.83447,-2.83595,2.83464,2.83465,0,0,0,-2.83447,-2.83447zm2.85352,0.706054a2.12598,2.12598,0,0,1,2.12549,2.12549,2.12598,2.12598,0,0,1,-2.12549,2.12549,2.12598,2.12598,0,0,1,-2.12695,-2.12549,2.12598,2.12598,0,0,1,2.12695,-2.12549z" stroke-width="0.72" fill="black" id="path1831" gorn="0.3.0.0.5.0" stroke="black"/>
       <path d="m3.68929,-1.13043a2.83464,2.83465,0,0,0,-2.83447,2.83447,2.83464,2.83465,0,0,0,2.83447,2.83595l5.67042,0a2.83464,2.83465,0,0,0,2.83447,-2.83595,2.83464,2.83465,0,0,0,-2.83447,-2.83447zm2.85352,0.706054a2.12598,2.12598,0,0,1,2.12549,2.12549,2.12598,2.12598,0,0,1,-2.12549,2.12549,2.12598,2.12598,0,0,1,-2.12695,-2.12549,2.12598,2.12598,0,0,1,2.12695,-2.12549z" stroke-width="0.72" fill="black" id="connector2extra2" gorn="0.3.0.0.5.1" stroke="black"/>
       <circle cy="1.70533" connectorname="PWR" cx="6.52411" stroke-width="1.57039" fill="black" id="connector2pad2" gorn="0.3.0.0.5.2" r="2.55118" stroke="black"/>
       <circle cy="15.8786" connectorname="GND@1" cx="6.52411" stroke-width="1.57039" fill="black" id="connector0pad2" gorn="0.3.0.0.5.3" r="2.55118" stroke="black"/>
       <g transform="matrix(0.264583, 0, 0, 0.264583, -0.5625, -1.12932)">
        <g>
         <g>
          <path d="m16.0722,53.5703a10.7136,10.7136,0,0,0,-10.713,10.713,10.7136,10.7136,0,0,0,10.713,10.713l21.4259,0a10.7136,10.7136,0,0,0,10.713,-10.713,10.7136,10.7136,0,0,0,-10.713,-10.713zm10.713,2.67409a8.03522,8.03523,0,0,1,8.03332,8.03889,8.03522,8.03523,0,0,1,-8.03332,8.03336,8.03522,8.03523,0,0,1,-8.03888,-8.03336,8.03522,8.03523,0,0,1,8.03888,-8.03889z" stroke-width="0.72" fill="black" id="connector0extra2" gorn="0.3.0.0.5.4.0.0" stroke="black"/>
         </g>
        </g>
       </g>
       <circle cy="8.79404" connectorname="GND@2" cx="14.0961" stroke-width="1.57039" fill="black" id="connector1pad2" gorn="0.3.0.0.5.5" r="2.55118" stroke="black"/>
      </g>
     </g>
    </g>
   </g>
  </g>
  <g partID="854511860">
   <g transform="translate(25.8575,120.308)">
    <g transform="matrix(1, 0, 0, 1, 0.615231, 1.27105)">
     <g id="copper0">
      <g gorn="0.3.0.0.5">
       <path d="m3.68929,-1.13043a2.83464,2.83465,0,0,0,-2.83447,2.83447,2.83464,2.83465,0,0,0,2.83447,2.83595l5.67039,0a2.83464,2.83465,0,0,0,2.83447,-2.83595,2.83464,2.83465,0,0,0,-2.83447,-2.83447zm2.85352,0.706054a2.12598,2.12598,0,0,1,2.12549,2.12549,2.12598,2.12598,0,0,1,-2.12549,2.12549,2.12598,2.12598,0,0,1,-2.12695,-2.12549,2.12598,2.12598,0,0,1,2.12695,-2.12549z" stroke-width="0.72" fill="black" id="path1831" gorn="0.3.0.0.5.0" stroke="black"/>
       <path d="m3.68929,-1.13043a2.83464,2.83465,0,0,0,-2.83447,2.83447,2.83464,2.83465,0,0,0,2.83447,2.83595l5.67042,0a2.83464,2.83465,0,0,0,2.83447,-2.83595,2.83464,2.83465,0,0,0,-2.83447,-2.83447zm2.85352,0.706054a2.12598,2.12598,0,0,1,2.12549,2.12549,2.12598,2.12598,0,0,1,-2.12549,2.12549,2.12598,2.12598,0,0,1,-2.12695,-2.12549,2.12598,2.12598,0,0,1,2.12695,-2.12549z" stroke-width="0.72" fill="black" id="connector2extra2" gorn="0.3.0.0.5.1" stroke="black"/>
       <circle cy="1.70533" connectorname="PWR" cx="6.52411" stroke-width="1.57039" fill="black" id="connector2pad2" gorn="0.3.0.0.5.2" r="2.55118" stroke="black"/>
       <circle cy="15.8786" connectorname="GND@1" cx="6.52411" stroke-width="1.57039" fill="black" id="connector0pad2" gorn="0.3.0.0.5.3" r="2.55118" stroke="black"/>
       <g transform="matrix(0.264583, 0, 0, 0.264583, -0.5625, -1.12932)">
        <g>
         <g>
          <path d="m16.0722,53.5703a10.7136,10.7136,0,0,0,-10.713,10.713,10.7136,10.7136,0,0,0,10.713,10.713l21.4259,0a10.7136,10.7136,0,0,0,10.713,-10.713,10.7136,10.7136,0,0,0,-10.713,-10.713zm10.713,2.67409a8.03522,8.03523,0,0,1,8.03332,8.03889,8.03522,8.03523,0,0,1,-8.03332,8.03336,8.03522,8.03523,0,0,1,-8.03888,-8.03336,8.03522,8.03523,0,0,1,8.03888,-8.03889z" stroke-width="0.72" fill="black" id="connector0extra2" gorn="0.3.0.0.5.4.0.0" stroke="black"/>
         </g>
        </g>
       </g>
       <circle cy="8.79404" connectorname="GND@2" cx="14.0961" stroke-width="1.57039" fill="black" id="connector1pad2" gorn="0.3.0.0.5.5" r="2.55118" stroke="black"/>
      </g>
     </g>
    </g>
   </g>
  </g>
  <g partID="854422620">
   <g transform="translate(1.37504,1.7808)">
    <g  id="copper0">
     <circle  cy="7.97796" cx="7.97796" stroke-width="3.55465" fill="black" id="nonconn0" r="4.96063" stroke="black"/>
    </g>
   </g>
  </g>
  <g partID="854422600">
   <g transform="translate(1.37504,139.261)">
    <g  id="copper0">
     <circle  cy="7.97796" cx="7.97796" stroke-width="3.55465" fill="black" id="nonconn0" r="4.96063" stroke="black"/>
    </g>
   </g>
  </g>
  <g partID="854422360">
   <g transform="translate(209.722,139.261)">
    <g  id="copper0">
     <circle  cy="7.97796" cx="7.97796" stroke-width="3.55465" fill="black" id="nonconn0" r="4.96063" stroke="black"/>
    </g>
   </g>
  </g>
  <g partID="854422070">
   <g transform="translate(209.722,1.7808)">
    <g  id="copper0">
     <circle  cy="7.97796" cx="7.97796" stroke-width="3.55465" fill="black" id="nonconn0" r="4.96063" stroke="black"/>
    </g>
   </g>
  </g>
  <g partID="854384610">
   <g transform="translate(14.7728,64.8075)">
    <g  id="copper0">
     <rect  y="12.168" width="4.464" stroke-width="2.16" fill="black" height="4.464" x="6.408" stroke="black"/>
     <circle  cy="14.4" cx="8.64" stroke-width="2.16" fill="black" id="connector0pad" r="2.232" stroke="black"/>
     <circle  cy="14.4" cx="15.84" stroke-width="2.16" fill="black" id="connector1pad" r="2.232" stroke="black"/>
     <circle  cy="14.4" cx="23.04" stroke-width="2.16" fill="black" id="connector2pad" r="2.232" stroke="black"/>
    </g>
   </g>
  </g>
  <g partID="854384890">
   <g transform="translate(155.087,64.8075)">
    <g  id="copper0">
     <rect  y="12.168" width="4.464" stroke-width="2.16" fill="black" height="4.464" x="6.408" stroke="black"/>
     <circle  cy="14.4" cx="8.64" stroke-width="2.16" fill="black" id="connector0pad" r="2.232" stroke="black"/>
     <circle  cy="14.4" cx="15.84" stroke-width="2.16" fill="black" id="connector1pad" r="2.232" stroke="black"/>
     <circle  cy="14.4" cx="23.04" stroke-width="2.16" fill="black" id="connector2pad" r="2.232" stroke="black"/>
    </g>
   </g>
  </g>
  <g partID="854385170">
   <g transform="translate(61.5442,64.8075)">
    <g  id="copper0">
     <rect  y="12.168" width="4.464" stroke-width="2.16" fill="black" height="4.464" x="6.408" stroke="black"/>
     <circle  cy="14.4" cx="8.64" stroke-width="2.16" fill="black" id="connector0pad" r="2.232" stroke="black"/>
     <circle  cy="14.4" cx="15.84" stroke-width="2.16" fill="black" id="connector1pad" r="2.232" stroke="black"/>
     <circle  cy="14.4" cx="23.04" stroke-width="2.16" fill="black" id="connector2pad" r="2.232" stroke="black"/>
    </g>
   </g>
  </g>
  <g partID="854385450">
   <g transform="translate(108.316,64.8075)">
    <g  id="copper0">
     <rect  y="12.168" width="4.464" stroke-width="2.16" fill="black" height="4.464" x="6.408" stroke="black"/>
     <circle  cy="14.4" cx="8.64" stroke-width="2.16" fill="black" id="connector0pad" r="2.232" stroke="black"/>
     <circle  cy="14.4" cx="15.84" stroke-width="2.16" fill="black" id="connector1pad" r="2.232" stroke="black"/>
     <circle  cy="14.4" cx="23.04" stroke-width="2.16" fill="black" id="connector2pad" r="2.232" stroke="black"/>
    </g>
   </g>
  </g>
  <g partID="854134040">
   <g transform="translate(13.2861,94.5365)">
    <g  id="copper0">
     <g  id="copper1">
      <!-- <rect width="55" x="10" y="15.5" fill="none" height="55" stroke="rgb(255, 191, 0)" stroke-width="20" />  -->
      <circle  cy="3.096" cx="2.7" stroke-width="2.16" fill="black" id="connector0pin" r="1.98" stroke="black"/>
      <circle  cy="3.096" cx="31.5" stroke-width="2.16" fill="black" id="connector1pin" r="1.98" stroke="black"/>
     </g>
    </g>
   </g>
  </g>
  <g partID="854133740">
   <g transform="translate(155.019,94.5365)">
    <g  id="copper0">
     <g  id="copper1">
      <!-- <rect width="55" x="10" y="15.5" fill="none" height="55" stroke="rgb(255, 191, 0)" stroke-width="20" />  -->
      <circle  cy="3.096" cx="2.7" stroke-width="2.16" fill="black" id="connector0pin" r="1.98" stroke="black"/>
      <circle  cy="3.096" cx="31.5" stroke-width="2.16" fill="black" id="connector1pin" r="1.98" stroke="black"/>
     </g>
    </g>
   </g>
  </g>
  <g partID="854133450">
   <g transform="translate(60.0578,94.5365)">
    <g  id="copper0">
     <g  id="copper1">
      <!-- <rect width="55" x="10" y="15.5" fill="none" height="55" stroke="rgb(255, 191, 0)" stroke-width="20" />  -->
      <circle  cy="3.096" cx="2.7" stroke-width="2.16" fill="black" id="connector0pin" r="1.98" stroke="black"/>
      <circle  cy="3.096" cx="31.5" stroke-width="2.16" fill="black" id="connector1pin" r="1.98" stroke="black"/>
     </g>
    </g>
   </g>
  </g>
  <g partID="854133200">
   <g transform="translate(111.081,94.5365)">
    <g  id="copper0">
     <g  id="copper1">
      <!-- <rect width="55" x="10" y="15.5" fill="none" height="55" stroke="rgb(255, 191, 0)" stroke-width="20" />  -->
      <circle  cy="3.096" cx="2.7" stroke-width="2.16" fill="black" id="connector0pin" r="1.98" stroke="black"/>
      <circle  cy="3.096" cx="31.5" stroke-width="2.16" fill="black" id="connector1pin" r="1.98" stroke="black"/>
     </g>
    </g>
   </g>
  </g>
  <g partID="198050">
   <g transform="translate(195.297,19.5583)">
    <g transform="matrix(-1,0,0,-1,0,0)">
     <g transform="matrix(1, 0, 0, 1, -21.472, -3.00704)">
      <g id="copper0">
       <g gorn="0.3.0">
        <g id="copper1" gorn="0.3.0.0">
         <circle cy="12.919" cx="24.185" stroke-width="1.97" fill="black" id="connector0pin" gorn="0.3.0.0.0" r="2.088" stroke="black"/>
         <circle cy="12.919" cx="31.384" stroke-width="1.97" fill="black" id="connector1pin" gorn="0.3.0.0.1" r="2.088" stroke="black"/>
         <circle cy="12.919" cx="38.585" stroke-width="1.97" fill="black" id="connector2pin" gorn="0.3.0.0.2" r="2.088" stroke="black"/>
         <circle cy="12.919" cx="45.784" stroke-width="1.97" fill="black" id="connector3pin" gorn="0.3.0.0.3" r="2.088" stroke="black"/>
         <circle cy="12.919" cx="52.9849" stroke-width="1.97" fill="black" id="connector4pin" gorn="0.3.0.0.4" r="2.088" stroke="black"/>
         <circle cy="12.919" cx="60.1849" stroke-width="1.97" fill="black" id="connector5pin" gorn="0.3.0.0.5" r="2.088" stroke="black"/>
         <circle cy="12.919" cx="67.3839" stroke-width="1.97" fill="black" id="connector6pin" gorn="0.3.0.0.6" r="2.088" stroke="black"/>
         <circle cy="12.919" cx="74.5849" stroke-width="1.97" fill="black" id="connector7pin" gorn="0.3.0.0.7" r="2.088" stroke="black"/>
         <circle cy="12.919" cx="81.7839" stroke-width="1.97" fill="black" id="connector8pin" gorn="0.3.0.0.8" r="2.088" stroke="black"/>
         <circle cy="12.919" cx="88.9849" stroke-width="1.97" fill="black" id="connector9pin" gorn="0.3.0.0.9" r="2.088" stroke="black"/>
         <circle cy="12.919" cx="96.1849" stroke-width="1.97" fill="black" id="connector10pin" gorn="0.3.0.0.10" r="2.088" stroke="black"/>
         <circle cy="12.919" cx="103.385" stroke-width="1.97" fill="black" id="connector11pin" gorn="0.3.0.0.11" r="2.088" stroke="black"/>
         <circle cy="12.919" cx="110.585" stroke-width="1.97" fill="black" id="connector12pin" gorn="0.3.0.0.12" r="2.088" stroke="black"/>
         <circle cy="12.919" cx="117.784" stroke-width="1.97" fill="black" id="connector13pin" gorn="0.3.0.0.13" r="2.088" stroke="black"/>
         <circle cy="12.919" cx="124.986" stroke-width="1.97" fill="black" id="connector14pin" gorn="0.3.0.0.14" r="2.088" stroke="black"/>
         <circle cy="12.919" cx="132.185" stroke-width="1.97" fill="black" id="connector15pin" gorn="0.3.0.0.15" r="2.088" stroke="black"/>
         <circle cy="12.919" cx="139.385" stroke-width="1.97" fill="black" id="connector16pin" gorn="0.3.0.0.16" r="2.088" stroke="black"/>
         <circle cy="12.919" cx="146.585" stroke-width="1.97" fill="black" id="connector17pin" gorn="0.3.0.0.17" r="2.088" stroke="black"/>
         <circle cy="12.919" cx="153.784" stroke-width="1.97" fill="black" id="connector18pin" gorn="0.3.0.0.18" r="2.088" stroke="black"/>
         <circle cy="12.919" cx="160.986" stroke-width="1.97" fill="black" id="connector19pin" gorn="0.3.0.0.19" r="2.088" stroke="black"/>
         <circle cy="5.72001" cx="160.986" stroke-width="1.97" fill="black" id="connector20pin" gorn="0.3.0.0.20" r="2.088" stroke="black"/>
         <circle cy="5.72001" cx="153.784" stroke-width="1.97" fill="black" id="connector21pin" gorn="0.3.0.0.21" r="2.088" stroke="black"/>
         <circle cy="5.72001" cx="146.585" stroke-width="1.97" fill="black" id="connector22pin" gorn="0.3.0.0.22" r="2.088" stroke="black"/>
         <circle cy="5.72001" cx="139.385" stroke-width="1.97" fill="black" id="connector23pin" gorn="0.3.0.0.23" r="2.088" stroke="black"/>
         <circle cy="5.72001" cx="132.185" stroke-width="1.97" fill="black" id="connector24pin" gorn="0.3.0.0.24" r="2.088" stroke="black"/>
         <circle cy="5.72001" cx="124.986" stroke-width="1.97" fill="black" id="connector25pin" gorn="0.3.0.0.25" r="2.088" stroke="black"/>
         <circle cy="5.72001" cx="117.784" stroke-width="1.97" fill="black" id="connector26pin" gorn="0.3.0.0.26" r="2.088" stroke="black"/>
         <circle cy="5.72001" cx="110.585" stroke-width="1.97" fill="black" id="connector27pin" gorn="0.3.0.0.27" r="2.088" stroke="black"/>
         <circle cy="5.72001" cx="103.385" stroke-width="1.97" fill="black" id="connector28pin" gorn="0.3.0.0.28" r="2.088" stroke="black"/>
         <circle cy="5.72001" cx="96.1849" stroke-width="1.97" fill="black" id="connector29pin" gorn="0.3.0.0.29" r="2.088" stroke="black"/>
         <circle cy="5.72001" cx="88.9849" stroke-width="1.97" fill="black" id="connector30pin" gorn="0.3.0.0.30" r="2.088" stroke="black"/>
         <circle cy="5.72001" cx="81.7839" stroke-width="1.97" fill="black" id="connector31pin" gorn="0.3.0.0.31" r="2.088" stroke="black"/>
         <circle cy="5.72001" cx="74.5849" stroke-width="1.97" fill="black" id="connector32pin" gorn="0.3.0.0.32" r="2.088" stroke="black"/>
         <circle cy="5.72001" cx="67.3839" stroke-width="1.97" fill="black" id="connector33pin" gorn="0.3.0.0.33" r="2.088" stroke="black"/>
         <circle cy="5.72001" cx="60.1849" stroke-width="1.97" fill="black" id="connector34pin" gorn="0.3.0.0.34" r="2.088" stroke="black"/>
         <circle cy="5.72001" cx="52.9849" stroke-width="1.97" fill="black" id="connector35pin" gorn="0.3.0.0.35" r="2.088" stroke="black"/>
         <circle cy="5.72001" cx="45.784" stroke-width="1.97" fill="black" id="connector36pin" gorn="0.3.0.0.36" r="2.088" stroke="black"/>
         <circle cy="5.72001" cx="38.585" stroke-width="1.97" fill="black" id="connector37pin" gorn="0.3.0.0.37" r="2.088" stroke="black"/>
         <circle cy="5.72001" cx="31.384" stroke-width="1.97" fill="black" id="connector38pin" gorn="0.3.0.0.38" r="2.088" stroke="black"/>
         <circle cy="5.72001" cx="24.185" stroke-width="1.97" fill="black" id="connector39pin" gorn="0.3.0.0.39" r="2.088" stroke="black"/>
        </g>
       </g>
      </g>
     </g>
    </g>
   </g>
  </g>
  <g partID="337480">
   <g transform="translate(202.738,38.7345)">
    <g  id="copper0">
     <circle  cy="5.04" cx="5.04" stroke-width="2.16" fill="black" id="connector0pin" r="2.088" stroke="black"/>
     <circle  cy="12.24" cx="5.04" stroke-width="2.16" fill="black" id="connector1pin" r="2.088" stroke="black"/>
     <circle  cy="19.44" cx="5.04" stroke-width="2.16" fill="black" id="connector2pin" r="2.088" stroke="black"/>
     <circle  cy="26.64" cx="5.04" stroke-width="2.16" fill="black" id="connector3pin" r="2.088" stroke="black"/>
     <circle  cy="33.84" cx="5.04" stroke-width="2.16" fill="black" id="connector4pin" r="2.088" stroke="black"/>
    </g>
   </g>
  </g>
 </g>
</svg>
