<?xml version='1.0' encoding='UTF-8' standalone='no'?>
<!-- Created with Fritzing (http://www.fritzing.org/) -->
<svg xmlns="http://www.w3.org/2000/svg"  y="0in" width="3.14961in" height="2.16535in" viewBox="0 0 226.772 155.906" baseProfile="tiny" xmlns:svg="http://www.w3.org/2000/svg" version="1.2" x="0in">
 <g partID="196231">
  <g id="silkscreen">
   <rect y="0.288" width="226.196" stroke-width="0.576" fill="none" height="155.33" x="0.288" stroke="black"/>
  </g>
 </g>
 <g partID="196230">
  <g id="board">
   <rect y="0.288" fill-opacity="0.5" width="226.196" stroke-width="0.5" fill="none" id="boardoutline" height="155.33" x="0.288" stroke="black"/>
  </g>
 </g>
 <g partID="854460610">
  <g transform="translate(2.19552,5.97072)">
   <g id="silkscreen">
    <defs id="defs2"/>
    <metadata id="metadata5">
     <rdf:RDF xmlns:rdf="http://www.w3.org/1999/02/22-rdf-syntax-ns#">
      <cc:Work xmlns:cc="http://creativecommons.org/ns#" rdf:about="" xmlns:rdf="http://www.w3.org/1999/02/22-rdf-syntax-ns#">
       <dc:format xmlns:dc="http://purl.org/dc/elements/1.1/">image/svg+xml</dc:format>
       <dc:type xmlns:dc="http://purl.org/dc/elements/1.1/" rdf:resource="http://purl.org/dc/dcmitype/StillImage" xmlns:rdf="http://www.w3.org/1999/02/22-rdf-syntax-ns#"/>
       <dc:title xmlns:dc="http://purl.org/dc/elements/1.1/"/>
      </cc:Work>
     </rdf:RDF>
    </metadata>
    <g transform="matrix(1, 0, 0, 1, -49.9846, 111.925)">
     <g>
      <g id="layer1">
       <g transform="matrix(0.264583, 0, 0, 0.264583, 0, -158.39)">
        <g>
         <path style="opacity:1;stroke-linecap:round;stroke-linejoin:round;stroke-miterlimit:4;stroke-dasharray:none;paint-order:normal" fill-opacity="1.0" d="m328.469,223.338c-6.72047,-1.7767,-9.93806,-2.82381,-12.4311,-4.04549,-0.552491,-0.270734,-1.23056,-0.642855,-1.5068,-0.826934,-1.54021,-1.0263,-3.90171,-3.20925,-4.99319,-4.61565,-1.60479,-2.06783,-2.32103,-3.61692,-3.40603,-7.3666,-0.503274,-1.73929,-0.695827,-2.46945,-1.14792,-4.35299,-0.0477807,-0.199063,-0.043966,-0.201577,0.0780642,-0.0515486,0.0705695,0.0867542,0.287306,0.463457,0.48164,0.837113,0.19434,0.373661,0.506685,0.905895,0.694104,1.18274,0.187414,0.276846,0.679789,1.04254,1.09416,1.70154,1.03276,1.64247,1.81686,2.66921,2.78186,3.64271,1.40483,1.4172,3.0705,2.5689,5.17072,3.57522,4.12644,1.9772,6.54795,2.25596,17.9142,2.0623,3.57176,-0.0608598,4.0753,-0.052369,5.46263,0.0920867,1.68086,0.17502,1.71008,0.186459,2.07472,0.811962,0.107392,0.18422,0.259665,0.567937,0.338385,0.852705l0.14312,0.517766,-0.266796,0.415764c-0.323402,0.503977,-1.41646,1.56701,-2.27818,2.21559,-1.34841,1.0149,-3.58107,2.17903,-5.71981,2.98238,-0.964709,0.362358,-2.52998,0.849277,-2.67767,0.832958,-0.0495094,-0.00544961,-0.862251,-0.214105,-1.80609,-0.463627z" stroke-width="3.34835" fill="black" id="path4622" stroke-opacity="1.0" stroke="none"/>
        </g>
       </g>
       <path style="stroke-linecap:butt;stroke-linejoin:miter;stroke-miterlimit:4;stroke-dasharray:none;" d="m76.4085,-61.0038c0,0,0.548623,0.227829,0.841648,2.34776,0.325535,2.35512,-0.177188,2.65784,-0.177188,2.65784" stroke-width="0.310081" fill="none" id="path844-8" stroke-opacity="1.0" stroke="black"/>
       <path style="stroke-linecap:butt;stroke-linejoin:miter;stroke-miterlimit:4;stroke-dasharray:none;" d="m81.3698,-63.6617c0,0,1.06313,1.5504,1.46181,3.32229,0.442971,1.24032,-0.132894,4.20824,-0.177188,4.34113" stroke-width="0.310081" fill="none" id="path846-9" stroke-opacity="1.0" stroke="black"/>
       <path style="stroke-linecap:butt;stroke-linejoin:miter;stroke-miterlimit:4;stroke-dasharray:none;" d="m87.0842,-65.3007c0,0,0.891772,1.99158,0.930236,3.76527,0.08158,3.76186,-0.310077,3.49948,-0.310077,4.11964" stroke-width="0.310081" fill="none" id="path848-8" stroke-opacity="1.0" stroke="black"/>
       <path style="stroke-linecap:butt;stroke-linejoin:miter;stroke-miterlimit:4;stroke-dasharray:none;" d="m92.2227,-64.4147c0,0,1.8605,1.96019,2.48065,4.11964,0.759259,2.64385,0.620159,3.23371,0.620159,5.0056" stroke-width="0.310081" fill="none" id="path850-7" stroke-opacity="1.0" stroke="black"/>
       <path style="stroke-linecap:butt;stroke-linejoin:miter;stroke-miterlimit:4;stroke-dasharray:none;" d="m93.3744,-66.9397c0,0,1.639,-0.0885942,3.10081,0.398677,1.46181,0.487265,3.54378,1.5947,4.65121,2.56924" stroke-width="0.310081" fill="none" id="path852-0" stroke-opacity="1.0" stroke="black"/>
       <path style="stroke-linecap:butt;stroke-linejoin:miter;stroke-miterlimit:4;stroke-dasharray:none;" d="m93.6402,-71.8124c0,0,1.28462,-0.310077,3.2337,-0.310077,1.94908,0,3.278,0.487265,3.80956,0.797348" stroke-width="0.310081" fill="none" id="path854-9" stroke-opacity="1.0" stroke="black"/>
       <path style="stroke-linecap:round;stroke-linejoin:miter;stroke-miterlimit:4;stroke-dasharray:none;" d="m93.2541,-84.6497c0,0,0.896197,0.0288653,1.28322,0.302289,0.387016,0.273418,0.830749,1.02144,0.80203,1.0116" stroke-width="0.465121" fill="none" id="path1006-3-3" stroke-opacity="1.0" stroke="black"/>
       <path style="stroke-linecap:round;stroke-linejoin:miter;stroke-miterlimit:4;stroke-dasharray:none;" d="m92.2473,-82.857c0,0,0.757689,-0.479489,1.23147,-0.470653,0.47377,0.00883657,1.26104,0.378478,1.23176,0.386459" stroke-width="0.465121" fill="none" id="path1006-3-2-2" stroke-opacity="1.0" stroke="black"/>
       <path style="stroke-linecap:butt;stroke-linejoin:miter;stroke-miterlimit:4;stroke-dasharray:none;" d="m50.0911,-58.729c0,0,0.782528,-0.740584,2.13752,-1.52009,1.01004,-0.581069,1.17877,-0.661881,2.279,-0.98574,0.886815,-0.26103,1.1784,-0.182632,1.48345,-0.154751,0.356738,0.0326098,0.666012,0.198794,0.874281,0.413397,0.496705,0.511806,0.393169,0.321427,1.46365,1.74603,1.07049,1.42459,1.84805,1.56614,2.47451,1.56614,0.455353,0,1.43026,0.055545,2.60839,-0.449828,0.44269,-0.189898,1.85891,-0.839658,2.18401,-1.14764,1.54111,-1.05746,2.3062,-1.34296,2.97568,-1.40953,0.381965,-0.0347251,0.552209,0.683844,0.713441,1.22368,0.129642,0.43407,0.598009,0.885159,0.821379,0.968925,0.501165,0.187935,0.908362,0.595133,1.15894,0.469845" stroke-width="0.310081" fill="none" id="path1038-1" stroke-opacity="1.0" stroke="black"/>
       <path style="opacity:1;stroke-linecap:butt;stroke-linejoin:bevel;stroke-miterlimit:4;stroke-dasharray:none;paint-order:markers stroke fill" fill-opacity="1.0" d="m98.6093,-78.5537c-0.32874,-0.0127392,-0.773534,-0.0500895,-0.791166,-0.0664325,-0.00322289,-0.00298849,0.0374675,-0.0158859,0.0904635,-0.0286544,0.052996,-0.0127626,0.21179,-0.0630983,0.352877,-0.11184,0.933635,-0.322588,1.54689,-0.770317,1.72813,-1.26165,0.115766,-0.313833,0.0541035,-0.626189,-0.168996,-0.855969,-0.104691,-0.107826,-0.350914,-0.272844,-0.467107,-0.313024,-0.0385574,-0.013331,-0.0701124,-0.0311624,-0.0701124,-0.0396063,0,-0.0257186,0.265525,-0.144866,0.440346,-0.197616,0.385656,-0.116323,0.714244,-0.144503,1.315,-0.112754,0.628931,0.0332309,1.0076,0.0880024,1.4477,0.2094,0.354113,0.0976828,1.29513,0.483949,1.36395,0.611247,0.133703,0.314806,-0.272281,0.768623,-0.506989,1.03939,-0.487494,0.52277,-0.326596,0.346437,-0.632242,0.611557,-0.424044,0.236812,-0.572812,0.294578,-0.878775,0.394774,-0.236865,0.0775661,-0.357951,0.0872289,-1.52846,0.121854,-0.7166,0.0212066,-1.13467,0.0210367,-1.69464,-0.000644577z" stroke-width="0.139736" fill="black" id="path1156" stroke-opacity="1.0" stroke="black"/>
       <path style="opacity:1;stroke-linecap:butt;stroke-linejoin:miter;stroke-miterlimit:4;stroke-dasharray:none;paint-order:markers stroke fill" fill-opacity="1.0" d="m96.4768,-75.1127c-0.209529,-0.0283907,-0.456402,-0.0828165,-0.813902,-0.179444,-0.328447,-0.0887817,-0.572888,-0.180505,-0.844478,-0.316909,-0.183617,-0.0922156,-0.494543,-0.27108,-0.510505,-0.293669,-0.0127099,-0.0179954,0.0954677,-0.657275,0.249961,-1.05889,0.165199,-0.429453,0.219719,-0.747423,0.247535,-0.74233,0.0106824,0.00193373,0.436185,0.153087,0.715445,0.268179,0.279254,0.115086,0.637768,0.25728,0.796686,0.315972,0.349472,0.0955088,0.233554,0.0514021,0.304733,0.10363,0.0376902,0.0840705,-0.00895962,0.31565,0.0357447,0.894603,0.0353345,0.457181,0.0467084,0.893976,0.0523455,0.943573,0.0119657,0.105248,0.0281036,0.100742,-0.233571,0.065284z" stroke-width="0.664003" fill="black" id="path1160" stroke-opacity="1.0" stroke="none"/>
       <path style="opacity:1;stroke-linecap:butt;stroke-linejoin:miter;stroke-miterlimit:4;stroke-dasharray:none;paint-order:markers stroke fill" fill-opacity="1.0" d="m99.2138,-73.728c-0.321796,-0.0480913,-0.770053,-0.146676,-1.18006,-0.259548l-0.402117,-0.110697,-0.330393,-0.463902,-0.330393,-0.463891,-0.0693682,-1.01708,-0.0693682,-1.01709,0.318198,-0.620031,0.318216,-0.620036,0.179415,0.0198647c0.678716,0.0751401,2.52457,0.101474,3.40901,0.0486363,0.215312,-0.0128564,0.395395,-0.0207085,0.4002,-0.0174446,0.00480503,0.00328148,-0.125564,0.264863,-0.289696,0.581315l-0.298427,0.575385,0.0685244,1.05727,0.0685244,1.05729,0.356715,0.498018,0.356703,0.49803,-0.314964,0.0524159c-1.16347,0.193602,-1.83199,0.255094,-2.19072,0.201495z" stroke-width="0.620142" fill="black" id="path1158" stroke-opacity="1.0" stroke="none"/>
       <path style="opacity:1;stroke-linecap:round;stroke-linejoin:miter;stroke-miterlimit:4;stroke-dasharray:none;paint-order:markers stroke fill" fill-opacity="1.0" d="m101.652,-74.5746,-0.318239,-0.465994,-0.0659344,-1.02598,-0.0659344,-1.02598,0.27193,-0.573709,0.271935,-0.573709,0.377904,-0.103994c0.536786,-0.147725,0.852869,-0.327779,1.1992,-0.683146,0.323296,-0.331729,0.719331,-0.913261,0.879022,-1.29075l0.0980812,-0.231825,0.1466,0.239906c0.174499,0.285577,0.35999,1.49631,0.419198,2.73631l0.0382762,0.801538,-0.24116,0.496764c-0.270353,0.556874,-0.830696,1.44553,-1.01582,1.611,-0.0668309,0.0597347,-0.414434,0.191293,-0.772444,0.292363,-0.358016,0.101076,-0.707957,0.201641,-0.777647,0.223487,-0.102722,0.0321996,-0.18698,-0.048525,-0.444963,-0.426277z" stroke-width="0.614186" fill="black" id="path1149" stroke-opacity="1.0" stroke="none"/>
       <path style="opacity:1;stroke-linecap:square;stroke-linejoin:round;stroke-miterlimit:4;stroke-dasharray:none;paint-order:normal" fill-opacity="1.0" d="m80.4524,-111.609c0.486673,-0.114336,1.4827,-0.19066,1.94087,-0.148733,0.635828,0.0581702,1.46672,0.278141,1.95607,0.51783,0.578637,0.283432,1.34797,0.915804,1.66582,1.36927,0.374898,0.534876,0.454861,0.546051,1.32915,0.185791,0.817072,-0.33668,1.26126,-0.405873,2.04564,-0.318661,0.573252,0.063737,1.51869,0.405298,2.0146,0.72781,0.795443,0.517326,1.43027,1.25445,1.80949,2.10108,0.629043,1.40444,0.532585,2.79233,-0.274314,3.9467l-0.178624,0.25554,0.261001,0.209042c0.702589,0.562745,1.21266,1.47618,1.34513,2.40889,0.400798,2.82197,-1.81785,5.83793,-4.81893,6.55073,-0.96243,0.228591,-2.13928,0.178917,-2.84307,-0.120009l-0.204032,-0.0866663,-0.110715,0.179614c-0.176046,0.285583,-0.756652,0.907653,-1.09039,1.16826,-0.472094,0.36864,-1.61287,0.887407,-2.27907,1.03641,-1.40251,0.313692,-2.79571,0.20313,-4.10617,-0.325846,-2.2134,-0.893466,-3.46485,-2.76592,-3.11368,-4.65878l0.0869359,-0.468578,-0.688707,-0.258247c-0.558245,-0.209324,-0.774125,-0.32986,-1.1395,-0.636221,-1.10593,-0.927353,-1.63227,-2.18528,-1.583,-3.78329,0.0619966,-2.01052,1.14896,-3.11996,2.80679,-3.95787l1.41482,-0.428052,-0.0492867,-1.99248c0.209277,-1.27291,0.457579,-1.84162,1.45259,-2.48462,0.464652,-0.36404,1.76482,-0.851311,2.35057,-0.988905z" stroke-width="0.310081" fill="none" id="path1714-8" stroke-opacity="1.0" stroke="black"/>
       <path style="opacity:1;stroke-linecap:butt;stroke-linejoin:miter;stroke-miterlimit:4;stroke-dasharray:none;paint-order:markers stroke fill" fill-opacity="1.0" d="m79.2634,-107.992c-0.162275,-0.263363,0.0654773,1.1716,-0.0351822,1.63261,-0.10066,0.461008,-3.16052,2.59523,0.784234,7.14012,1.24954,1.43964,2.67743,1.93542,3.87565,2.2222,1.58599,0.379586,3.348,0.163189,4.29334,-0.232077,0.655605,-0.274127,0.767973,-0.478692,0.767973,-0.478692,0.0478218,-0.442702,-0.111008,-0.622392,-0.111008,-0.622392l-0.850719,-0.337635c-0.704288,-0.269967,-3.92819,-0.873396,-5.09952,-1.75775,-1.98176,-1.49623,-1.99535,-2.7405,-2.34282,-3.70908,-0.114037,-0.6707,-0.424208,-1.49247,-0.660985,-2.07328,-0.236777,-0.580817,0.0285372,-1.79176,0.0285372,-1.79176z" stroke-width="0.620161" fill="black" id="path1408-6-0" stroke-opacity="1.0" stroke="none"/>
       <circle style="opacity:1;stroke-linecap:square;stroke-linejoin:round;stroke-miterlimit:4;stroke-dasharray:none;paint-order:normal" cy="-90.394" fill-opacity="1.0" cx="88.3321" stroke-width="0.310081" fill="none" id="path1557-3-6-9" r="1.72865" stroke-opacity="1.0" stroke="black"/>
       <circle style="opacity:1;stroke-linecap:square;stroke-linejoin:round;stroke-miterlimit:4;stroke-dasharray:none;paint-order:normal" cy="-87.1532" fill-opacity="1.0" cx="90.8217" stroke-width="0.310081" fill="none" id="path1557-3-1-1-8" r="0.942843" stroke-opacity="1.0" stroke="black"/>
       <rect y="-78.5996" style="opacity:1;stroke-linecap:round;stroke-linejoin:round;stroke-miterlimit:4;stroke-dasharray:none;paint-order:normal" fill-opacity="1.0" width="1.58363" stroke-width="0.620142" fill="none" height="0.786276" id="rect859" stroke-opacity="1.0" x="99.5248" stroke="none"/>
       <rect y="-78.7879" style="opacity:1;stroke-linecap:round;stroke-linejoin:round;stroke-miterlimit:4;stroke-dasharray:none;paint-order:normal" fill-opacity="1.0" width="1.42859" stroke-width="0.620142" fill="none" height="0.620161" id="rect862" stroke-opacity="1.0" x="99.3033" stroke="none"/>
       <rect y="-78.7657" style="opacity:1;stroke-linecap:round;stroke-linejoin:round;stroke-miterlimit:4;stroke-dasharray:none;paint-order:normal" fill-opacity="1.0" width="1.47288" stroke-width="0.620142" clip-path="none" fill="none" height="1.45073" id="rect864" stroke-opacity="1.0" x="99.4362" stroke="none"/>
       <rect y="-79.253" style="opacity:1;stroke-linecap:round;stroke-linejoin:round;stroke-miterlimit:4;stroke-dasharray:none;paint-order:normal" fill-opacity="1.0" width="1.89371" stroke-width="0.620142" fill="none" height="1.61685" id="rect868" stroke-opacity="1.0" x="99.2701" stroke="none"/>
       <rect y="-79.851" style="opacity:1;stroke-linecap:round;stroke-linejoin:round;stroke-miterlimit:4;stroke-dasharray:none;paint-order:normal" fill-opacity="1.0" width="2.18164" stroke-width="0.620142" fill="none" height="1.61685" id="rect873" stroke-opacity="1.0" x="94.641" stroke="none"/>
       <rect y="-80.5819" style="opacity:1;stroke-linecap:round;stroke-linejoin:round;stroke-miterlimit:4;stroke-dasharray:none;paint-order:normal" fill-opacity="1.0" width="2.69106" stroke-width="0.620142" fill="none" height="2.13734" id="rect876" stroke-opacity="1.0" x="94.3753" stroke="none"/>
       <rect y="-79.4967" style="opacity:1;stroke-linecap:round;stroke-linejoin:round;stroke-miterlimit:4;stroke-dasharray:none;paint-order:normal" fill-opacity="1.0" width="1.97123" stroke-width="0.620142" fill="none" height="1.76082" id="rect878" stroke-opacity="1.0" x="99.1594" stroke="none"/>
       <g transform="matrix(0.264583, 0, 0, 0.264583, 0, -158.39)">
        <g>
         <path style="color:#000000;font-style:normal;font-variant:normal;font-weight:normal;font-stretch:normal;line-height:normal;font-family:sans-serif;font-variant-ligatures:normal;font-variant-position:normal;font-variant-caps:normal;font-variant-numeric:normal;font-variant-alternates:normal;font-feature-settings:normal;text-indent:0;text-align:start;text-decoration:none;text-decoration-line:none;text-decoration-style:solid;text-decoration-color:#000000;letter-spacing:normal;word-spacing:normal;text-transform:none;writing-mode:lr-tb;direction:ltr;text-orientation:mixed;dominant-baseline:auto;baseline-shift:baseline;text-anchor:start;white-space:normal;shape-padding:0;clip-rule:nonzero;display:inline;overflow:visible;visibility:visible;opacity:1;isolation:auto;mix-blend-mode:normal;color-interpolation:sRGB;color-interpolation-filters:linearRGB;solid-color:#000000;solid-opacity:1;vector-effect:none;fill-rule:nonzero;stroke-linecap:butt;stroke-linejoin:miter;stroke-miterlimit:4;stroke-dasharray:none;stroke-dashoffset:0;color-rendering:auto;image-rendering:auto;shape-rendering:auto;text-rendering:auto;enable-background:accumulate" fill-opacity="1.0" d="m363.099,281.637c-6.67225,0.016425,-10.4626,4.3517,-10.4626,4.3517l-0.703743,0.811904,1.06357,0.151874c0,0,1.6954,0.243158,3.67989,1.01264,1.9397,0.752146,4.09084,2.01153,5.18168,3.91462,-0.134301,3.29753,-0.297953,4.57541,-0.760056,5.71982,-0.472797,1.17093,-1.33645,2.39172,-2.85573,5.59908,-1.4125,2.98201,-3.62942,9.9388,-4.22786,16.5611,-0.718211,7.94764,-1.00357,16.9158,-1.18489,19.8167,-0.207032,3.31239,-0.859321,10.7165,-4.22477,15.0091,-1.01118,1.28977,-2.5617,2.49219,-4.14661,3.07422,-1.58492,0.58203,-3.13699,0.570791,-4.41121,-0.426435,-3.87415,-3.03194,-6.7612,-4.82023,-9.61979,-5.72417,-2.85856,-0.903938,-5.64865,-0.898136,-9.2348,-0.422655,-6.48421,0.859731,-11.748,4.11205,-20.7216,11.5136,-4.32575,3.56795,-10.0073,5.04999,-16.0339,5.17608,-4.55777,0.0953447,-9.11713,-2.0135,-12.2723,-3.72829,-1.57755,-0.857411,-2.77321,-1.60234,-3.56303,-1.95125,-0.19744,-0.0872113,-0.365792,-0.154675,-0.570984,-0.185632,-0.102587,-0.015505,-0.219936,-0.0254022,-0.371048,0.0151065,-0.151106,0.0405967,-0.339639,0.166582,-0.433877,0.333504,-0.188451,0.333891,-0.089186,0.568435,-0.0199116,0.768184,0.0693213,0.199743,0.172401,0.40296,0.314852,0.651099l0.0163605,0.0289532,0.0199174,0.0267851c0,0,9.39325,12.7513,12.0387,16.7194,0.583137,0.874697,1.93364,2.0335,3.46838,3.1937,1.53473,1.1602,3.18755,2.2431,4.38443,2.70695,4.10699,1.59168,9.86625,2.83643,19.1154,2.39599,5.67727,-0.270336,9.08186,-2.82501,11.5291,-4.32137,3.37327,-2.06255,9.34684,-3.00402,14.1111,-2.05116,1.33488,0.266978,3.01458,1.28447,4.76417,2.4396,1.74959,1.15512,3.57793,2.43467,5.40062,3.16635,6.09307,2.44597,10.828,4.55184,19.2798,1.06678,5.87251,-1.40802,9.96926,-5.87573,13.9882,-10.8993l0.0204858,-0.0255194,0.0168235,-0.0272422c2.49004,-3.93087,4.45287,-7.01869,6.09348,-14.9303,1.26702,-6.11001,1.53506,-12.133,1.36298,-14.8863,-0.168117,-2.69014,-0.58677,-8.1314,-1.08967,-13.4955,-0.502899,-5.36411,-1.08048,-10.6144,-1.60091,-13.0431,-0.468836,-2.18787,-0.447085,-6.70448,-0.61505,-11.5755,-0.053037,-1.53813,-0.125886,-3.11548,-0.244119,-4.67913a3.59959,3.01361,0,0,1,-0.911702,0.100255,3.59959,3.01361,0,0,1,-0.261405,-0.0109871c0.11828,1.54104,0.193186,3.10363,0.245842,4.63061,0.166875,4.83948,0.104961,9.28004,0.64068,11.78,0.484095,2.25913,1.07843,7.55638,1.58009,12.9073,0.501657,5.35094,0.91997,10.7918,1.08669,13.4592,0.160388,2.56643,-0.0987375,8.58413,-1.341,14.5748,-1.61138,7.77067,-3.43491,10.5936,-5.91657,14.5108,-3.996,4.9929,-7.91857,9.20257,-13.387,10.4893l-0.0458939,0.0107586,-0.0437199,0.0177376c-8.18185,3.3822,-12.2941,1.39774,-18.4215,-1.06198,-1.63068,-0.654598,-3.42565,-1.8911,-5.1913,-3.05682,-1.76562,-1.16572,-3.49298,-2.27366,-5.17985,-2.61104,-5.08472,-1.01696,-11.2027,-0.0922273,-14.9524,2.20052,-2.53805,1.55186,-5.62046,3.89593,-10.9738,4.15084,-9.12182,0.434381,-14.6801,-0.784884,-18.6361,-2.31805,-0.944071,-0.365874,-2.61548,-1.42565,-4.10163,-2.54912,-1.48617,-1.12348,-2.85364,-2.38961,-3.19965,-2.90861,-2.6019,-3.90287,-10.9581,-15.2516,-11.6623,-16.2077,0.687143,0.36643,1.45074,0.803413,2.69699,1.48075,3.21359,1.7466,7.92578,3.97371,12.8563,3.87055,6.20312,-0.129783,12.1639,-1.65717,16.7549,-5.44388,8.93044,-7.36594,13.9435,-10.4355,20.1297,-11.2557,3.50995,-0.465379,6.07713,-0.459589,8.72746,0.378484,2.6503,0.838074,5.4235,2.53377,9.2508,5.52903,1.64339,1.28614,3.70165,1.27818,5.53761,0.603951,1.83597,-0.674228,3.51714,-1.98755,4.66483,-3.45144,3.71407,-4.73726,4.26323,-12.3155,4.47221,-15.6588,0.185837,-2.97347,0.469106,-11.8875,1.18272,-19.7841,0.581409,-6.43394,2.80934,-13.3985,4.11971,-16.1649,1.49434,-3.1547,2.3358,-4.30715,2.88297,-5.66225,0.547146,-1.35508,0.719008,-2.7858,0.856075,-6.28521l0.00641061,-0.160002,-0.076107,-0.140658c-1.27901,-2.37529,-3.75339,-3.75889,-5.87081,-4.57991,-1.10076,-0.426822,-2.08375,-0.691356,-2.80995,-0.856995,1.38314,-1.19467,4.60598,-3.39553,9.41481,-3.19656,0.437967,0.0181654,0.889059,0.0557559,1.35313,0.116282,3.99944,0.521656,7.48547,4.04572,10.0827,9.00129,0.747247,1.42584,1.00128,2.0991,1.14976,2.62775,0.148452,0.528653,0.203276,0.991952,0.5117,1.87868,0.343899,0.988705,0.6233,2.08164,0.85219,3.24326a3.59959,3.01361,0,0,1,1.01471,-0.124292,3.59959,3.01361,0,0,1,0.161256,0.00675048c-0.242519,-1.24354,-0.543824,-2.42555,-0.921312,-3.51084,-0.280848,-0.807403,-0.31644,-1.19201,-0.490072,-1.81024,-0.173637,-0.618243,-0.473249,-1.39071,-1.24063,-2.85493,-2.69034,-5.1334,-6.39415,-9.02262,-10.9689,-9.61932,-0.498627,-0.0650496,-0.983672,-0.105506,-1.45557,-0.124181l0,0c-0.221201,-0.00874867,-0.439414,-0.0127744,-0.65465,-0.012247z" stroke-width="1.17196" clip-path="none" fill="black" id="path828-6" stroke-opacity="1.0" font-size="medium" stroke="none"/>
        </g>
       </g>
       <rect y="-78.954" style="opacity:1;stroke-linecap:round;stroke-linejoin:round;stroke-miterlimit:4;stroke-dasharray:none;paint-order:normal" fill-opacity="1.0" width="1.639" stroke-width="0.620142" fill="none" height="1.17388" id="rect880" stroke-opacity="1.0" x="99.4141" stroke="none"/>
       <rect y="-79.0426" style="opacity:1;stroke-linecap:round;stroke-linejoin:round;stroke-miterlimit:4;stroke-dasharray:none;paint-order:normal" fill-opacity="1.0" width="2.11519" stroke-width="0.620142" fill="none" height="1.82726" id="rect4597" stroke-opacity="1.0" x="98.8825" stroke="none"/>
       <rect y="-78.8433" style="opacity:1;stroke-linecap:round;stroke-linejoin:round;stroke-miterlimit:4;stroke-dasharray:none;paint-order:normal" fill-opacity="1.0" width="1.56148" stroke-width="0.620142" fill="none" height="1.30677" id="rect4603" stroke-opacity="1.0" x="99.403" stroke="none"/>
       <rect y="-78.8654" style="opacity:1;stroke-linecap:round;stroke-linejoin:round;stroke-miterlimit:4;stroke-dasharray:none;paint-order:normal" fill-opacity="1.0" width="1.61685" stroke-width="0.620142" fill="none" height="1.19603" id="rect4612" stroke-opacity="1.0" x="99.403" stroke="none"/>
       <ellipse style="opacity:1;stroke-linecap:round;stroke-linejoin:round;stroke-miterlimit:4;stroke-dasharray:none;paint-order:normal" cy="-78.3283" fill-opacity="1.0" cx="100.101" stroke-width="0.620142" fill="none" id="path4614" stroke-opacity="1.0" rx="0.609087" stroke="none" ry="0.736442"/>
      </g>
     </g>
    </g>
   </g>
  </g>
 </g>
 <g partID="854515661">
  <g transform="translate(176.787,112.833)">
   <g transform="matrix(1, 0, 0, 1, 0.377238, -800.114)">
    <g id="silkscreen">
     <g transform="matrix(1, 0, 0, 1, -0.288, 797.219)">
      <g>
       <g gorn="0.3.0.0.0.0.0.0.0.1">
        <line x2="15.9457" style="stroke-linecap:round" y1="3.3263" stroke-width="0.861453" id="line5583" class="other" gorn="0.3.0.0.0.0.0.0.0.1.0" x1="29.2605" y2="3.3263" stroke="black"/>
        <line x2="29.4976" style="stroke-linecap:round" y1="44.0797" stroke-width="0.762397" id="line5585" class="other" gorn="0.3.0.0.0.0.0.0.0.1.1" x1="29.4976" y2="17.7593" stroke="black"/>
        <line x2="29.2801" style="stroke-linecap:round" y1="3.60127" stroke-width="1.1527" id="line5587" class="other" gorn="0.3.0.0.0.0.0.0.0.1.2" x1="29.2801" y2="11.5479" stroke="black"/>
        <line x2="0.288" style="stroke-linecap:round" y1="44.2427" stroke-width="0.668813" id="line5589" class="other" gorn="0.3.0.0.0.0.0.0.0.1.3" x1="0.288" y2="3.34997" stroke="black"/>
        <line x2="10.2164" style="stroke-linecap:round" y1="3.34997" stroke-width="0.743881" id="line5591" class="other" gorn="0.3.0.0.0.0.0.0.0.1.4" x1="0.288" y2="3.34997" stroke="black"/>
        <line x2="29.4132" style="stroke-linecap:round" y1="44.2427" stroke-width="0.615565" id="line5593" class="other" gorn="0.3.0.0.0.0.0.0.0.1.5" x1="0.276284" y2="44.2427" stroke="black"/>
       </g>
      </g>
     </g>
    </g>
   </g>
  </g>
 </g>
 <g partID="854511851">
  <g transform="translate(140.66,120.308)">
   <g transform="matrix(1, 0, 0, 1, 0.0527316, 1.27105)">
    <g id="silkscreen">
     <g gorn="0.4.0.0">
      <line x2="11.6017" style="stroke-linecap:round" y1="-0.941906" stroke-width="0.36605" id="line3703" gorn="0.4.0.0.0" class="other" y2="-0.941906" x1="16.7534" stroke="black"/>
      <line x2="16.7419" style="stroke-linecap:round" y1="33.2125" stroke-width="0.49048" id="line3709" gorn="0.4.0.0.1" class="other" y2="11.4253" x1="16.7419" stroke="black"/>
      <line x2="16.6313" style="stroke-linecap:round" y1="33.1654" stroke-width="0.475143" id="line3711" gorn="0.4.0.0.2" class="other" y2="33.1654" x1="0.235889" stroke="black"/>
      <line x2="0.215446" style="display:inline;stroke-linecap:round" y1="33.2545" stroke-width="0.402977" id="line3709-8" gorn="0.4.0.0.3" class="other" y2="18.5476" x1="0.215446" stroke="black"/>
      <line x2="16.8661" style="stroke-linecap:round" y1="6.28816" stroke-width="0.282618" id="line3709-6" gorn="0.4.0.0.4" class="other" y2="-0.94554" x1="16.8661" stroke="black"/>
      <line x2="0.165335" style="display:inline;stroke-linecap:round" y1="16.4761" stroke-width="0.436089" id="line3709-8-3" gorn="0.4.0.0.5" class="other" y2="-0.746985" x1="0.165335" stroke="black"/>
     </g>
    </g>
   </g>
  </g>
 </g>
 <g partID="854511841">
  <g transform="translate(102.393,120.308)">
   <g transform="matrix(1, 0, 0, 1, 0.0527316, 1.27105)">
    <g id="silkscreen">
     <g gorn="0.4.0.0">
      <line x2="11.6017" style="stroke-linecap:round" y1="-0.941906" stroke-width="0.36605" id="line3703" gorn="0.4.0.0.0" class="other" y2="-0.941906" x1="16.7534" stroke="black"/>
      <line x2="16.7419" style="stroke-linecap:round" y1="33.2125" stroke-width="0.49048" id="line3709" gorn="0.4.0.0.1" class="other" y2="11.4253" x1="16.7419" stroke="black"/>
      <line x2="16.6313" style="stroke-linecap:round" y1="33.1654" stroke-width="0.475143" id="line3711" gorn="0.4.0.0.2" class="other" y2="33.1654" x1="0.235889" stroke="black"/>
      <line x2="0.215446" style="display:inline;stroke-linecap:round" y1="33.2545" stroke-width="0.402977" id="line3709-8" gorn="0.4.0.0.3" class="other" y2="18.5476" x1="0.215446" stroke="black"/>
      <line x2="16.8661" style="stroke-linecap:round" y1="6.28816" stroke-width="0.282618" id="line3709-6" gorn="0.4.0.0.4" class="other" y2="-0.94554" x1="16.8661" stroke="black"/>
      <line x2="0.165335" style="display:inline;stroke-linecap:round" y1="16.4761" stroke-width="0.436089" id="line3709-8-3" gorn="0.4.0.0.5" class="other" y2="-0.746985" x1="0.165335" stroke="black"/>
     </g>
    </g>
   </g>
  </g>
 </g>
 <g partID="854511831">
  <g transform="translate(64.125,120.308)">
   <g transform="matrix(1, 0, 0, 1, 0.0527316, 1.27105)">
    <g id="silkscreen">
     <g gorn="0.4.0.0">
      <line x2="11.6017" style="stroke-linecap:round" y1="-0.941906" stroke-width="0.36605" id="line3703" gorn="0.4.0.0.0" class="other" y2="-0.941906" x1="16.7534" stroke="black"/>
      <line x2="16.7419" style="stroke-linecap:round" y1="33.2125" stroke-width="0.49048" id="line3709" gorn="0.4.0.0.1" class="other" y2="11.4253" x1="16.7419" stroke="black"/>
      <line x2="16.6313" style="stroke-linecap:round" y1="33.1654" stroke-width="0.475143" id="line3711" gorn="0.4.0.0.2" class="other" y2="33.1654" x1="0.235889" stroke="black"/>
      <line x2="0.215446" style="display:inline;stroke-linecap:round" y1="33.2545" stroke-width="0.402977" id="line3709-8" gorn="0.4.0.0.3" class="other" y2="18.5476" x1="0.215446" stroke="black"/>
      <line x2="16.8661" style="stroke-linecap:round" y1="6.28816" stroke-width="0.282618" id="line3709-6" gorn="0.4.0.0.4" class="other" y2="-0.94554" x1="16.8661" stroke="black"/>
      <line x2="0.165335" style="display:inline;stroke-linecap:round" y1="16.4761" stroke-width="0.436089" id="line3709-8-3" gorn="0.4.0.0.5" class="other" y2="-0.746985" x1="0.165335" stroke="black"/>
     </g>
    </g>
   </g>
  </g>
 </g>
 <g partID="854511861">
  <g transform="translate(25.8575,120.308)">
   <g transform="matrix(1, 0, 0, 1, 0.0527316, 1.27105)">
    <g id="silkscreen">
     <g gorn="0.4.0.0">
      <line x2="11.6017" style="stroke-linecap:round" y1="-0.941906" stroke-width="0.36605" id="line3703" gorn="0.4.0.0.0" class="other" y2="-0.941906" x1="16.7534" stroke="black"/>
      <line x2="16.7419" style="stroke-linecap:round" y1="33.2125" stroke-width="0.49048" id="line3709" gorn="0.4.0.0.1" class="other" y2="11.4253" x1="16.7419" stroke="black"/>
      <line x2="16.6313" style="stroke-linecap:round" y1="33.1654" stroke-width="0.475143" id="line3711" gorn="0.4.0.0.2" class="other" y2="33.1654" x1="0.235889" stroke="black"/>
      <line x2="0.215446" style="display:inline;stroke-linecap:round" y1="33.2545" stroke-width="0.402977" id="line3709-8" gorn="0.4.0.0.3" class="other" y2="18.5476" x1="0.215446" stroke="black"/>
      <line x2="16.8661" style="stroke-linecap:round" y1="6.28816" stroke-width="0.282618" id="line3709-6" gorn="0.4.0.0.4" class="other" y2="-0.94554" x1="16.8661" stroke="black"/>
      <line x2="0.165335" style="display:inline;stroke-linecap:round" y1="16.4761" stroke-width="0.436089" id="line3709-8-3" gorn="0.4.0.0.5" class="other" y2="-0.746985" x1="0.165335" stroke="black"/>
     </g>
    </g>
   </g>
  </g>
 </g>
 <g partID="854384611">
  <g transform="translate(14.7728,64.8075)">
   <g id="silkscreen">
    <line x2="30.24" y1="5.76" stroke-width="0.72" x1="1.44" y2="5.76" stroke="black"/>
    <line x2="30.24" y1="5.76" stroke-width="0.72" x1="30.24" y2="18.72" stroke="black"/>
    <line x2="1.44" y1="18.72" stroke-width="0.72" x1="30.24" y2="18.72" stroke="black"/>
    <line x2="1.44" y1="18.72" stroke-width="0.72" x1="1.44" y2="5.76" stroke="black"/>
    <line x2="30.24" y1="5.76" stroke-width="0.72" x1="1.44" y2="5.76" stroke="black"/>
    <line x2="30.24" y1="5.76" stroke-width="0.72" x1="30.24" y2="10.08" stroke="black"/>
    <line x2="1.44" y1="10.08" stroke-width="0.72" x1="30.24" y2="10.08" stroke="black"/>
    <line x2="1.44" y1="10.08" stroke-width="0.72" x1="1.44" y2="5.76" stroke="black"/>
    <line x2="10.8" y1="5.76" stroke-width="0.36" x1="10.8" y2="10.08" stroke="black"/>
    <line x2="20.88" y1="5.76" stroke-width="0.36" x1="20.88" y2="10.08" stroke="black"/>
   </g>
  </g>
 </g>
 <g partID="854384891">
  <g transform="translate(155.087,64.8075)">
   <g id="silkscreen">
    <line x2="30.24" y1="5.76" stroke-width="0.72" x1="1.44" y2="5.76" stroke="black"/>
    <line x2="30.24" y1="5.76" stroke-width="0.72" x1="30.24" y2="18.72" stroke="black"/>
    <line x2="1.44" y1="18.72" stroke-width="0.72" x1="30.24" y2="18.72" stroke="black"/>
    <line x2="1.44" y1="18.72" stroke-width="0.72" x1="1.44" y2="5.76" stroke="black"/>
    <line x2="30.24" y1="5.76" stroke-width="0.72" x1="1.44" y2="5.76" stroke="black"/>
    <line x2="30.24" y1="5.76" stroke-width="0.72" x1="30.24" y2="10.08" stroke="black"/>
    <line x2="1.44" y1="10.08" stroke-width="0.72" x1="30.24" y2="10.08" stroke="black"/>
    <line x2="1.44" y1="10.08" stroke-width="0.72" x1="1.44" y2="5.76" stroke="black"/>
    <line x2="10.8" y1="5.76" stroke-width="0.36" x1="10.8" y2="10.08" stroke="black"/>
    <line x2="20.88" y1="5.76" stroke-width="0.36" x1="20.88" y2="10.08" stroke="black"/>
   </g>
  </g>
 </g>
 <g partID="854212410">
  <g transform="translate(64.0906,43.7388)">
   <g id="silkscreen">
    <text y="2.94367" stroke-width="0" fill="black" xml:space="preserve" id="label" font-size="3.27074" x="19.6245" xmlns:xml="http://www.w3.org/XML/1998/namespace" font-family="OCRA" text-anchor="middle">David Tadres</text>
   </g>
  </g>
 </g>
 <g partID="854212310">
  <g transform="translate(62.8962,47.4954)">
   <g id="silkscreen">
    <text y="2.94367" stroke-width="0" fill="black" xml:space="preserve" id="label" font-size="3.27074" x="21.2598" xmlns:xml="http://www.w3.org/XML/1998/namespace" font-family="OCRA" text-anchor="middle">with Fritzing</text>
   </g>
  </g>
 </g>
 <g partID="854212230">
  <g transform="translate(65.7434,39.3566)">
   <g id="silkscreen">
    <text y="2.94367" stroke-width="0" fill="black" xml:space="preserve" id="label" font-size="3.27074" x="17.9891" xmlns:xml="http://www.w3.org/XML/1998/namespace" font-family="OCRA" text-anchor="middle">Designed by</text>
   </g>
  </g>
 </g>
 <g partID="854385171">
  <g transform="translate(61.5442,64.8075)">
   <g id="silkscreen">
    <line x2="30.24" y1="5.76" stroke-width="0.72" x1="1.44" y2="5.76" stroke="black"/>
    <line x2="30.24" y1="5.76" stroke-width="0.72" x1="30.24" y2="18.72" stroke="black"/>
    <line x2="1.44" y1="18.72" stroke-width="0.72" x1="30.24" y2="18.72" stroke="black"/>
    <line x2="1.44" y1="18.72" stroke-width="0.72" x1="1.44" y2="5.76" stroke="black"/>
    <line x2="30.24" y1="5.76" stroke-width="0.72" x1="1.44" y2="5.76" stroke="black"/>
    <line x2="30.24" y1="5.76" stroke-width="0.72" x1="30.24" y2="10.08" stroke="black"/>
    <line x2="1.44" y1="10.08" stroke-width="0.72" x1="30.24" y2="10.08" stroke="black"/>
    <line x2="1.44" y1="10.08" stroke-width="0.72" x1="1.44" y2="5.76" stroke="black"/>
    <line x2="10.8" y1="5.76" stroke-width="0.36" x1="10.8" y2="10.08" stroke="black"/>
    <line x2="20.88" y1="5.76" stroke-width="0.36" x1="20.88" y2="10.08" stroke="black"/>
   </g>
  </g>
 </g>
 <g partID="854385451">
  <g transform="translate(108.316,64.8075)">
   <g id="silkscreen">
    <line x2="30.24" y1="5.76" stroke-width="0.72" x1="1.44" y2="5.76" stroke="black"/>
    <line x2="30.24" y1="5.76" stroke-width="0.72" x1="30.24" y2="18.72" stroke="black"/>
    <line x2="1.44" y1="18.72" stroke-width="0.72" x1="30.24" y2="18.72" stroke="black"/>
    <line x2="1.44" y1="18.72" stroke-width="0.72" x1="1.44" y2="5.76" stroke="black"/>
    <line x2="30.24" y1="5.76" stroke-width="0.72" x1="1.44" y2="5.76" stroke="black"/>
    <line x2="30.24" y1="5.76" stroke-width="0.72" x1="30.24" y2="10.08" stroke="black"/>
    <line x2="1.44" y1="10.08" stroke-width="0.72" x1="30.24" y2="10.08" stroke="black"/>
    <line x2="1.44" y1="10.08" stroke-width="0.72" x1="1.44" y2="5.76" stroke="black"/>
    <line x2="10.8" y1="5.76" stroke-width="0.36" x1="10.8" y2="10.08" stroke="black"/>
    <line x2="20.88" y1="5.76" stroke-width="0.36" x1="20.88" y2="10.08" stroke="black"/>
   </g>
  </g>
 </g>
 <g partID="854212200">
  <g transform="translate(67.1314,30.9164)">
   <g id="silkscreen">
    <text y="7.22894" stroke-width="0" fill="black" xml:space="preserve" id="label" font-size="8.03216" x="16.0643" xmlns:xml="http://www.w3.org/XML/1998/namespace" font-family="OCRA" text-anchor="middle">V2.3</text>
   </g>
  </g>
 </g>
 <g partID="854134041">
  <g transform="translate(13.2861,94.5365)">
   <g id="silkscreen">
    <line x2="10.584" y1="3.096" stroke-width="0.72" x1="5.4" y2="3.096" stroke="black"/>
    <line x2="28.8" y1="3.096" stroke-width="0.72" x1="24.984" y2="3.096" stroke="black"/>
    <line x2="24.984" y1="0.72" stroke-width="0.72" x1="10.584" y2="0.72" stroke="black"/>
    <line x2="24.984" y1="0.72" stroke-width="0.72" x1="24.984" y2="5.472" stroke="black"/>
    <line x2="10.584" y1="5.472" stroke-width="0.72" x1="24.984" y2="5.472" stroke="black"/>
    <line x2="10.584" y1="5.472" stroke-width="0.72" x1="10.584" y2="0.72" stroke="black"/>
   </g>
  </g>
 </g>
 <g partID="854133741">
  <g transform="translate(155.019,94.5365)">
   <g id="silkscreen">
    <line x2="10.584" y1="3.096" stroke-width="0.72" x1="5.4" y2="3.096" stroke="black"/>
    <line x2="28.8" y1="3.096" stroke-width="0.72" x1="24.984" y2="3.096" stroke="black"/>
    <line x2="24.984" y1="0.72" stroke-width="0.72" x1="10.584" y2="0.72" stroke="black"/>
    <line x2="24.984" y1="0.72" stroke-width="0.72" x1="24.984" y2="5.472" stroke="black"/>
    <line x2="10.584" y1="5.472" stroke-width="0.72" x1="24.984" y2="5.472" stroke="black"/>
    <line x2="10.584" y1="5.472" stroke-width="0.72" x1="10.584" y2="0.72" stroke="black"/>
   </g>
  </g>
 </g>
 <g partID="854133451">
  <g transform="translate(60.0578,94.5365)">
   <g id="silkscreen">
    <line x2="10.584" y1="3.096" stroke-width="0.72" x1="5.4" y2="3.096" stroke="black"/>
    <line x2="28.8" y1="3.096" stroke-width="0.72" x1="24.984" y2="3.096" stroke="black"/>
    <line x2="24.984" y1="0.72" stroke-width="0.72" x1="10.584" y2="0.72" stroke="black"/>
    <line x2="24.984" y1="0.72" stroke-width="0.72" x1="24.984" y2="5.472" stroke="black"/>
    <line x2="10.584" y1="5.472" stroke-width="0.72" x1="24.984" y2="5.472" stroke="black"/>
    <line x2="10.584" y1="5.472" stroke-width="0.72" x1="10.584" y2="0.72" stroke="black"/>
   </g>
  </g>
 </g>
 <g partID="854133201">
  <g transform="translate(111.081,94.5365)">
   <g id="silkscreen">
    <line x2="10.584" y1="3.096" stroke-width="0.72" x1="5.4" y2="3.096" stroke="black"/>
    <line x2="28.8" y1="3.096" stroke-width="0.72" x1="24.984" y2="3.096" stroke="black"/>
    <line x2="24.984" y1="0.72" stroke-width="0.72" x1="10.584" y2="0.72" stroke="black"/>
    <line x2="24.984" y1="0.72" stroke-width="0.72" x1="24.984" y2="5.472" stroke="black"/>
    <line x2="10.584" y1="5.472" stroke-width="0.72" x1="24.984" y2="5.472" stroke="black"/>
    <line x2="10.584" y1="5.472" stroke-width="0.72" x1="10.584" y2="0.72" stroke="black"/>
   </g>
  </g>
 </g>
 <g partID="196231">
  <g id="silkscreen">
   <rect y="0.288" width="226.196" stroke-width="0.576" fill="none" height="155.33" x="0.288" stroke="black"/>
  </g>
 </g>
 <g partID="337481">
  <g transform="translate(202.738,38.7345)">
   <g id="silkscreen">
    <line x2="1.44" y1="1.44" stroke-width="0.72" x1="1.44" y2="37.44" stroke="black"/>
    <line x2="8.64" y1="37.44" stroke-width="0.72" x1="1.44" y2="37.44" stroke="black"/>
    <line x2="8.64" y1="37.44" stroke-width="0.72" x1="8.64" y2="1.44" stroke="black"/>
    <line x2="1.44" y1="1.44" stroke-width="0.72" x1="8.64" y2="1.44" stroke="black"/>
    <line x2="3.96" y1="3.96" stroke-width="0.36" x1="1.44" y2="1.44" stroke="black"/>
    <!-- 120 -->
   </g>
  </g>
 </g>
 <g partID="337480" id="partLabel">
  <g transform="translate(214.247,72.6058)">
   <g transform="matrix(0,-1,1,0,0,0)">
    <g fill-opacity="1" font-weight="normal" fill="#000000" id="silkscreenLabel" font-size="5" font-style="normal" stroke="none" font-family="'OCRA'">
     <text y="3.75" x="0">+LCD 5V-</text>
    </g>
   </g>
  </g>
 </g>
 <g partID="198050" id="partLabel">
  <g transform="translate(114.19,22.2365)">
   <g fill-opacity="1" font-weight="normal" fill="#000000" id="silkscreenLabel" font-size="5" font-style="normal" stroke="none" font-family="'OCRA'">
    <text y="3.75" x="0">RPi GPIO</text>
   </g>
  </g>
 </g>
 <g partID="854384610" id="partLabel">
  <g transform="translate(31.8266,64.5482)">
   <g fill-opacity="1" font-weight="normal" fill="#000000" id="silkscreenLabel" font-size="5" font-style="normal" stroke="none" font-family="'OCRA'">
    <text y="3.75" x="0">GPIO13</text>
   </g>
  </g>
 </g>
 <g partID="854511830" id="partLabel">
  <g transform="translate(58.4738,155.02)">
   <g transform="matrix(0,-1,1,0,0,0)">
    <g fill-opacity="1" font-weight="normal" fill="#000000" id="silkscreenLabel" font-size="5" font-style="normal" stroke="none" font-family="'OCRA'">
     <text y="3.75" x="0">12V/27</text>
    </g>
   </g>
  </g>
 </g>
 <g partID="854511840" id="partLabel">
  <g transform="translate(96.7418,154.691)">
   <g transform="matrix(0,-1,1,0,0,0)">
    <g fill-opacity="1" font-weight="normal" fill="#000000" id="silkscreenLabel" font-size="5" font-style="normal" stroke="none" font-family="'OCRA'">
     <text y="3.75" x="0">12V/17</text>
    </g>
   </g>
  </g>
 </g>
 <g partID="854511850" id="partLabel">
  <g transform="translate(134.845,155.02)">
   <g transform="matrix(0,-1,1,0,0,0)">
    <g fill-opacity="1" font-weight="normal" fill="#000000" id="silkscreenLabel" font-size="5" font-style="normal" stroke="none" font-family="'OCRA'">
     <text y="3.75" x="0">12V/18</text>
    </g>
   </g>
  </g>
 </g>
 <g partID="854384890" id="partLabel">
  <g transform="translate(154.871,62.6998)">
   <g fill-opacity="1" font-weight="normal" fill="#000000" id="silkscreenLabel" font-size="5" font-style="normal" stroke="none" font-family="'OCRA'">
    <text y="3.75" x="0">GPIO18</text>
   </g>
  </g>
 </g>
 <g partID="854385170" id="partLabel">
  <g transform="translate(72.1098,64.4964)">
   <g fill-opacity="1" font-weight="normal" fill="#000000" id="silkscreenLabel" font-size="5" font-style="normal" stroke="none" font-family="'OCRA'">
    <text y="3.75" x="0">GPIO27</text>
   </g>
  </g>
 </g>
 <g partID="854515660" id="partLabel">
  <g transform="translate(170.761,154.672)">
   <g transform="matrix(0,-1,1,0,0,0)">
    <g fill-opacity="1" font-weight="normal" fill="#000000" id="silkscreenLabel" font-size="5" font-style="normal" stroke="none" font-family="'OCRA'">
     <text y="3.75" x="0">12V IN</text>
    </g>
   </g>
  </g>
 </g>
 <g partID="854385450" id="partLabel">
  <g transform="translate(120.85,64.2488)">
   <g fill-opacity="1" font-weight="normal" fill="#000000" id="silkscreenLabel" font-size="5" font-style="normal" stroke="none" font-family="'OCRA'">
    <text y="3.75" x="0">GPIO17</text>
   </g>
  </g>
 </g>
 <g partID="854511860" id="partLabel">
  <g transform="translate(20.2066,155.184)">
   <g transform="matrix(0,-1,1,0,0,0)">
    <g fill-opacity="1" font-weight="normal" fill="#000000" id="silkscreenLabel" font-size="5" font-style="normal" stroke="none" font-family="'OCRA'">
     <text y="3.75" x="0">12V/13</text>
    </g>
   </g>
  </g>
 </g>
 <g partID="854133200" id="partLabel">
  <g transform="translate(126.679,88.9989)">
   <g fill-opacity="1" font-weight="normal" fill="#000000" id="silkscreenLabel" font-size="5" font-style="normal" stroke="none" font-family="'OCRA'">
    <text y="3.75" x="0">R17</text>
   </g>
  </g>
 </g>
 <g partID="854133450" id="partLabel">
  <g transform="translate(74.301,90.3837)">
   <g fill-opacity="1" font-weight="normal" fill="#000000" id="silkscreenLabel" font-size="5" font-style="normal" stroke="none" font-family="'OCRA'">
    <text y="3.75" x="0">R27</text>
   </g>
  </g>
 </g>
 <g partID="854133740" id="partLabel">
  <g transform="translate(169.199,90.5021)">
   <g fill-opacity="1" font-weight="normal" fill="#000000" id="silkscreenLabel" font-size="5" font-style="normal" stroke="none" font-family="'OCRA'">
    <text y="3.75" x="0">R18</text>
   </g>
  </g>
 </g>
 <g partID="854134040" id="partLabel">
  <g transform="translate(27.8898,90.3533)">
   <g fill-opacity="1" font-weight="normal" fill="#000000" id="silkscreenLabel" font-size="5" font-style="normal" stroke="none" font-family="'OCRA'">
    <text y="3.75" x="0">R13</text>
   </g>
  </g>
 </g>
 <g partID="854544811">
  <g transform="translate(55.961,52.0103)">
   <g id="copper1">
    <circle cy="3.01733" cx="3.01733" stroke-width="1.57039" fill="white" id="connector0pin" r="0.992124" stroke="white"/>
   </g>
  </g>
 </g>
 <g partID="854545391">
  <g transform="translate(44.5834,6.67368)">
   <g id="copper1">
    <circle cy="3.01733" cx="3.01733" stroke-width="1.57039" fill="white" id="connector0pin" r="0.992124" stroke="white"/>
   </g>
  </g>
 </g>
 <g partID="854536971">
  <g transform="translate(186.374,103.142)">
   <g id="copper1">
    <circle cy="3.01733" cx="3.01733" stroke-width="1.57039" fill="white" id="connector0pin" r="0.992124" stroke="white"/>
   </g>
  </g>
 </g>
 <g partID="854515662">
  <g transform="translate(176.787,112.833)">
   <g transform="matrix(1, 0, 0, 1, 0.377238, -800.114)">
    <g id="copper1">
     <g transform="matrix(1, 0, 0, 1, -0.288, 797.219)">
      <g>
       <g gorn="0.3.0.0.0.0.0.0.0.0.3">
        <circle cy="6.12" connectorname="PWR" cx="13.0439" stroke-width="1.57039" fill="white" id="connector2pad2" gorn="0.3.0.0.0.0.0.0.0.0.3.0" r="2.69291" stroke="white"/>
        <circle cy="22.5609" connectorname="GND" cx="13.0439" stroke-width="1.57039" fill="white" id="connector0pad2" gorn="0.3.0.0.0.0.0.0.0.0.3.1" r="2.69291" stroke="white"/>
        <circle cy="14.6239" connectorname="GNDBREAK" cx="26.6502" stroke-width="1.57039" fill="white" id="connector1pad2" gorn="0.3.0.0.0.0.0.0.0.0.3.2" r="2.69291" stroke="white"/>
       </g>
      </g>
     </g>
    </g>
   </g>
  </g>
 </g>
 <g partID="854512851">
  <g transform="translate(161.444,136.445)">
   <g id="copper1">
    <circle cy="3.01733" cx="3.01733" stroke-width="1.57039" fill="white" id="connector0pin" r="0.992124" stroke="white"/>
   </g>
  </g>
 </g>
 <g partID="854511852">
  <g transform="translate(140.66,120.308)">
   <g transform="matrix(1, 0, 0, 1, 0.615231, 1.27105)">
    <g id="copper1">
     <g gorn="0.3.0.0">
      <circle cy="1.70533" connectorname="PWR" cx="6.52411" stroke-width="1.57039" fill="white" id="connector2pad" gorn="0.3.0.0.0" r="2.55118" stroke="white"/>
      <path d="M3.68929,-1.13043A2.83464,2.83465,0,0,0,0.854824,1.70404,2.83464,2.83465,0,0,0,3.68929,4.53997L9.35971,4.53997A2.83464,2.83465,0,0,0,12.1942,1.70404,2.83464,2.83465,0,0,0,9.35971,-1.13043Zm2.85352,0.706054A2.12598,2.12598,0,0,1,8.66828,1.70111,2.12598,2.12598,0,0,1,6.54281,3.8266,2.12598,2.12598,0,0,1,4.41587,1.70111,2.12598,2.12598,0,0,1,6.54281,-0.424381Z" stroke-width="0.72" fill="white" id="connector2extra" gorn="0.3.0.0.1" stroke="white"/>
      <circle cy="15.8982" connectorname="GND@1" cx="6.58983" stroke-width="1.57039" fill="white" id="connector0pad" gorn="0.3.0.0.2" r="2.55118" stroke="white"/>
      <g transform="matrix(0.264583, 0, 0, 0.264583, -0.5625, -1.12932)">
       <g>
        <g>
         <path d="m16.0722,53.5703a10.7136,10.7136,0,0,0,-10.713,10.713,10.7136,10.7136,0,0,0,10.713,10.713l21.4259,0a10.7136,10.7136,0,0,0,10.713,-10.713,10.7136,10.7136,0,0,0,-10.713,-10.713zm10.713,2.70731A8.03522,8.03523,0,0,1,34.8185,64.311,8.03522,8.03523,0,0,1,26.7852,72.3498,8.03522,8.03523,0,0,1,18.7463,64.311,8.03522,8.03523,0,0,1,26.7852,56.2776Z" stroke-width="0.72" fill="white" id="connector0extra" gorn="0.3.0.0.3.0.0" stroke="white"/>
        </g>
       </g>
      </g>
      <circle cy="8.79404" connectorname="GND@2" cx="14.0961" stroke-width="1.57039" fill="white" id="connector1pad" gorn="0.3.0.0.4" r="2.55118" stroke="white"/>
      <g id="copper0" gorn="0.3.0.0.5">
       <path d="m3.68929,-1.13043a2.83464,2.83465,0,0,0,-2.83447,2.83447,2.83464,2.83465,0,0,0,2.83447,2.83595l5.67039,0a2.83464,2.83465,0,0,0,2.83447,-2.83595,2.83464,2.83465,0,0,0,-2.83447,-2.83447zm2.85352,0.706054a2.12598,2.12598,0,0,1,2.12549,2.12549,2.12598,2.12598,0,0,1,-2.12549,2.12549,2.12598,2.12598,0,0,1,-2.12695,-2.12549,2.12598,2.12598,0,0,1,2.12695,-2.12549z" stroke-width="0.72" fill="white" id="path1831" gorn="0.3.0.0.5.0" stroke="white"/>
       <path d="m3.68929,-1.13043a2.83464,2.83465,0,0,0,-2.83447,2.83447,2.83464,2.83465,0,0,0,2.83447,2.83595l5.67042,0a2.83464,2.83465,0,0,0,2.83447,-2.83595,2.83464,2.83465,0,0,0,-2.83447,-2.83447zm2.85352,0.706054a2.12598,2.12598,0,0,1,2.12549,2.12549,2.12598,2.12598,0,0,1,-2.12549,2.12549,2.12598,2.12598,0,0,1,-2.12695,-2.12549,2.12598,2.12598,0,0,1,2.12695,-2.12549z" stroke-width="0.72" fill="white" id="connector2extra2" gorn="0.3.0.0.5.1" stroke="white"/>
       <circle cy="1.70533" connectorname="PWR" cx="6.52411" stroke-width="1.57039" fill="white" id="connector2pad2" gorn="0.3.0.0.5.2" r="2.55118" stroke="white"/>
       <circle cy="15.8786" connectorname="GND@1" cx="6.52411" stroke-width="1.57039" fill="white" id="connector0pad2" gorn="0.3.0.0.5.3" r="2.55118" stroke="white"/>
       <g transform="matrix(0.264583, 0, 0, 0.264583, -0.5625, -1.12932)">
        <g>
         <g>
          <path d="m16.0722,53.5703a10.7136,10.7136,0,0,0,-10.713,10.713,10.7136,10.7136,0,0,0,10.713,10.713l21.4259,0a10.7136,10.7136,0,0,0,10.713,-10.713,10.7136,10.7136,0,0,0,-10.713,-10.713zm10.713,2.67409a8.03522,8.03523,0,0,1,8.03332,8.03889,8.03522,8.03523,0,0,1,-8.03332,8.03336,8.03522,8.03523,0,0,1,-8.03888,-8.03336,8.03522,8.03523,0,0,1,8.03888,-8.03889z" stroke-width="0.72" fill="white" id="connector0extra2" gorn="0.3.0.0.5.4.0.0" stroke="white"/>
         </g>
        </g>
       </g>
       <circle cy="8.79404" connectorname="GND@2" cx="14.0961" stroke-width="1.57039" fill="white" id="connector1pad2" gorn="0.3.0.0.5.5" r="2.55118" stroke="white"/>
      </g>
     </g>
    </g>
   </g>
  </g>
 </g>
 <g partID="854511842">
  <g transform="translate(102.393,120.308)">
   <g transform="matrix(1, 0, 0, 1, 0.615231, 1.27105)">
    <g id="copper1">
     <g gorn="0.3.0.0">
      <circle cy="1.70533" connectorname="PWR" cx="6.52411" stroke-width="1.57039" fill="white" id="connector2pad" gorn="0.3.0.0.0" r="2.55118" stroke="white"/>
      <path d="M3.68929,-1.13043A2.83464,2.83465,0,0,0,0.854824,1.70404,2.83464,2.83465,0,0,0,3.68929,4.53997L9.35971,4.53997A2.83464,2.83465,0,0,0,12.1942,1.70404,2.83464,2.83465,0,0,0,9.35971,-1.13043Zm2.85352,0.706054A2.12598,2.12598,0,0,1,8.66828,1.70111,2.12598,2.12598,0,0,1,6.54281,3.8266,2.12598,2.12598,0,0,1,4.41587,1.70111,2.12598,2.12598,0,0,1,6.54281,-0.424381Z" stroke-width="0.72" fill="white" id="connector2extra" gorn="0.3.0.0.1" stroke="white"/>
      <circle cy="15.8982" connectorname="GND@1" cx="6.58983" stroke-width="1.57039" fill="white" id="connector0pad" gorn="0.3.0.0.2" r="2.55118" stroke="white"/>
      <g transform="matrix(0.264583, 0, 0, 0.264583, -0.5625, -1.12932)">
       <g>
        <g>
         <path d="m16.0722,53.5703a10.7136,10.7136,0,0,0,-10.713,10.713,10.7136,10.7136,0,0,0,10.713,10.713l21.4259,0a10.7136,10.7136,0,0,0,10.713,-10.713,10.7136,10.7136,0,0,0,-10.713,-10.713zm10.713,2.70731A8.03522,8.03523,0,0,1,34.8185,64.311,8.03522,8.03523,0,0,1,26.7852,72.3498,8.03522,8.03523,0,0,1,18.7463,64.311,8.03522,8.03523,0,0,1,26.7852,56.2776Z" stroke-width="0.72" fill="white" id="connector0extra" gorn="0.3.0.0.3.0.0" stroke="white"/>
        </g>
       </g>
      </g>
      <circle cy="8.79404" connectorname="GND@2" cx="14.0961" stroke-width="1.57039" fill="white" id="connector1pad" gorn="0.3.0.0.4" r="2.55118" stroke="white"/>
      <g id="copper0" gorn="0.3.0.0.5">
       <path d="m3.68929,-1.13043a2.83464,2.83465,0,0,0,-2.83447,2.83447,2.83464,2.83465,0,0,0,2.83447,2.83595l5.67039,0a2.83464,2.83465,0,0,0,2.83447,-2.83595,2.83464,2.83465,0,0,0,-2.83447,-2.83447zm2.85352,0.706054a2.12598,2.12598,0,0,1,2.12549,2.12549,2.12598,2.12598,0,0,1,-2.12549,2.12549,2.12598,2.12598,0,0,1,-2.12695,-2.12549,2.12598,2.12598,0,0,1,2.12695,-2.12549z" stroke-width="0.72" fill="white" id="path1831" gorn="0.3.0.0.5.0" stroke="white"/>
       <path d="m3.68929,-1.13043a2.83464,2.83465,0,0,0,-2.83447,2.83447,2.83464,2.83465,0,0,0,2.83447,2.83595l5.67042,0a2.83464,2.83465,0,0,0,2.83447,-2.83595,2.83464,2.83465,0,0,0,-2.83447,-2.83447zm2.85352,0.706054a2.12598,2.12598,0,0,1,2.12549,2.12549,2.12598,2.12598,0,0,1,-2.12549,2.12549,2.12598,2.12598,0,0,1,-2.12695,-2.12549,2.12598,2.12598,0,0,1,2.12695,-2.12549z" stroke-width="0.72" fill="white" id="connector2extra2" gorn="0.3.0.0.5.1" stroke="white"/>
       <circle cy="1.70533" connectorname="PWR" cx="6.52411" stroke-width="1.57039" fill="white" id="connector2pad2" gorn="0.3.0.0.5.2" r="2.55118" stroke="white"/>
       <circle cy="15.8786" connectorname="GND@1" cx="6.52411" stroke-width="1.57039" fill="white" id="connector0pad2" gorn="0.3.0.0.5.3" r="2.55118" stroke="white"/>
       <g transform="matrix(0.264583, 0, 0, 0.264583, -0.5625, -1.12932)">
        <g>
         <g>
          <path d="m16.0722,53.5703a10.7136,10.7136,0,0,0,-10.713,10.713,10.7136,10.7136,0,0,0,10.713,10.713l21.4259,0a10.7136,10.7136,0,0,0,10.713,-10.713,10.7136,10.7136,0,0,0,-10.713,-10.713zm10.713,2.67409a8.03522,8.03523,0,0,1,8.03332,8.03889,8.03522,8.03523,0,0,1,-8.03332,8.03336,8.03522,8.03523,0,0,1,-8.03888,-8.03336,8.03522,8.03523,0,0,1,8.03888,-8.03889z" stroke-width="0.72" fill="white" id="connector0extra2" gorn="0.3.0.0.5.4.0.0" stroke="white"/>
         </g>
        </g>
       </g>
       <circle cy="8.79404" connectorname="GND@2" cx="14.0961" stroke-width="1.57039" fill="white" id="connector1pad2" gorn="0.3.0.0.5.5" r="2.55118" stroke="white"/>
      </g>
     </g>
    </g>
   </g>
  </g>
 </g>
 <g partID="854468371">
  <g transform="translate(121.167,134.267)">
   <g id="copper1">
    <circle cy="3.01733" cx="3.01733" stroke-width="1.57039" fill="white" id="connector0pin" r="0.992124" stroke="white"/>
   </g>
  </g>
 </g>
 <g partID="854511832">
  <g transform="translate(64.125,120.308)">
   <g transform="matrix(1, 0, 0, 1, 0.615231, 1.27105)">
    <g id="copper1">
     <g gorn="0.3.0.0">
      <circle cy="1.70533" connectorname="PWR" cx="6.52411" stroke-width="1.57039" fill="white" id="connector2pad" gorn="0.3.0.0.0" r="2.55118" stroke="white"/>
      <path d="M3.68929,-1.13043A2.83464,2.83465,0,0,0,0.854824,1.70404,2.83464,2.83465,0,0,0,3.68929,4.53997L9.35971,4.53997A2.83464,2.83465,0,0,0,12.1942,1.70404,2.83464,2.83465,0,0,0,9.35971,-1.13043Zm2.85352,0.706054A2.12598,2.12598,0,0,1,8.66828,1.70111,2.12598,2.12598,0,0,1,6.54281,3.8266,2.12598,2.12598,0,0,1,4.41587,1.70111,2.12598,2.12598,0,0,1,6.54281,-0.424381Z" stroke-width="0.72" fill="white" id="connector2extra" gorn="0.3.0.0.1" stroke="white"/>
      <circle cy="15.8982" connectorname="GND@1" cx="6.58983" stroke-width="1.57039" fill="white" id="connector0pad" gorn="0.3.0.0.2" r="2.55118" stroke="white"/>
      <g transform="matrix(0.264583, 0, 0, 0.264583, -0.5625, -1.12932)">
       <g>
        <g>
         <path d="m16.0722,53.5703a10.7136,10.7136,0,0,0,-10.713,10.713,10.7136,10.7136,0,0,0,10.713,10.713l21.4259,0a10.7136,10.7136,0,0,0,10.713,-10.713,10.7136,10.7136,0,0,0,-10.713,-10.713zm10.713,2.70731A8.03522,8.03523,0,0,1,34.8185,64.311,8.03522,8.03523,0,0,1,26.7852,72.3498,8.03522,8.03523,0,0,1,18.7463,64.311,8.03522,8.03523,0,0,1,26.7852,56.2776Z" stroke-width="0.72" fill="white" id="connector0extra" gorn="0.3.0.0.3.0.0" stroke="white"/>
        </g>
       </g>
      </g>
      <circle cy="8.79404" connectorname="GND@2" cx="14.0961" stroke-width="1.57039" fill="white" id="connector1pad" gorn="0.3.0.0.4" r="2.55118" stroke="white"/>
      <g id="copper0" gorn="0.3.0.0.5">
       <path d="m3.68929,-1.13043a2.83464,2.83465,0,0,0,-2.83447,2.83447,2.83464,2.83465,0,0,0,2.83447,2.83595l5.67039,0a2.83464,2.83465,0,0,0,2.83447,-2.83595,2.83464,2.83465,0,0,0,-2.83447,-2.83447zm2.85352,0.706054a2.12598,2.12598,0,0,1,2.12549,2.12549,2.12598,2.12598,0,0,1,-2.12549,2.12549,2.12598,2.12598,0,0,1,-2.12695,-2.12549,2.12598,2.12598,0,0,1,2.12695,-2.12549z" stroke-width="0.72" fill="white" id="path1831" gorn="0.3.0.0.5.0" stroke="white"/>
       <path d="m3.68929,-1.13043a2.83464,2.83465,0,0,0,-2.83447,2.83447,2.83464,2.83465,0,0,0,2.83447,2.83595l5.67042,0a2.83464,2.83465,0,0,0,2.83447,-2.83595,2.83464,2.83465,0,0,0,-2.83447,-2.83447zm2.85352,0.706054a2.12598,2.12598,0,0,1,2.12549,2.12549,2.12598,2.12598,0,0,1,-2.12549,2.12549,2.12598,2.12598,0,0,1,-2.12695,-2.12549,2.12598,2.12598,0,0,1,2.12695,-2.12549z" stroke-width="0.72" fill="white" id="connector2extra2" gorn="0.3.0.0.5.1" stroke="white"/>
       <circle cy="1.70533" connectorname="PWR" cx="6.52411" stroke-width="1.57039" fill="white" id="connector2pad2" gorn="0.3.0.0.5.2" r="2.55118" stroke="white"/>
       <circle cy="15.8786" connectorname="GND@1" cx="6.52411" stroke-width="1.57039" fill="white" id="connector0pad2" gorn="0.3.0.0.5.3" r="2.55118" stroke="white"/>
       <g transform="matrix(0.264583, 0, 0, 0.264583, -0.5625, -1.12932)">
        <g>
         <g>
          <path d="m16.0722,53.5703a10.7136,10.7136,0,0,0,-10.713,10.713,10.7136,10.7136,0,0,0,10.713,10.713l21.4259,0a10.7136,10.7136,0,0,0,10.713,-10.713,10.7136,10.7136,0,0,0,-10.713,-10.713zm10.713,2.67409a8.03522,8.03523,0,0,1,8.03332,8.03889,8.03522,8.03523,0,0,1,-8.03332,8.03336,8.03522,8.03523,0,0,1,-8.03888,-8.03336,8.03522,8.03523,0,0,1,8.03888,-8.03889z" stroke-width="0.72" fill="white" id="connector0extra2" gorn="0.3.0.0.5.4.0.0" stroke="white"/>
         </g>
        </g>
       </g>
       <circle cy="8.79404" connectorname="GND@2" cx="14.0961" stroke-width="1.57039" fill="white" id="connector1pad2" gorn="0.3.0.0.5.5" r="2.55118" stroke="white"/>
      </g>
     </g>
    </g>
   </g>
  </g>
 </g>
 <g partID="854511862">
  <g transform="translate(25.8575,120.308)">
   <g transform="matrix(1, 0, 0, 1, 0.615231, 1.27105)">
    <g id="copper1">
     <g gorn="0.3.0.0">
      <circle cy="1.70533" connectorname="PWR" cx="6.52411" stroke-width="1.57039" fill="white" id="connector2pad" gorn="0.3.0.0.0" r="2.55118" stroke="white"/>
      <path d="M3.68929,-1.13043A2.83464,2.83465,0,0,0,0.854824,1.70404,2.83464,2.83465,0,0,0,3.68929,4.53997L9.35971,4.53997A2.83464,2.83465,0,0,0,12.1942,1.70404,2.83464,2.83465,0,0,0,9.35971,-1.13043Zm2.85352,0.706054A2.12598,2.12598,0,0,1,8.66828,1.70111,2.12598,2.12598,0,0,1,6.54281,3.8266,2.12598,2.12598,0,0,1,4.41587,1.70111,2.12598,2.12598,0,0,1,6.54281,-0.424381Z" stroke-width="0.72" fill="white" id="connector2extra" gorn="0.3.0.0.1" stroke="white"/>
      <circle cy="15.8982" connectorname="GND@1" cx="6.58983" stroke-width="1.57039" fill="white" id="connector0pad" gorn="0.3.0.0.2" r="2.55118" stroke="white"/>
      <g transform="matrix(0.264583, 0, 0, 0.264583, -0.5625, -1.12932)">
       <g>
        <g>
         <path d="m16.0722,53.5703a10.7136,10.7136,0,0,0,-10.713,10.713,10.7136,10.7136,0,0,0,10.713,10.713l21.4259,0a10.7136,10.7136,0,0,0,10.713,-10.713,10.7136,10.7136,0,0,0,-10.713,-10.713zm10.713,2.70731A8.03522,8.03523,0,0,1,34.8185,64.311,8.03522,8.03523,0,0,1,26.7852,72.3498,8.03522,8.03523,0,0,1,18.7463,64.311,8.03522,8.03523,0,0,1,26.7852,56.2776Z" stroke-width="0.72" fill="white" id="connector0extra" gorn="0.3.0.0.3.0.0" stroke="white"/>
        </g>
       </g>
      </g>
      <circle cy="8.79404" connectorname="GND@2" cx="14.0961" stroke-width="1.57039" fill="white" id="connector1pad" gorn="0.3.0.0.4" r="2.55118" stroke="white"/>
      <g id="copper0" gorn="0.3.0.0.5">
       <path d="m3.68929,-1.13043a2.83464,2.83465,0,0,0,-2.83447,2.83447,2.83464,2.83465,0,0,0,2.83447,2.83595l5.67039,0a2.83464,2.83465,0,0,0,2.83447,-2.83595,2.83464,2.83465,0,0,0,-2.83447,-2.83447zm2.85352,0.706054a2.12598,2.12598,0,0,1,2.12549,2.12549,2.12598,2.12598,0,0,1,-2.12549,2.12549,2.12598,2.12598,0,0,1,-2.12695,-2.12549,2.12598,2.12598,0,0,1,2.12695,-2.12549z" stroke-width="0.72" fill="white" id="path1831" gorn="0.3.0.0.5.0" stroke="white"/>
       <path d="m3.68929,-1.13043a2.83464,2.83465,0,0,0,-2.83447,2.83447,2.83464,2.83465,0,0,0,2.83447,2.83595l5.67042,0a2.83464,2.83465,0,0,0,2.83447,-2.83595,2.83464,2.83465,0,0,0,-2.83447,-2.83447zm2.85352,0.706054a2.12598,2.12598,0,0,1,2.12549,2.12549,2.12598,2.12598,0,0,1,-2.12549,2.12549,2.12598,2.12598,0,0,1,-2.12695,-2.12549,2.12598,2.12598,0,0,1,2.12695,-2.12549z" stroke-width="0.72" fill="white" id="connector2extra2" gorn="0.3.0.0.5.1" stroke="white"/>
       <circle cy="1.70533" connectorname="PWR" cx="6.52411" stroke-width="1.57039" fill="white" id="connector2pad2" gorn="0.3.0.0.5.2" r="2.55118" stroke="white"/>
       <circle cy="15.8786" connectorname="GND@1" cx="6.52411" stroke-width="1.57039" fill="white" id="connector0pad2" gorn="0.3.0.0.5.3" r="2.55118" stroke="white"/>
       <g transform="matrix(0.264583, 0, 0, 0.264583, -0.5625, -1.12932)">
        <g>
         <g>
          <path d="m16.0722,53.5703a10.7136,10.7136,0,0,0,-10.713,10.713,10.7136,10.7136,0,0,0,10.713,10.713l21.4259,0a10.7136,10.7136,0,0,0,10.713,-10.713,10.7136,10.7136,0,0,0,-10.713,-10.713zm10.713,2.67409a8.03522,8.03523,0,0,1,8.03332,8.03889,8.03522,8.03523,0,0,1,-8.03332,8.03336,8.03522,8.03523,0,0,1,-8.03888,-8.03336,8.03522,8.03523,0,0,1,8.03888,-8.03889z" stroke-width="0.72" fill="white" id="connector0extra2" gorn="0.3.0.0.5.4.0.0" stroke="white"/>
         </g>
        </g>
       </g>
       <circle cy="8.79404" connectorname="GND@2" cx="14.0961" stroke-width="1.57039" fill="white" id="connector1pad2" gorn="0.3.0.0.5.5" r="2.55118" stroke="white"/>
      </g>
     </g>
    </g>
   </g>
  </g>
 </g>
 <g partID="854422621">
  <g transform="translate(1.37504,1.7808)">
   <g id="copper1">
    <circle cy="7.97796" cx="7.97796" stroke-width="3.55465" fill="white" id="nonconn0" r="4.96063" stroke="white"/>
   </g>
  </g>
 </g>
 <g partID="854422601">
  <g transform="translate(1.37504,139.261)">
   <g id="copper1">
    <circle cy="7.97796" cx="7.97796" stroke-width="3.55465" fill="white" id="nonconn0" r="4.96063" stroke="white"/>
   </g>
  </g>
 </g>
 <g partID="854422361">
  <g transform="translate(209.722,139.261)">
   <g id="copper1">
    <circle cy="7.97796" cx="7.97796" stroke-width="3.55465" fill="white" id="nonconn0" r="4.96063" stroke="white"/>
   </g>
  </g>
 </g>
 <g partID="854422071">
  <g transform="translate(209.722,1.7808)">
   <g id="copper1">
    <circle cy="7.97796" cx="7.97796" stroke-width="3.55465" fill="white" id="nonconn0" r="4.96063" stroke="white"/>
   </g>
  </g>
 </g>
 <g partID="854384612">
  <g transform="translate(14.7728,64.8075)">
   <g id="copper1">
    <g id="copper0">
     <rect y="12.168" width="4.464" stroke-width="2.16" fill="white" height="4.464" x="6.408" stroke="white"/>
     <circle cy="14.4" cx="8.64" stroke-width="2.16" fill="white" id="connector0pad" r="2.232" stroke="white"/>
     <circle cy="14.4" cx="15.84" stroke-width="2.16" fill="white" id="connector1pad" r="2.232" stroke="white"/>
     <circle cy="14.4" cx="23.04" stroke-width="2.16" fill="white" id="connector2pad" r="2.232" stroke="white"/>
    </g>
   </g>
  </g>
 </g>
 <g partID="854384892">
  <g transform="translate(155.087,64.8075)">
   <g id="copper1">
    <g id="copper0">
     <rect y="12.168" width="4.464" stroke-width="2.16" fill="white" height="4.464" x="6.408" stroke="white"/>
     <circle cy="14.4" cx="8.64" stroke-width="2.16" fill="white" id="connector0pad" r="2.232" stroke="white"/>
     <circle cy="14.4" cx="15.84" stroke-width="2.16" fill="white" id="connector1pad" r="2.232" stroke="white"/>
     <circle cy="14.4" cx="23.04" stroke-width="2.16" fill="white" id="connector2pad" r="2.232" stroke="white"/>
    </g>
   </g>
  </g>
 </g>
 <g partID="854385172">
  <g transform="translate(61.5442,64.8075)">
   <g id="copper1">
    <g id="copper0">
     <rect y="12.168" width="4.464" stroke-width="2.16" fill="white" height="4.464" x="6.408" stroke="white"/>
     <circle cy="14.4" cx="8.64" stroke-width="2.16" fill="white" id="connector0pad" r="2.232" stroke="white"/>
     <circle cy="14.4" cx="15.84" stroke-width="2.16" fill="white" id="connector1pad" r="2.232" stroke="white"/>
     <circle cy="14.4" cx="23.04" stroke-width="2.16" fill="white" id="connector2pad" r="2.232" stroke="white"/>
    </g>
   </g>
  </g>
 </g>
 <g partID="854385452">
  <g transform="translate(108.316,64.8075)">
   <g id="copper1">
    <g id="copper0">
     <rect y="12.168" width="4.464" stroke-width="2.16" fill="white" height="4.464" x="6.408" stroke="white"/>
     <circle cy="14.4" cx="8.64" stroke-width="2.16" fill="white" id="connector0pad" r="2.232" stroke="white"/>
     <circle cy="14.4" cx="15.84" stroke-width="2.16" fill="white" id="connector1pad" r="2.232" stroke="white"/>
     <circle cy="14.4" cx="23.04" stroke-width="2.16" fill="white" id="connector2pad" r="2.232" stroke="white"/>
    </g>
   </g>
  </g>
 </g>
 <g partID="854134042">
  <g transform="translate(13.2861,94.5365)">
   <g id="copper1">
    <!-- <rect width="55" x="10" y="15.5" fill="none" height="55" stroke="rgb(255, 191, 0)" stroke-width="20" />  -->
    <circle cy="3.096" cx="2.7" stroke-width="2.16" fill="white" id="connector0pin" r="1.98" stroke="white"/>
    <circle cy="3.096" cx="31.5" stroke-width="2.16" fill="white" id="connector1pin" r="1.98" stroke="white"/>
   </g>
  </g>
 </g>
 <g partID="854133742">
  <g transform="translate(155.019,94.5365)">
   <g id="copper1">
    <!-- <rect width="55" x="10" y="15.5" fill="none" height="55" stroke="rgb(255, 191, 0)" stroke-width="20" />  -->
    <circle cy="3.096" cx="2.7" stroke-width="2.16" fill="white" id="connector0pin" r="1.98" stroke="white"/>
    <circle cy="3.096" cx="31.5" stroke-width="2.16" fill="white" id="connector1pin" r="1.98" stroke="white"/>
   </g>
  </g>
 </g>
 <g partID="854133452">
  <g transform="translate(60.0578,94.5365)">
   <g id="copper1">
    <!-- <rect width="55" x="10" y="15.5" fill="none" height="55" stroke="rgb(255, 191, 0)" stroke-width="20" />  -->
    <circle cy="3.096" cx="2.7" stroke-width="2.16" fill="white" id="connector0pin" r="1.98" stroke="white"/>
    <circle cy="3.096" cx="31.5" stroke-width="2.16" fill="white" id="connector1pin" r="1.98" stroke="white"/>
   </g>
  </g>
 </g>
 <g partID="854133202">
  <g transform="translate(111.081,94.5365)">
   <g id="copper1">
    <!-- <rect width="55" x="10" y="15.5" fill="none" height="55" stroke="rgb(255, 191, 0)" stroke-width="20" />  -->
    <circle cy="3.096" cx="2.7" stroke-width="2.16" fill="white" id="connector0pin" r="1.98" stroke="white"/>
    <circle cy="3.096" cx="31.5" stroke-width="2.16" fill="white" id="connector1pin" r="1.98" stroke="white"/>
   </g>
  </g>
 </g>
 <g partID="198051">
  <g transform="translate(195.297,19.5583)">
   <g transform="matrix(-1,0,0,-1,0,0)">
    <g transform="matrix(1, 0, 0, 1, -21.472, -3.00704)">
     <g id="copper1">
      <g gorn="0.3.0.0">
       <circle cy="12.919" cx="24.185" stroke-width="1.97" fill="white" id="connector0pin" gorn="0.3.0.0.0" r="2.088" stroke="white"/>
       <circle cy="12.919" cx="31.384" stroke-width="1.97" fill="white" id="connector1pin" gorn="0.3.0.0.1" r="2.088" stroke="white"/>
       <circle cy="12.919" cx="38.585" stroke-width="1.97" fill="white" id="connector2pin" gorn="0.3.0.0.2" r="2.088" stroke="white"/>
       <circle cy="12.919" cx="45.784" stroke-width="1.97" fill="white" id="connector3pin" gorn="0.3.0.0.3" r="2.088" stroke="white"/>
       <circle cy="12.919" cx="52.9849" stroke-width="1.97" fill="white" id="connector4pin" gorn="0.3.0.0.4" r="2.088" stroke="white"/>
       <circle cy="12.919" cx="60.1849" stroke-width="1.97" fill="white" id="connector5pin" gorn="0.3.0.0.5" r="2.088" stroke="white"/>
       <circle cy="12.919" cx="67.3839" stroke-width="1.97" fill="white" id="connector6pin" gorn="0.3.0.0.6" r="2.088" stroke="white"/>
       <circle cy="12.919" cx="74.5849" stroke-width="1.97" fill="white" id="connector7pin" gorn="0.3.0.0.7" r="2.088" stroke="white"/>
       <circle cy="12.919" cx="81.7839" stroke-width="1.97" fill="white" id="connector8pin" gorn="0.3.0.0.8" r="2.088" stroke="white"/>
       <circle cy="12.919" cx="88.9849" stroke-width="1.97" fill="white" id="connector9pin" gorn="0.3.0.0.9" r="2.088" stroke="white"/>
       <circle cy="12.919" cx="96.1849" stroke-width="1.97" fill="white" id="connector10pin" gorn="0.3.0.0.10" r="2.088" stroke="white"/>
       <circle cy="12.919" cx="103.385" stroke-width="1.97" fill="white" id="connector11pin" gorn="0.3.0.0.11" r="2.088" stroke="white"/>
       <circle cy="12.919" cx="110.585" stroke-width="1.97" fill="white" id="connector12pin" gorn="0.3.0.0.12" r="2.088" stroke="white"/>
       <circle cy="12.919" cx="117.784" stroke-width="1.97" fill="white" id="connector13pin" gorn="0.3.0.0.13" r="2.088" stroke="white"/>
       <circle cy="12.919" cx="124.986" stroke-width="1.97" fill="white" id="connector14pin" gorn="0.3.0.0.14" r="2.088" stroke="white"/>
       <circle cy="12.919" cx="132.185" stroke-width="1.97" fill="white" id="connector15pin" gorn="0.3.0.0.15" r="2.088" stroke="white"/>
       <circle cy="12.919" cx="139.385" stroke-width="1.97" fill="white" id="connector16pin" gorn="0.3.0.0.16" r="2.088" stroke="white"/>
       <circle cy="12.919" cx="146.585" stroke-width="1.97" fill="white" id="connector17pin" gorn="0.3.0.0.17" r="2.088" stroke="white"/>
       <circle cy="12.919" cx="153.784" stroke-width="1.97" fill="white" id="connector18pin" gorn="0.3.0.0.18" r="2.088" stroke="white"/>
       <circle cy="12.919" cx="160.986" stroke-width="1.97" fill="white" id="connector19pin" gorn="0.3.0.0.19" r="2.088" stroke="white"/>
       <circle cy="5.72001" cx="160.986" stroke-width="1.97" fill="white" id="connector20pin" gorn="0.3.0.0.20" r="2.088" stroke="white"/>
       <circle cy="5.72001" cx="153.784" stroke-width="1.97" fill="white" id="connector21pin" gorn="0.3.0.0.21" r="2.088" stroke="white"/>
       <circle cy="5.72001" cx="146.585" stroke-width="1.97" fill="white" id="connector22pin" gorn="0.3.0.0.22" r="2.088" stroke="white"/>
       <circle cy="5.72001" cx="139.385" stroke-width="1.97" fill="white" id="connector23pin" gorn="0.3.0.0.23" r="2.088" stroke="white"/>
       <circle cy="5.72001" cx="132.185" stroke-width="1.97" fill="white" id="connector24pin" gorn="0.3.0.0.24" r="2.088" stroke="white"/>
       <circle cy="5.72001" cx="124.986" stroke-width="1.97" fill="white" id="connector25pin" gorn="0.3.0.0.25" r="2.088" stroke="white"/>
       <circle cy="5.72001" cx="117.784" stroke-width="1.97" fill="white" id="connector26pin" gorn="0.3.0.0.26" r="2.088" stroke="white"/>
       <circle cy="5.72001" cx="110.585" stroke-width="1.97" fill="white" id="connector27pin" gorn="0.3.0.0.27" r="2.088" stroke="white"/>
       <circle cy="5.72001" cx="103.385" stroke-width="1.97" fill="white" id="connector28pin" gorn="0.3.0.0.28" r="2.088" stroke="white"/>
       <circle cy="5.72001" cx="96.1849" stroke-width="1.97" fill="white" id="connector29pin" gorn="0.3.0.0.29" r="2.088" stroke="white"/>
       <circle cy="5.72001" cx="88.9849" stroke-width="1.97" fill="white" id="connector30pin" gorn="0.3.0.0.30" r="2.088" stroke="white"/>
       <circle cy="5.72001" cx="81.7839" stroke-width="1.97" fill="white" id="connector31pin" gorn="0.3.0.0.31" r="2.088" stroke="white"/>
       <circle cy="5.72001" cx="74.5849" stroke-width="1.97" fill="white" id="connector32pin" gorn="0.3.0.0.32" r="2.088" stroke="white"/>
       <circle cy="5.72001" cx="67.3839" stroke-width="1.97" fill="white" id="connector33pin" gorn="0.3.0.0.33" r="2.088" stroke="white"/>
       <circle cy="5.72001" cx="60.1849" stroke-width="1.97" fill="white" id="connector34pin" gorn="0.3.0.0.34" r="2.088" stroke="white"/>
       <circle cy="5.72001" cx="52.9849" stroke-width="1.97" fill="white" id="connector35pin" gorn="0.3.0.0.35" r="2.088" stroke="white"/>
       <circle cy="5.72001" cx="45.784" stroke-width="1.97" fill="white" id="connector36pin" gorn="0.3.0.0.36" r="2.088" stroke="white"/>
       <circle cy="5.72001" cx="38.585" stroke-width="1.97" fill="white" id="connector37pin" gorn="0.3.0.0.37" r="2.088" stroke="white"/>
       <circle cy="5.72001" cx="31.384" stroke-width="1.97" fill="white" id="connector38pin" gorn="0.3.0.0.38" r="2.088" stroke="white"/>
       <circle cy="5.72001" cx="24.185" stroke-width="1.97" fill="white" id="connector39pin" gorn="0.3.0.0.39" r="2.088" stroke="white"/>
      </g>
     </g>
    </g>
   </g>
  </g>
 </g>
 <g partID="337482">
  <g transform="translate(202.738,38.7345)">
   <g id="copper1">
    <g id="copper0">
     <circle cy="5.04" cx="5.04" stroke-width="2.16" fill="white" id="connector0pin" r="2.088" stroke="white"/>
     <circle cy="12.24" cx="5.04" stroke-width="2.16" fill="white" id="connector1pin" r="2.088" stroke="white"/>
     <circle cy="19.44" cx="5.04" stroke-width="2.16" fill="white" id="connector2pin" r="2.088" stroke="white"/>
     <circle cy="26.64" cx="5.04" stroke-width="2.16" fill="white" id="connector3pin" r="2.088" stroke="white"/>
     <circle cy="33.84" cx="5.04" stroke-width="2.16" fill="white" id="connector4pin" r="2.088" stroke="white"/>
    </g>
   </g>
  </g>
 </g>
</svg>
