G04 MADE WITH FRITZING*
G04 WWW.FRITZING.ORG*
G04 DOUBLE SIDED*
G04 HOLES PLATED*
G04 CONTOUR ON CENTER OF CONTOUR VECTOR*
%ASAXBY*%
%FSLAX23Y23*%
%MOIN*%
%OFA0B0*%
%SFA1.0B1.0*%
%ADD10C,0.039370*%
%ADD11C,0.086614*%
%ADD12C,0.082677*%
%ADD13C,0.082000*%
%ADD14C,0.075000*%
%ADD15C,0.075361*%
%ADD16C,0.078000*%
%ADD17C,0.074000*%
%ADD18R,0.082000X0.082000*%
%ADD19C,0.024000*%
%ADD20R,0.001000X0.001000*%
%LNCOPPER1*%
G90*
G70*
G54D10*
X1567Y160D03*
X2844Y1601D03*
X838Y1755D03*
X1529Y1520D03*
X2059Y613D03*
X3025Y1027D03*
X3025Y318D03*
X2925Y789D03*
X1784Y140D03*
X1941Y1519D03*
G54D11*
X2638Y553D03*
X2638Y325D03*
X2827Y435D03*
G54D12*
X2053Y453D03*
X2054Y256D03*
X2158Y355D03*
X2053Y453D03*
X2053Y256D03*
X2158Y355D03*
X1513Y455D03*
X1514Y258D03*
X1619Y357D03*
X1513Y455D03*
X1513Y258D03*
X1619Y357D03*
X990Y453D03*
X991Y256D03*
X1095Y355D03*
X990Y453D03*
X990Y256D03*
X1095Y355D03*
X470Y455D03*
X471Y258D03*
X575Y357D03*
X470Y455D03*
X470Y258D03*
X575Y357D03*
G54D13*
X2272Y1616D03*
X2372Y1616D03*
X2472Y1616D03*
G54D14*
X1508Y1616D03*
X1908Y1616D03*
G54D15*
X2673Y2010D03*
X2573Y2010D03*
X2473Y2010D03*
X2373Y2010D03*
X2273Y2010D03*
X2173Y2010D03*
X2073Y2010D03*
X1973Y2010D03*
X1873Y2010D03*
X1773Y2010D03*
X1673Y2010D03*
X1573Y2010D03*
X1473Y2010D03*
X1373Y2010D03*
X1273Y2010D03*
X1173Y2010D03*
X1073Y2010D03*
X973Y2010D03*
X873Y2010D03*
X773Y2010D03*
X773Y1910D03*
X873Y1910D03*
X973Y1910D03*
X1073Y1910D03*
X1173Y1910D03*
X1273Y1910D03*
X1373Y1910D03*
X1473Y1910D03*
X1573Y1910D03*
X1673Y1910D03*
X1773Y1910D03*
X1873Y1910D03*
X1973Y1910D03*
X2073Y1910D03*
X2173Y1910D03*
X2273Y1910D03*
X2373Y1910D03*
X2473Y1910D03*
X2573Y1910D03*
X2673Y1910D03*
G54D16*
X2965Y1718D03*
X2965Y1618D03*
X2965Y1518D03*
X2965Y1418D03*
X2965Y1318D03*
G54D10*
X662Y1852D03*
X2472Y1715D03*
X1941Y1301D03*
X2275Y1439D03*
G54D17*
X124Y1309D03*
X323Y1309D03*
X724Y1309D03*
X723Y809D03*
X524Y809D03*
X1116Y1303D03*
X1316Y1303D03*
X1716Y1303D03*
X1716Y803D03*
X1516Y803D03*
X2080Y1303D03*
X2280Y1303D03*
X2680Y1303D03*
X2680Y803D03*
X2480Y803D03*
G54D10*
X2926Y179D03*
G54D18*
X2272Y1616D03*
G54D19*
X1565Y168D02*
X1547Y258D01*
D02*
X1527Y258D02*
X1547Y258D01*
D02*
X1544Y258D02*
X1527Y258D01*
D02*
X2846Y1321D02*
X2846Y1498D01*
D02*
X1902Y1735D02*
X1907Y1634D01*
D02*
X2177Y1735D02*
X1902Y1735D01*
D02*
X2174Y1890D02*
X2177Y1735D01*
D02*
X2946Y1319D02*
X2846Y1321D01*
D02*
X2670Y1499D02*
X2673Y1890D01*
D02*
X2846Y1498D02*
X2670Y1499D01*
D02*
X2374Y1518D02*
X1949Y1519D01*
D02*
X1941Y554D02*
X1902Y554D01*
D02*
X2373Y1595D02*
X2374Y1518D01*
D02*
X1902Y258D02*
X2024Y256D01*
D02*
X1902Y554D02*
X1902Y258D01*
D02*
X1784Y147D02*
X1784Y455D01*
D02*
X1784Y455D02*
X1543Y455D01*
D02*
X2844Y1609D02*
X2848Y2128D01*
D02*
X2178Y2128D02*
X2174Y2030D01*
D02*
X2848Y2128D02*
X2178Y2128D01*
D02*
X2472Y1715D02*
X2473Y1890D01*
D02*
X2472Y1637D02*
X2472Y1715D01*
D02*
X2059Y455D02*
X2059Y605D01*
D02*
X1508Y1774D02*
X1508Y1634D01*
D02*
X1272Y1774D02*
X1508Y1774D01*
D02*
X1273Y1890D02*
X1272Y1774D01*
D02*
X839Y1303D02*
X838Y1747D01*
D02*
X744Y1308D02*
X839Y1303D01*
D02*
X3025Y326D02*
X3025Y1019D01*
D02*
X2080Y463D02*
X2059Y455D01*
D02*
X662Y1860D02*
X660Y1990D01*
D02*
X660Y1990D02*
X660Y2128D01*
D02*
X660Y2128D02*
X1075Y2128D01*
D02*
X1075Y2128D02*
X1074Y2030D01*
D02*
X2472Y1707D02*
X2472Y1637D01*
D02*
X1941Y1293D02*
X1941Y554D01*
D02*
X1527Y1439D02*
X2267Y1439D01*
D02*
X1529Y1512D02*
X1527Y1439D01*
D02*
X721Y258D02*
X500Y258D01*
D02*
X723Y789D02*
X721Y258D01*
D02*
X2925Y781D02*
X2926Y187D01*
D02*
X996Y810D02*
X990Y483D01*
D02*
X1705Y573D02*
X1233Y573D01*
D02*
X1233Y573D02*
X1233Y258D01*
D02*
X1233Y258D02*
X1020Y256D01*
D02*
X1496Y803D02*
X996Y810D01*
D02*
X1715Y783D02*
X1705Y573D01*
D02*
X465Y808D02*
X468Y545D01*
D02*
X504Y809D02*
X465Y808D01*
D02*
X468Y545D02*
X469Y485D01*
G54D20*
X424Y494D02*
X517Y494D01*
X1467Y494D02*
X1560Y494D01*
X420Y493D02*
X521Y493D01*
X1463Y493D02*
X1564Y493D01*
X417Y492D02*
X524Y492D01*
X943Y492D02*
X1037Y492D01*
X1460Y492D02*
X1567Y492D01*
X2006Y492D02*
X2100Y492D01*
X415Y491D02*
X526Y491D01*
X939Y491D02*
X1041Y491D01*
X1458Y491D02*
X1569Y491D01*
X2002Y491D02*
X2104Y491D01*
X413Y490D02*
X528Y490D01*
X936Y490D02*
X1044Y490D01*
X1456Y490D02*
X1571Y490D01*
X1999Y490D02*
X2106Y490D01*
X411Y489D02*
X530Y489D01*
X934Y489D02*
X1046Y489D01*
X1454Y489D02*
X1573Y489D01*
X1997Y489D02*
X2109Y489D01*
X409Y488D02*
X531Y488D01*
X932Y488D02*
X1048Y488D01*
X1453Y488D02*
X1575Y488D01*
X1995Y488D02*
X2111Y488D01*
X408Y487D02*
X533Y487D01*
X931Y487D02*
X1050Y487D01*
X1451Y487D02*
X1576Y487D01*
X1993Y487D02*
X2112Y487D01*
X407Y486D02*
X534Y486D01*
X929Y486D02*
X1051Y486D01*
X1450Y486D02*
X1577Y486D01*
X1992Y486D02*
X2114Y486D01*
X406Y485D02*
X535Y485D01*
X928Y485D02*
X1053Y485D01*
X1449Y485D02*
X1578Y485D01*
X1990Y485D02*
X2115Y485D01*
X405Y484D02*
X463Y484D01*
X479Y484D02*
X536Y484D01*
X926Y484D02*
X1054Y484D01*
X1448Y484D02*
X1506Y484D01*
X1522Y484D02*
X1579Y484D01*
X1989Y484D02*
X2117Y484D01*
X403Y483D02*
X460Y483D01*
X482Y483D02*
X537Y483D01*
X925Y483D02*
X988Y483D01*
X992Y483D02*
X1055Y483D01*
X1447Y483D02*
X1503Y483D01*
X1525Y483D02*
X1581Y483D01*
X1988Y483D02*
X2051Y483D01*
X2055Y483D02*
X2118Y483D01*
X403Y482D02*
X457Y482D01*
X484Y482D02*
X538Y482D01*
X924Y482D02*
X982Y482D01*
X999Y482D02*
X1056Y482D01*
X1446Y482D02*
X1500Y482D01*
X1527Y482D02*
X1581Y482D01*
X1987Y482D02*
X2045Y482D01*
X2061Y482D02*
X2119Y482D01*
X402Y481D02*
X455Y481D01*
X486Y481D02*
X539Y481D01*
X923Y481D02*
X979Y481D01*
X1002Y481D02*
X1057Y481D01*
X1445Y481D02*
X1499Y481D01*
X1529Y481D02*
X1582Y481D01*
X1986Y481D02*
X2042Y481D01*
X2064Y481D02*
X2120Y481D01*
X401Y480D02*
X454Y480D01*
X488Y480D02*
X540Y480D01*
X922Y480D02*
X977Y480D01*
X1004Y480D02*
X1058Y480D01*
X1444Y480D02*
X1497Y480D01*
X1531Y480D02*
X1583Y480D01*
X1985Y480D02*
X2040Y480D01*
X2067Y480D02*
X2121Y480D01*
X400Y479D02*
X452Y479D01*
X489Y479D02*
X541Y479D01*
X921Y479D02*
X975Y479D01*
X1006Y479D02*
X1059Y479D01*
X1443Y479D02*
X1495Y479D01*
X1532Y479D02*
X1584Y479D01*
X1984Y479D02*
X2038Y479D01*
X2069Y479D02*
X2122Y479D01*
X399Y478D02*
X451Y478D01*
X490Y478D02*
X542Y478D01*
X920Y478D02*
X973Y478D01*
X1007Y478D02*
X1060Y478D01*
X1442Y478D02*
X1494Y478D01*
X1533Y478D02*
X1585Y478D01*
X1983Y478D02*
X2036Y478D01*
X2070Y478D02*
X2123Y478D01*
X399Y477D02*
X450Y477D01*
X491Y477D02*
X542Y477D01*
X920Y477D02*
X972Y477D01*
X1009Y477D02*
X1060Y477D01*
X1442Y477D02*
X1493Y477D01*
X1534Y477D02*
X1585Y477D01*
X1982Y477D02*
X2035Y477D01*
X2072Y477D02*
X2123Y477D01*
X398Y476D02*
X449Y476D01*
X492Y476D02*
X543Y476D01*
X919Y476D02*
X971Y476D01*
X1010Y476D02*
X1061Y476D01*
X1441Y476D02*
X1492Y476D01*
X1535Y476D02*
X1586Y476D01*
X1982Y476D02*
X2033Y476D01*
X2073Y476D02*
X2124Y476D01*
X397Y475D02*
X448Y475D01*
X493Y475D02*
X543Y475D01*
X918Y475D02*
X970Y475D01*
X1011Y475D02*
X1062Y475D01*
X1441Y475D02*
X1491Y475D01*
X1536Y475D02*
X1587Y475D01*
X1981Y475D02*
X2032Y475D01*
X2074Y475D02*
X2125Y475D01*
X397Y474D02*
X447Y474D01*
X494Y474D02*
X544Y474D01*
X918Y474D02*
X969Y474D01*
X1012Y474D02*
X1063Y474D01*
X1440Y474D02*
X1490Y474D01*
X1537Y474D02*
X1587Y474D01*
X1980Y474D02*
X2031Y474D01*
X2075Y474D02*
X2125Y474D01*
X396Y473D02*
X446Y473D01*
X495Y473D02*
X545Y473D01*
X917Y473D02*
X968Y473D01*
X1013Y473D02*
X1063Y473D01*
X1439Y473D02*
X1490Y473D01*
X1538Y473D02*
X1588Y473D01*
X1980Y473D02*
X2030Y473D01*
X2076Y473D02*
X2126Y473D01*
X396Y472D02*
X446Y472D01*
X496Y472D02*
X545Y472D01*
X916Y472D02*
X967Y472D01*
X1014Y472D02*
X1064Y472D01*
X1439Y472D02*
X1489Y472D01*
X1539Y472D02*
X1588Y472D01*
X1979Y472D02*
X2030Y472D01*
X2077Y472D02*
X2126Y472D01*
X395Y471D02*
X445Y471D01*
X496Y471D02*
X545Y471D01*
X916Y471D02*
X966Y471D01*
X1015Y471D02*
X1064Y471D01*
X1439Y471D02*
X1488Y471D01*
X1539Y471D02*
X1589Y471D01*
X1979Y471D02*
X2029Y471D01*
X2077Y471D02*
X2127Y471D01*
X395Y470D02*
X445Y470D01*
X497Y470D02*
X546Y470D01*
X916Y470D02*
X965Y470D01*
X1015Y470D02*
X1065Y470D01*
X1438Y470D02*
X1488Y470D01*
X1540Y470D02*
X1589Y470D01*
X1978Y470D02*
X2028Y470D01*
X2078Y470D02*
X2127Y470D01*
X395Y469D02*
X444Y469D01*
X497Y469D02*
X546Y469D01*
X915Y469D02*
X965Y469D01*
X1016Y469D02*
X1065Y469D01*
X1438Y469D02*
X1487Y469D01*
X1541Y469D02*
X1589Y469D01*
X1978Y469D02*
X2027Y469D01*
X2079Y469D02*
X2128Y469D01*
X394Y468D02*
X443Y468D01*
X498Y468D02*
X547Y468D01*
X915Y468D02*
X964Y468D01*
X1017Y468D02*
X1066Y468D01*
X1437Y468D02*
X1487Y468D01*
X1541Y468D02*
X1590Y468D01*
X1977Y468D02*
X2027Y468D01*
X2079Y468D02*
X2128Y468D01*
X394Y467D02*
X443Y467D01*
X498Y467D02*
X547Y467D01*
X914Y467D02*
X964Y467D01*
X1017Y467D02*
X1066Y467D01*
X1437Y467D02*
X1486Y467D01*
X1541Y467D02*
X1590Y467D01*
X1977Y467D02*
X2026Y467D01*
X2080Y467D02*
X2129Y467D01*
X394Y466D02*
X443Y466D01*
X499Y466D02*
X547Y466D01*
X914Y466D02*
X963Y466D01*
X1018Y466D02*
X1066Y466D01*
X1437Y466D02*
X1486Y466D01*
X1542Y466D02*
X1590Y466D01*
X1977Y466D02*
X2026Y466D01*
X2080Y466D02*
X2129Y466D01*
X393Y465D02*
X442Y465D01*
X499Y465D02*
X547Y465D01*
X914Y465D02*
X963Y465D01*
X1018Y465D02*
X1067Y465D01*
X1437Y465D02*
X1485Y465D01*
X1542Y465D02*
X1591Y465D01*
X1976Y465D02*
X2025Y465D01*
X2081Y465D02*
X2129Y465D01*
X393Y464D02*
X442Y464D01*
X499Y464D02*
X548Y464D01*
X913Y464D02*
X962Y464D01*
X1018Y464D02*
X1067Y464D01*
X1436Y464D02*
X1485Y464D01*
X1543Y464D02*
X1591Y464D01*
X1976Y464D02*
X2025Y464D01*
X2081Y464D02*
X2130Y464D01*
X393Y463D02*
X442Y463D01*
X500Y463D02*
X548Y463D01*
X913Y463D02*
X962Y463D01*
X1019Y463D02*
X1067Y463D01*
X1436Y463D02*
X1485Y463D01*
X1543Y463D02*
X1591Y463D01*
X1976Y463D02*
X2025Y463D01*
X2082Y463D02*
X2130Y463D01*
X393Y462D02*
X441Y462D01*
X500Y462D02*
X548Y462D01*
X913Y462D02*
X962Y462D01*
X1019Y462D02*
X1067Y462D01*
X1436Y462D02*
X1485Y462D01*
X1543Y462D02*
X1591Y462D01*
X1976Y462D02*
X2024Y462D01*
X2082Y462D02*
X2130Y462D01*
X393Y461D02*
X441Y461D01*
X500Y461D02*
X548Y461D01*
X913Y461D02*
X961Y461D01*
X1019Y461D02*
X1068Y461D01*
X1436Y461D02*
X1484Y461D01*
X1543Y461D02*
X1591Y461D01*
X1975Y461D02*
X2024Y461D01*
X2082Y461D02*
X2130Y461D01*
X393Y460D02*
X441Y460D01*
X500Y460D02*
X548Y460D01*
X912Y460D02*
X961Y460D01*
X1020Y460D02*
X1068Y460D01*
X1436Y460D02*
X1484Y460D01*
X1543Y460D02*
X1591Y460D01*
X1975Y460D02*
X2024Y460D01*
X2082Y460D02*
X2131Y460D01*
X392Y459D02*
X441Y459D01*
X500Y459D02*
X549Y459D01*
X912Y459D02*
X961Y459D01*
X1020Y459D02*
X1068Y459D01*
X1435Y459D02*
X1484Y459D01*
X1544Y459D02*
X1592Y459D01*
X1975Y459D02*
X2024Y459D01*
X2083Y459D02*
X2131Y459D01*
X392Y458D02*
X441Y458D01*
X501Y458D02*
X549Y458D01*
X912Y458D02*
X961Y458D01*
X1020Y458D02*
X1068Y458D01*
X1435Y458D02*
X1484Y458D01*
X1544Y458D02*
X1592Y458D01*
X1975Y458D02*
X2023Y458D01*
X2083Y458D02*
X2131Y458D01*
X392Y457D02*
X441Y457D01*
X501Y457D02*
X549Y457D01*
X912Y457D02*
X961Y457D01*
X1020Y457D02*
X1068Y457D01*
X1435Y457D02*
X1484Y457D01*
X1544Y457D02*
X1592Y457D01*
X1975Y457D02*
X2023Y457D01*
X2083Y457D02*
X2131Y457D01*
X392Y456D02*
X441Y456D01*
X501Y456D02*
X549Y456D01*
X912Y456D02*
X960Y456D01*
X1020Y456D02*
X1068Y456D01*
X1435Y456D02*
X1484Y456D01*
X1544Y456D02*
X1592Y456D01*
X1975Y456D02*
X2023Y456D01*
X2083Y456D02*
X2131Y456D01*
X392Y455D02*
X441Y455D01*
X501Y455D02*
X549Y455D01*
X912Y455D02*
X960Y455D01*
X1020Y455D02*
X1068Y455D01*
X1435Y455D02*
X1484Y455D01*
X1544Y455D02*
X1592Y455D01*
X1975Y455D02*
X2023Y455D01*
X2083Y455D02*
X2131Y455D01*
X392Y454D02*
X441Y454D01*
X501Y454D02*
X549Y454D01*
X912Y454D02*
X960Y454D01*
X1020Y454D02*
X1068Y454D01*
X1435Y454D02*
X1484Y454D01*
X1544Y454D02*
X1592Y454D01*
X1975Y454D02*
X2023Y454D01*
X2083Y454D02*
X2131Y454D01*
X392Y453D02*
X441Y453D01*
X501Y453D02*
X549Y453D01*
X912Y453D02*
X960Y453D01*
X1020Y453D02*
X1068Y453D01*
X1435Y453D02*
X1484Y453D01*
X1544Y453D02*
X1592Y453D01*
X1975Y453D02*
X2023Y453D01*
X2083Y453D02*
X2131Y453D01*
X392Y452D02*
X441Y452D01*
X500Y452D02*
X549Y452D01*
X912Y452D02*
X960Y452D01*
X1020Y452D02*
X1068Y452D01*
X1435Y452D02*
X1484Y452D01*
X1544Y452D02*
X1592Y452D01*
X1975Y452D02*
X2023Y452D01*
X2083Y452D02*
X2131Y452D01*
X392Y451D02*
X441Y451D01*
X500Y451D02*
X548Y451D01*
X912Y451D02*
X960Y451D01*
X1020Y451D02*
X1068Y451D01*
X1436Y451D02*
X1484Y451D01*
X1543Y451D02*
X1592Y451D01*
X1975Y451D02*
X2023Y451D01*
X2083Y451D02*
X2131Y451D01*
X393Y450D02*
X441Y450D01*
X500Y450D02*
X548Y450D01*
X912Y450D02*
X961Y450D01*
X1020Y450D02*
X1068Y450D01*
X1436Y450D02*
X1484Y450D01*
X1543Y450D02*
X1591Y450D01*
X1975Y450D02*
X2023Y450D01*
X2083Y450D02*
X2131Y450D01*
X393Y449D02*
X441Y449D01*
X500Y449D02*
X548Y449D01*
X912Y449D02*
X961Y449D01*
X1020Y449D02*
X1068Y449D01*
X1436Y449D02*
X1485Y449D01*
X1543Y449D02*
X1591Y449D01*
X1975Y449D02*
X2023Y449D01*
X2083Y449D02*
X2131Y449D01*
X393Y448D02*
X442Y448D01*
X500Y448D02*
X548Y448D01*
X912Y448D02*
X961Y448D01*
X1020Y448D02*
X1068Y448D01*
X1436Y448D02*
X1485Y448D01*
X1543Y448D02*
X1591Y448D01*
X1975Y448D02*
X2024Y448D01*
X2083Y448D02*
X2131Y448D01*
X393Y447D02*
X442Y447D01*
X499Y447D02*
X548Y447D01*
X912Y447D02*
X961Y447D01*
X1020Y447D02*
X1068Y447D01*
X1436Y447D02*
X1485Y447D01*
X1543Y447D02*
X1591Y447D01*
X1975Y447D02*
X2024Y447D01*
X2082Y447D02*
X2131Y447D01*
X393Y446D02*
X442Y446D01*
X499Y446D02*
X548Y446D01*
X913Y446D02*
X961Y446D01*
X1019Y446D02*
X1068Y446D01*
X1436Y446D02*
X1485Y446D01*
X1542Y446D02*
X1591Y446D01*
X1975Y446D02*
X2024Y446D01*
X2082Y446D02*
X2130Y446D01*
X394Y445D02*
X443Y445D01*
X499Y445D02*
X547Y445D01*
X913Y445D02*
X962Y445D01*
X1019Y445D02*
X1067Y445D01*
X1437Y445D02*
X1486Y445D01*
X1542Y445D02*
X1590Y445D01*
X1976Y445D02*
X2024Y445D01*
X2082Y445D02*
X2130Y445D01*
X394Y444D02*
X443Y444D01*
X498Y444D02*
X547Y444D01*
X913Y444D02*
X962Y444D01*
X1019Y444D02*
X1067Y444D01*
X1437Y444D02*
X1486Y444D01*
X1541Y444D02*
X1590Y444D01*
X1976Y444D02*
X2025Y444D01*
X2082Y444D02*
X2130Y444D01*
X394Y443D02*
X443Y443D01*
X498Y443D02*
X547Y443D01*
X913Y443D02*
X962Y443D01*
X1018Y443D02*
X1067Y443D01*
X1437Y443D02*
X1487Y443D01*
X1541Y443D02*
X1590Y443D01*
X1976Y443D02*
X2025Y443D01*
X2081Y443D02*
X2130Y443D01*
X395Y442D02*
X444Y442D01*
X497Y442D02*
X546Y442D01*
X914Y442D02*
X963Y442D01*
X1018Y442D02*
X1067Y442D01*
X1438Y442D02*
X1487Y442D01*
X1541Y442D02*
X1589Y442D01*
X1976Y442D02*
X2025Y442D01*
X2081Y442D02*
X2129Y442D01*
X395Y441D02*
X444Y441D01*
X497Y441D02*
X546Y441D01*
X914Y441D02*
X963Y441D01*
X1018Y441D02*
X1066Y441D01*
X1438Y441D02*
X1488Y441D01*
X1540Y441D02*
X1589Y441D01*
X1977Y441D02*
X2026Y441D01*
X2080Y441D02*
X2129Y441D01*
X395Y440D02*
X445Y440D01*
X496Y440D02*
X546Y440D01*
X914Y440D02*
X964Y440D01*
X1017Y440D02*
X1066Y440D01*
X1438Y440D02*
X1488Y440D01*
X1539Y440D02*
X1589Y440D01*
X1977Y440D02*
X2026Y440D01*
X2080Y440D02*
X2129Y440D01*
X396Y439D02*
X446Y439D01*
X496Y439D02*
X545Y439D01*
X915Y439D02*
X964Y439D01*
X1017Y439D02*
X1066Y439D01*
X1439Y439D02*
X1489Y439D01*
X1539Y439D02*
X1588Y439D01*
X1977Y439D02*
X2027Y439D01*
X2079Y439D02*
X2128Y439D01*
X396Y438D02*
X446Y438D01*
X495Y438D02*
X545Y438D01*
X915Y438D02*
X965Y438D01*
X1016Y438D02*
X1065Y438D01*
X1439Y438D02*
X1490Y438D01*
X1538Y438D02*
X1588Y438D01*
X1978Y438D02*
X2028Y438D01*
X2079Y438D02*
X2128Y438D01*
X397Y437D02*
X447Y437D01*
X494Y437D02*
X544Y437D01*
X916Y437D02*
X965Y437D01*
X1015Y437D02*
X1065Y437D01*
X1440Y437D02*
X1490Y437D01*
X1537Y437D02*
X1587Y437D01*
X1978Y437D02*
X2028Y437D01*
X2078Y437D02*
X2127Y437D01*
X397Y436D02*
X448Y436D01*
X493Y436D02*
X544Y436D01*
X916Y436D02*
X966Y436D01*
X1015Y436D02*
X1064Y436D01*
X1440Y436D02*
X1491Y436D01*
X1536Y436D02*
X1587Y436D01*
X1979Y436D02*
X2029Y436D01*
X2077Y436D02*
X2127Y436D01*
X398Y435D02*
X449Y435D01*
X492Y435D02*
X543Y435D01*
X916Y435D02*
X967Y435D01*
X1014Y435D02*
X1064Y435D01*
X1441Y435D02*
X1492Y435D01*
X1536Y435D02*
X1586Y435D01*
X1979Y435D02*
X2030Y435D01*
X2077Y435D02*
X2126Y435D01*
X399Y434D02*
X450Y434D01*
X491Y434D02*
X542Y434D01*
X917Y434D02*
X968Y434D01*
X1013Y434D02*
X1063Y434D01*
X1442Y434D02*
X1493Y434D01*
X1534Y434D02*
X1585Y434D01*
X1980Y434D02*
X2031Y434D01*
X2076Y434D02*
X2126Y434D01*
X399Y433D02*
X451Y433D01*
X490Y433D02*
X542Y433D01*
X918Y433D02*
X969Y433D01*
X1012Y433D02*
X1063Y433D01*
X1442Y433D02*
X1494Y433D01*
X1533Y433D02*
X1585Y433D01*
X1980Y433D02*
X2031Y433D01*
X2075Y433D02*
X2125Y433D01*
X400Y432D02*
X452Y432D01*
X489Y432D02*
X541Y432D01*
X918Y432D02*
X970Y432D01*
X1011Y432D02*
X1062Y432D01*
X1443Y432D02*
X1495Y432D01*
X1532Y432D02*
X1584Y432D01*
X1981Y432D02*
X2033Y432D01*
X2074Y432D02*
X2125Y432D01*
X401Y431D02*
X454Y431D01*
X488Y431D02*
X540Y431D01*
X919Y431D02*
X971Y431D01*
X1010Y431D02*
X1061Y431D01*
X1444Y431D02*
X1497Y431D01*
X1531Y431D02*
X1583Y431D01*
X1982Y431D02*
X2034Y431D01*
X2073Y431D02*
X2124Y431D01*
X402Y430D02*
X455Y430D01*
X486Y430D02*
X539Y430D01*
X920Y430D02*
X972Y430D01*
X1009Y430D02*
X1060Y430D01*
X1445Y430D02*
X1498Y430D01*
X1529Y430D02*
X1582Y430D01*
X1982Y430D02*
X2035Y430D01*
X2071Y430D02*
X2123Y430D01*
X402Y429D02*
X457Y429D01*
X484Y429D02*
X538Y429D01*
X920Y429D02*
X973Y429D01*
X1007Y429D02*
X1060Y429D01*
X1446Y429D02*
X1500Y429D01*
X1527Y429D02*
X1582Y429D01*
X1983Y429D02*
X2036Y429D01*
X2070Y429D02*
X2123Y429D01*
X403Y428D02*
X459Y428D01*
X482Y428D02*
X538Y428D01*
X921Y428D02*
X975Y428D01*
X1006Y428D02*
X1059Y428D01*
X1446Y428D02*
X1503Y428D01*
X1525Y428D02*
X1581Y428D01*
X1984Y428D02*
X2038Y428D01*
X2068Y428D02*
X2122Y428D01*
X404Y427D02*
X463Y427D01*
X479Y427D02*
X536Y427D01*
X922Y427D02*
X977Y427D01*
X1004Y427D02*
X1058Y427D01*
X1447Y427D02*
X1506Y427D01*
X1522Y427D02*
X1580Y427D01*
X1985Y427D02*
X2040Y427D01*
X2066Y427D02*
X2121Y427D01*
X405Y426D02*
X470Y426D01*
X472Y426D02*
X535Y426D01*
X923Y426D02*
X979Y426D01*
X1001Y426D02*
X1057Y426D01*
X1449Y426D02*
X1513Y426D01*
X1515Y426D02*
X1579Y426D01*
X1986Y426D02*
X2042Y426D01*
X2064Y426D02*
X2120Y426D01*
X407Y425D02*
X534Y425D01*
X924Y425D02*
X983Y425D01*
X998Y425D02*
X1056Y425D01*
X1450Y425D02*
X1577Y425D01*
X1987Y425D02*
X2045Y425D01*
X2061Y425D02*
X2119Y425D01*
X408Y424D02*
X533Y424D01*
X925Y424D02*
X1055Y424D01*
X1451Y424D02*
X1576Y424D01*
X1988Y424D02*
X2118Y424D01*
X409Y423D02*
X532Y423D01*
X926Y423D02*
X1054Y423D01*
X1452Y423D02*
X1575Y423D01*
X1989Y423D02*
X2117Y423D01*
X411Y422D02*
X530Y422D01*
X928Y422D02*
X1053Y422D01*
X1454Y422D02*
X1573Y422D01*
X1990Y422D02*
X2115Y422D01*
X413Y421D02*
X528Y421D01*
X929Y421D02*
X1051Y421D01*
X1456Y421D02*
X1571Y421D01*
X1992Y421D02*
X2114Y421D01*
X415Y420D02*
X526Y420D01*
X931Y420D02*
X1050Y420D01*
X1458Y420D02*
X1569Y420D01*
X1993Y420D02*
X2112Y420D01*
X417Y419D02*
X524Y419D01*
X932Y419D02*
X1048Y419D01*
X1460Y419D02*
X1567Y419D01*
X1995Y419D02*
X2111Y419D01*
X419Y418D02*
X521Y418D01*
X934Y418D02*
X1046Y418D01*
X1463Y418D02*
X1565Y418D01*
X1997Y418D02*
X2109Y418D01*
X423Y417D02*
X518Y417D01*
X937Y417D02*
X1044Y417D01*
X1466Y417D02*
X1561Y417D01*
X1999Y417D02*
X2106Y417D01*
X939Y416D02*
X1041Y416D01*
X2002Y416D02*
X2104Y416D01*
X943Y415D02*
X1037Y415D01*
X2006Y415D02*
X2100Y415D01*
X423Y297D02*
X518Y297D01*
X1466Y297D02*
X1561Y297D01*
X419Y296D02*
X522Y296D01*
X951Y296D02*
X1030Y296D01*
X1462Y296D02*
X1565Y296D01*
X2013Y296D02*
X2092Y296D01*
X417Y295D02*
X524Y295D01*
X942Y295D02*
X1038Y295D01*
X1460Y295D02*
X1567Y295D01*
X2005Y295D02*
X2101Y295D01*
X414Y294D02*
X526Y294D01*
X939Y294D02*
X1041Y294D01*
X1458Y294D02*
X1570Y294D01*
X2002Y294D02*
X2104Y294D01*
X412Y293D02*
X528Y293D01*
X936Y293D02*
X1044Y293D01*
X1456Y293D02*
X1572Y293D01*
X1999Y293D02*
X2107Y293D01*
X411Y292D02*
X530Y292D01*
X934Y292D02*
X1046Y292D01*
X1454Y292D02*
X1573Y292D01*
X1997Y292D02*
X2109Y292D01*
X409Y291D02*
X532Y291D01*
X932Y291D02*
X1048Y291D01*
X1452Y291D02*
X1575Y291D01*
X1995Y291D02*
X2111Y291D01*
X408Y290D02*
X533Y290D01*
X930Y290D02*
X1050Y290D01*
X1451Y290D02*
X1576Y290D01*
X1993Y290D02*
X2113Y290D01*
X407Y289D02*
X534Y289D01*
X929Y289D02*
X1051Y289D01*
X1450Y289D02*
X1577Y289D01*
X1992Y289D02*
X2114Y289D01*
X405Y288D02*
X535Y288D01*
X927Y288D02*
X1053Y288D01*
X1449Y288D02*
X1579Y288D01*
X1990Y288D02*
X2115Y288D01*
X404Y287D02*
X462Y287D01*
X479Y287D02*
X537Y287D01*
X926Y287D02*
X1054Y287D01*
X1447Y287D02*
X1505Y287D01*
X1522Y287D02*
X1580Y287D01*
X1989Y287D02*
X2117Y287D01*
X403Y286D02*
X459Y286D01*
X482Y286D02*
X538Y286D01*
X925Y286D02*
X988Y286D01*
X992Y286D02*
X1055Y286D01*
X1446Y286D02*
X1502Y286D01*
X1525Y286D02*
X1581Y286D01*
X1988Y286D02*
X2051Y286D01*
X2055Y286D02*
X2118Y286D01*
X402Y285D02*
X457Y285D01*
X484Y285D02*
X538Y285D01*
X924Y285D02*
X982Y285D01*
X998Y285D02*
X1056Y285D01*
X1446Y285D02*
X1500Y285D01*
X1527Y285D02*
X1582Y285D01*
X1987Y285D02*
X2045Y285D01*
X2061Y285D02*
X2119Y285D01*
X402Y284D02*
X455Y284D01*
X486Y284D02*
X539Y284D01*
X923Y284D02*
X979Y284D01*
X1001Y284D02*
X1057Y284D01*
X1445Y284D02*
X1498Y284D01*
X1529Y284D02*
X1582Y284D01*
X1986Y284D02*
X2042Y284D01*
X2064Y284D02*
X2120Y284D01*
X401Y283D02*
X453Y283D01*
X487Y283D02*
X540Y283D01*
X922Y283D02*
X976Y283D01*
X1004Y283D02*
X1058Y283D01*
X1444Y283D02*
X1497Y283D01*
X1530Y283D02*
X1583Y283D01*
X1985Y283D02*
X2039Y283D01*
X2066Y283D02*
X2121Y283D01*
X400Y282D02*
X452Y282D01*
X489Y282D02*
X541Y282D01*
X921Y282D02*
X975Y282D01*
X1006Y282D02*
X1059Y282D01*
X1443Y282D02*
X1495Y282D01*
X1532Y282D02*
X1584Y282D01*
X1984Y282D02*
X2037Y282D01*
X2068Y282D02*
X2122Y282D01*
X399Y281D02*
X451Y281D01*
X490Y281D02*
X542Y281D01*
X920Y281D02*
X973Y281D01*
X1007Y281D02*
X1060Y281D01*
X1442Y281D02*
X1494Y281D01*
X1533Y281D02*
X1585Y281D01*
X1983Y281D02*
X2036Y281D01*
X2070Y281D02*
X2123Y281D01*
X399Y280D02*
X450Y280D01*
X491Y280D02*
X542Y280D01*
X920Y280D02*
X972Y280D01*
X1008Y280D02*
X1061Y280D01*
X1442Y280D02*
X1493Y280D01*
X1534Y280D02*
X1585Y280D01*
X1982Y280D02*
X2034Y280D01*
X2071Y280D02*
X2123Y280D01*
X398Y279D02*
X449Y279D01*
X492Y279D02*
X543Y279D01*
X919Y279D02*
X970Y279D01*
X1010Y279D02*
X1061Y279D01*
X1441Y279D02*
X1492Y279D01*
X1535Y279D02*
X1586Y279D01*
X1982Y279D02*
X2033Y279D01*
X2073Y279D02*
X2124Y279D01*
X397Y278D02*
X448Y278D01*
X493Y278D02*
X544Y278D01*
X918Y278D02*
X969Y278D01*
X1011Y278D02*
X1062Y278D01*
X1440Y278D02*
X1491Y278D01*
X1536Y278D02*
X1587Y278D01*
X1981Y278D02*
X2032Y278D01*
X2074Y278D02*
X2125Y278D01*
X397Y277D02*
X447Y277D01*
X494Y277D02*
X544Y277D01*
X918Y277D02*
X968Y277D01*
X1012Y277D02*
X1063Y277D01*
X1440Y277D02*
X1490Y277D01*
X1537Y277D02*
X1587Y277D01*
X1980Y277D02*
X2031Y277D01*
X2075Y277D02*
X2125Y277D01*
X396Y276D02*
X446Y276D01*
X495Y276D02*
X545Y276D01*
X917Y276D02*
X967Y276D01*
X1013Y276D02*
X1063Y276D01*
X1439Y276D02*
X1489Y276D01*
X1538Y276D02*
X1588Y276D01*
X1980Y276D02*
X2030Y276D01*
X2076Y276D02*
X2126Y276D01*
X396Y275D02*
X445Y275D01*
X495Y275D02*
X545Y275D01*
X916Y275D02*
X967Y275D01*
X1014Y275D02*
X1064Y275D01*
X1439Y275D02*
X1489Y275D01*
X1538Y275D02*
X1588Y275D01*
X1979Y275D02*
X2029Y275D01*
X2076Y275D02*
X2127Y275D01*
X395Y274D02*
X445Y274D01*
X496Y274D02*
X546Y274D01*
X916Y274D02*
X966Y274D01*
X1014Y274D02*
X1064Y274D01*
X1438Y274D02*
X1488Y274D01*
X1539Y274D02*
X1589Y274D01*
X1979Y274D02*
X2029Y274D01*
X2077Y274D02*
X2127Y274D01*
X395Y273D02*
X444Y273D01*
X497Y273D02*
X546Y273D01*
X915Y273D02*
X965Y273D01*
X1015Y273D02*
X1065Y273D01*
X1438Y273D02*
X1487Y273D01*
X1540Y273D02*
X1589Y273D01*
X1978Y273D02*
X2028Y273D01*
X2078Y273D02*
X2128Y273D01*
X395Y272D02*
X444Y272D01*
X497Y272D02*
X546Y272D01*
X915Y272D02*
X964Y272D01*
X1016Y272D02*
X1065Y272D01*
X1438Y272D02*
X1487Y272D01*
X1540Y272D02*
X1589Y272D01*
X1978Y272D02*
X2027Y272D01*
X2078Y272D02*
X2128Y272D01*
X394Y271D02*
X443Y271D01*
X498Y271D02*
X547Y271D01*
X915Y271D02*
X964Y271D01*
X1016Y271D02*
X1066Y271D01*
X1437Y271D02*
X1486Y271D01*
X1541Y271D02*
X1590Y271D01*
X1977Y271D02*
X2027Y271D01*
X2079Y271D02*
X2128Y271D01*
X394Y270D02*
X443Y270D01*
X498Y270D02*
X547Y270D01*
X914Y270D02*
X963Y270D01*
X1017Y270D02*
X1066Y270D01*
X1437Y270D02*
X1486Y270D01*
X1541Y270D02*
X1590Y270D01*
X1977Y270D02*
X2026Y270D01*
X2080Y270D02*
X2129Y270D01*
X394Y269D02*
X442Y269D01*
X499Y269D02*
X547Y269D01*
X914Y269D02*
X963Y269D01*
X1017Y269D02*
X1066Y269D01*
X1437Y269D02*
X1485Y269D01*
X1542Y269D02*
X1590Y269D01*
X1977Y269D02*
X2026Y269D01*
X2080Y269D02*
X2129Y269D01*
X393Y268D02*
X442Y268D01*
X499Y268D02*
X547Y268D01*
X914Y268D02*
X962Y268D01*
X1018Y268D02*
X1067Y268D01*
X1436Y268D02*
X1485Y268D01*
X1542Y268D02*
X1591Y268D01*
X1976Y268D02*
X2025Y268D01*
X2081Y268D02*
X2129Y268D01*
X393Y267D02*
X442Y267D01*
X499Y267D02*
X548Y267D01*
X913Y267D02*
X962Y267D01*
X1018Y267D02*
X1067Y267D01*
X1436Y267D02*
X1485Y267D01*
X1542Y267D02*
X1591Y267D01*
X1976Y267D02*
X2025Y267D01*
X2081Y267D02*
X2130Y267D01*
X393Y266D02*
X441Y266D01*
X499Y266D02*
X548Y266D01*
X913Y266D02*
X962Y266D01*
X1019Y266D02*
X1067Y266D01*
X1436Y266D02*
X1485Y266D01*
X1543Y266D02*
X1591Y266D01*
X1976Y266D02*
X2024Y266D01*
X2081Y266D02*
X2130Y266D01*
X393Y265D02*
X441Y265D01*
X500Y265D02*
X548Y265D01*
X913Y265D02*
X961Y265D01*
X1019Y265D02*
X1067Y265D01*
X1436Y265D02*
X1484Y265D01*
X1543Y265D02*
X1591Y265D01*
X1976Y265D02*
X2024Y265D01*
X2082Y265D02*
X2130Y265D01*
X393Y264D02*
X441Y264D01*
X500Y264D02*
X548Y264D01*
X913Y264D02*
X961Y264D01*
X1019Y264D02*
X1068Y264D01*
X1436Y264D02*
X1484Y264D01*
X1543Y264D02*
X1591Y264D01*
X1975Y264D02*
X2024Y264D01*
X2082Y264D02*
X2130Y264D01*
X392Y263D02*
X441Y263D01*
X500Y263D02*
X548Y263D01*
X912Y263D02*
X961Y263D01*
X1019Y263D02*
X1068Y263D01*
X1436Y263D02*
X1484Y263D01*
X1543Y263D02*
X1592Y263D01*
X1975Y263D02*
X2024Y263D01*
X2082Y263D02*
X2131Y263D01*
X392Y262D02*
X441Y262D01*
X500Y262D02*
X548Y262D01*
X912Y262D02*
X961Y262D01*
X1020Y262D02*
X1068Y262D01*
X1435Y262D02*
X1484Y262D01*
X1543Y262D02*
X1592Y262D01*
X1975Y262D02*
X2023Y262D01*
X2082Y262D02*
X2131Y262D01*
X392Y261D02*
X441Y261D01*
X500Y261D02*
X549Y261D01*
X912Y261D02*
X960Y261D01*
X1020Y261D02*
X1068Y261D01*
X1435Y261D02*
X1484Y261D01*
X1543Y261D02*
X1592Y261D01*
X1975Y261D02*
X2023Y261D01*
X2083Y261D02*
X2131Y261D01*
X392Y260D02*
X440Y260D01*
X500Y260D02*
X549Y260D01*
X912Y260D02*
X960Y260D01*
X1020Y260D02*
X1068Y260D01*
X1435Y260D02*
X1484Y260D01*
X1543Y260D02*
X1592Y260D01*
X1975Y260D02*
X2023Y260D01*
X2083Y260D02*
X2131Y260D01*
X392Y259D02*
X440Y259D01*
X500Y259D02*
X549Y259D01*
X912Y259D02*
X960Y259D01*
X1020Y259D02*
X1068Y259D01*
X1435Y259D02*
X1484Y259D01*
X1544Y259D02*
X1592Y259D01*
X1975Y259D02*
X2023Y259D01*
X2083Y259D02*
X2131Y259D01*
X392Y258D02*
X440Y258D01*
X500Y258D02*
X549Y258D01*
X912Y258D02*
X960Y258D01*
X1020Y258D02*
X1068Y258D01*
X1435Y258D02*
X1484Y258D01*
X1544Y258D02*
X1592Y258D01*
X1975Y258D02*
X2023Y258D01*
X2083Y258D02*
X2131Y258D01*
X392Y257D02*
X440Y257D01*
X500Y257D02*
X549Y257D01*
X912Y257D02*
X960Y257D01*
X1020Y257D02*
X1068Y257D01*
X1435Y257D02*
X1484Y257D01*
X1543Y257D02*
X1592Y257D01*
X1975Y257D02*
X2023Y257D01*
X2083Y257D02*
X2131Y257D01*
X392Y256D02*
X441Y256D01*
X500Y256D02*
X549Y256D01*
X912Y256D02*
X960Y256D01*
X1020Y256D02*
X1068Y256D01*
X1435Y256D02*
X1484Y256D01*
X1543Y256D02*
X1592Y256D01*
X1975Y256D02*
X2023Y256D01*
X2083Y256D02*
X2131Y256D01*
X392Y255D02*
X441Y255D01*
X500Y255D02*
X548Y255D01*
X912Y255D02*
X960Y255D01*
X1020Y255D02*
X1068Y255D01*
X1436Y255D02*
X1484Y255D01*
X1543Y255D02*
X1592Y255D01*
X1975Y255D02*
X2023Y255D01*
X2083Y255D02*
X2131Y255D01*
X393Y254D02*
X441Y254D01*
X500Y254D02*
X548Y254D01*
X912Y254D02*
X960Y254D01*
X1020Y254D02*
X1068Y254D01*
X1436Y254D02*
X1484Y254D01*
X1543Y254D02*
X1591Y254D01*
X1975Y254D02*
X2023Y254D01*
X2083Y254D02*
X2131Y254D01*
X393Y253D02*
X441Y253D01*
X500Y253D02*
X548Y253D01*
X912Y253D02*
X960Y253D01*
X1020Y253D02*
X1068Y253D01*
X1436Y253D02*
X1484Y253D01*
X1543Y253D02*
X1591Y253D01*
X1975Y253D02*
X2023Y253D01*
X2083Y253D02*
X2131Y253D01*
X393Y252D02*
X441Y252D01*
X500Y252D02*
X548Y252D01*
X912Y252D02*
X960Y252D01*
X1020Y252D02*
X1068Y252D01*
X1436Y252D02*
X1484Y252D01*
X1543Y252D02*
X1591Y252D01*
X1975Y252D02*
X2023Y252D01*
X2082Y252D02*
X2131Y252D01*
X393Y251D02*
X441Y251D01*
X499Y251D02*
X548Y251D01*
X912Y251D02*
X961Y251D01*
X1020Y251D02*
X1068Y251D01*
X1436Y251D02*
X1485Y251D01*
X1543Y251D02*
X1591Y251D01*
X1975Y251D02*
X2023Y251D01*
X2082Y251D02*
X2131Y251D01*
X393Y250D02*
X442Y250D01*
X499Y250D02*
X548Y250D01*
X912Y250D02*
X961Y250D01*
X1019Y250D02*
X1068Y250D01*
X1436Y250D02*
X1485Y250D01*
X1542Y250D02*
X1591Y250D01*
X1975Y250D02*
X2024Y250D01*
X2082Y250D02*
X2130Y250D01*
X393Y249D02*
X442Y249D01*
X499Y249D02*
X547Y249D01*
X913Y249D02*
X961Y249D01*
X1019Y249D02*
X1068Y249D01*
X1437Y249D02*
X1485Y249D01*
X1542Y249D02*
X1591Y249D01*
X1975Y249D02*
X2024Y249D01*
X2082Y249D02*
X2130Y249D01*
X394Y248D02*
X442Y248D01*
X498Y248D02*
X547Y248D01*
X913Y248D02*
X961Y248D01*
X1019Y248D02*
X1067Y248D01*
X1437Y248D02*
X1486Y248D01*
X1542Y248D02*
X1590Y248D01*
X1976Y248D02*
X2024Y248D01*
X2082Y248D02*
X2130Y248D01*
X394Y247D02*
X443Y247D01*
X498Y247D02*
X547Y247D01*
X913Y247D02*
X962Y247D01*
X1018Y247D02*
X1067Y247D01*
X1437Y247D02*
X1486Y247D01*
X1541Y247D02*
X1590Y247D01*
X1976Y247D02*
X2024Y247D01*
X2081Y247D02*
X2130Y247D01*
X394Y246D02*
X443Y246D01*
X498Y246D02*
X547Y246D01*
X913Y246D02*
X962Y246D01*
X1018Y246D02*
X1067Y246D01*
X1437Y246D02*
X1486Y246D01*
X1541Y246D02*
X1590Y246D01*
X1976Y246D02*
X2025Y246D01*
X2081Y246D02*
X2130Y246D01*
X395Y245D02*
X444Y245D01*
X497Y245D02*
X546Y245D01*
X914Y245D02*
X962Y245D01*
X1018Y245D02*
X1067Y245D01*
X1438Y245D02*
X1487Y245D01*
X1540Y245D02*
X1589Y245D01*
X1976Y245D02*
X2025Y245D01*
X2080Y245D02*
X2129Y245D01*
X395Y244D02*
X444Y244D01*
X497Y244D02*
X546Y244D01*
X914Y244D02*
X963Y244D01*
X1017Y244D02*
X1066Y244D01*
X1438Y244D02*
X1487Y244D01*
X1540Y244D02*
X1589Y244D01*
X1977Y244D02*
X2026Y244D01*
X2080Y244D02*
X2129Y244D01*
X395Y243D02*
X445Y243D01*
X496Y243D02*
X545Y243D01*
X914Y243D02*
X963Y243D01*
X1017Y243D02*
X1066Y243D01*
X1439Y243D02*
X1488Y243D01*
X1539Y243D02*
X1589Y243D01*
X1977Y243D02*
X2026Y243D01*
X2080Y243D02*
X2129Y243D01*
X396Y242D02*
X446Y242D01*
X495Y242D02*
X545Y242D01*
X915Y242D02*
X964Y242D01*
X1016Y242D02*
X1065Y242D01*
X1439Y242D02*
X1489Y242D01*
X1538Y242D02*
X1588Y242D01*
X1978Y242D02*
X2027Y242D01*
X2079Y242D02*
X2128Y242D01*
X396Y241D02*
X446Y241D01*
X495Y241D02*
X544Y241D01*
X915Y241D02*
X965Y241D01*
X1016Y241D02*
X1065Y241D01*
X1440Y241D02*
X1489Y241D01*
X1538Y241D02*
X1588Y241D01*
X1978Y241D02*
X2027Y241D01*
X2078Y241D02*
X2128Y241D01*
X397Y240D02*
X447Y240D01*
X494Y240D02*
X544Y240D01*
X916Y240D02*
X965Y240D01*
X1015Y240D02*
X1065Y240D01*
X1440Y240D02*
X1490Y240D01*
X1537Y240D02*
X1587Y240D01*
X1978Y240D02*
X2028Y240D01*
X2078Y240D02*
X2127Y240D01*
X397Y239D02*
X448Y239D01*
X493Y239D02*
X543Y239D01*
X916Y239D02*
X966Y239D01*
X1014Y239D02*
X1064Y239D01*
X1441Y239D02*
X1491Y239D01*
X1536Y239D02*
X1587Y239D01*
X1979Y239D02*
X2029Y239D01*
X2077Y239D02*
X2127Y239D01*
X398Y238D02*
X449Y238D01*
X492Y238D02*
X543Y238D01*
X917Y238D02*
X967Y238D01*
X1013Y238D02*
X1064Y238D01*
X1441Y238D02*
X1492Y238D01*
X1535Y238D02*
X1586Y238D01*
X1979Y238D02*
X2030Y238D01*
X2076Y238D02*
X2126Y238D01*
X399Y237D02*
X450Y237D01*
X491Y237D02*
X542Y237D01*
X917Y237D02*
X968Y237D01*
X1013Y237D02*
X1063Y237D01*
X1442Y237D02*
X1493Y237D01*
X1534Y237D02*
X1585Y237D01*
X1980Y237D02*
X2030Y237D01*
X2075Y237D02*
X2126Y237D01*
X399Y236D02*
X451Y236D01*
X490Y236D02*
X542Y236D01*
X918Y236D02*
X969Y236D01*
X1012Y236D02*
X1062Y236D01*
X1442Y236D02*
X1494Y236D01*
X1533Y236D02*
X1585Y236D01*
X1981Y236D02*
X2031Y236D01*
X2074Y236D02*
X2125Y236D01*
X400Y235D02*
X452Y235D01*
X489Y235D02*
X541Y235D01*
X918Y235D02*
X970Y235D01*
X1011Y235D02*
X1062Y235D01*
X1443Y235D02*
X1495Y235D01*
X1532Y235D02*
X1584Y235D01*
X1981Y235D02*
X2032Y235D01*
X2073Y235D02*
X2125Y235D01*
X401Y234D02*
X454Y234D01*
X487Y234D02*
X540Y234D01*
X919Y234D02*
X971Y234D01*
X1009Y234D02*
X1061Y234D01*
X1444Y234D02*
X1497Y234D01*
X1530Y234D02*
X1583Y234D01*
X1982Y234D02*
X2033Y234D01*
X2072Y234D02*
X2124Y234D01*
X402Y233D02*
X455Y233D01*
X486Y233D02*
X539Y233D01*
X920Y233D02*
X972Y233D01*
X1008Y233D02*
X1060Y233D01*
X1445Y233D02*
X1498Y233D01*
X1529Y233D02*
X1582Y233D01*
X1983Y233D02*
X2035Y233D01*
X2071Y233D02*
X2123Y233D01*
X403Y232D02*
X457Y232D01*
X484Y232D02*
X538Y232D01*
X921Y232D02*
X973Y232D01*
X1007Y232D02*
X1060Y232D01*
X1446Y232D02*
X1500Y232D01*
X1527Y232D02*
X1581Y232D01*
X1983Y232D02*
X2036Y232D01*
X2070Y232D02*
X2122Y232D01*
X404Y231D02*
X460Y231D01*
X481Y231D02*
X537Y231D01*
X921Y231D02*
X975Y231D01*
X1005Y231D02*
X1059Y231D01*
X1447Y231D02*
X1503Y231D01*
X1524Y231D02*
X1580Y231D01*
X1984Y231D02*
X2038Y231D01*
X2068Y231D02*
X2122Y231D01*
X405Y230D02*
X463Y230D01*
X478Y230D02*
X536Y230D01*
X922Y230D02*
X977Y230D01*
X1003Y230D02*
X1058Y230D01*
X1448Y230D02*
X1506Y230D01*
X1521Y230D02*
X1579Y230D01*
X1985Y230D02*
X2040Y230D01*
X2066Y230D02*
X2121Y230D01*
X406Y229D02*
X535Y229D01*
X923Y229D02*
X979Y229D01*
X1001Y229D02*
X1057Y229D01*
X1449Y229D02*
X1578Y229D01*
X1986Y229D02*
X2042Y229D01*
X2064Y229D02*
X2120Y229D01*
X407Y228D02*
X534Y228D01*
X924Y228D02*
X983Y228D01*
X997Y228D02*
X1056Y228D01*
X1450Y228D02*
X1577Y228D01*
X1987Y228D02*
X2045Y228D01*
X2060Y228D02*
X2119Y228D01*
X408Y227D02*
X533Y227D01*
X925Y227D02*
X1055Y227D01*
X1451Y227D02*
X1576Y227D01*
X1988Y227D02*
X2118Y227D01*
X410Y226D02*
X531Y226D01*
X927Y226D02*
X1054Y226D01*
X1453Y226D02*
X1574Y226D01*
X1989Y226D02*
X2116Y226D01*
X411Y225D02*
X530Y225D01*
X928Y225D02*
X1052Y225D01*
X1454Y225D02*
X1573Y225D01*
X1991Y225D02*
X2115Y225D01*
X413Y224D02*
X528Y224D01*
X929Y224D02*
X1051Y224D01*
X1456Y224D02*
X1571Y224D01*
X1992Y224D02*
X2114Y224D01*
X415Y223D02*
X526Y223D01*
X931Y223D02*
X1049Y223D01*
X1458Y223D02*
X1569Y223D01*
X1994Y223D02*
X2112Y223D01*
X417Y222D02*
X524Y222D01*
X933Y222D02*
X1048Y222D01*
X1460Y222D02*
X1567Y222D01*
X1995Y222D02*
X2110Y222D01*
X420Y221D02*
X521Y221D01*
X935Y221D02*
X1046Y221D01*
X1463Y221D02*
X1564Y221D01*
X1997Y221D02*
X2108Y221D01*
X424Y220D02*
X517Y220D01*
X937Y220D02*
X1043Y220D01*
X1467Y220D02*
X1560Y220D01*
X2000Y220D02*
X2106Y220D01*
X940Y219D02*
X1040Y219D01*
X2003Y219D02*
X2103Y219D01*
X944Y218D02*
X1036Y218D01*
X2007Y218D02*
X2099Y218D01*
D02*
G04 End of Copper1*
M02*