G04 MADE WITH FRITZING*
G04 WWW.FRITZING.ORG*
G04 DOUBLE SIDED*
G04 HOLES PLATED*
G04 CONTOUR ON CENTER OF CONTOUR VECTOR*
%ASAXBY*%
%FSLAX23Y23*%
%MOIN*%
%OFA0B0*%
%SFA1.0B1.0*%
%ADD10C,0.039370*%
%ADD11C,0.086614*%
%ADD12C,0.082677*%
%ADD13C,0.177165*%
%ADD14C,0.082000*%
%ADD15C,0.075000*%
%ADD16C,0.075361*%
%ADD17C,0.078000*%
%ADD18R,0.082000X0.082000*%
%ADD19C,0.024000*%
%ADD20R,0.001000X0.001000*%
%LNCOPPER1*%
G90*
G70*
G54D10*
X819Y1401D03*
X661Y2031D03*
X2630Y691D03*
G54D11*
X2638Y553D03*
X2638Y325D03*
X2827Y435D03*
G54D10*
X2284Y228D03*
G54D12*
X2053Y453D03*
X2054Y256D03*
X2158Y355D03*
X2053Y453D03*
X2053Y256D03*
X2158Y355D03*
X1521Y453D03*
X1522Y256D03*
X1626Y355D03*
X1521Y453D03*
X1521Y256D03*
X1626Y355D03*
G54D10*
X1725Y259D03*
G54D12*
X990Y453D03*
X991Y256D03*
X1095Y355D03*
X990Y453D03*
X990Y256D03*
X1095Y355D03*
X458Y453D03*
X459Y256D03*
X563Y355D03*
X458Y453D03*
X458Y256D03*
X563Y355D03*
G54D13*
X130Y2030D03*
X130Y120D03*
X3024Y120D03*
X3024Y2030D03*
G54D14*
X325Y1065D03*
X425Y1065D03*
X525Y1065D03*
X2274Y1065D03*
X2374Y1065D03*
X2474Y1065D03*
X975Y1065D03*
X1075Y1065D03*
X1175Y1065D03*
X1624Y1065D03*
X1724Y1065D03*
X1824Y1065D03*
G54D15*
X222Y809D03*
X622Y809D03*
X2191Y809D03*
X2591Y809D03*
X872Y809D03*
X1272Y809D03*
X1580Y809D03*
X1980Y809D03*
G54D16*
X2675Y2031D03*
X2575Y2031D03*
X2475Y2031D03*
X2375Y2031D03*
X2275Y2031D03*
X2175Y2031D03*
X2075Y2031D03*
X1975Y2031D03*
X1875Y2031D03*
X1775Y2031D03*
X1675Y2031D03*
X1575Y2031D03*
X1475Y2031D03*
X1375Y2031D03*
X1275Y2031D03*
X1175Y2031D03*
X1075Y2031D03*
X975Y2031D03*
X875Y2031D03*
X775Y2031D03*
X775Y1931D03*
X875Y1931D03*
X975Y1931D03*
X1075Y1931D03*
X1175Y1931D03*
X1275Y1931D03*
X1375Y1931D03*
X1475Y1931D03*
X1575Y1931D03*
X1675Y1931D03*
X1775Y1931D03*
X1875Y1931D03*
X1975Y1931D03*
X2075Y1931D03*
X2175Y1931D03*
X2275Y1931D03*
X2375Y1931D03*
X2475Y1931D03*
X2575Y1931D03*
X2675Y1931D03*
G54D17*
X2886Y1557D03*
X2886Y1457D03*
X2886Y1357D03*
X2886Y1257D03*
X2886Y1157D03*
G54D18*
X325Y1065D03*
X2274Y1065D03*
X975Y1065D03*
X1624Y1065D03*
G54D19*
X2355Y436D02*
X2093Y451D01*
D02*
X2355Y691D02*
X2355Y436D01*
D02*
X2611Y691D02*
X2355Y691D01*
D02*
X2265Y231D02*
X2094Y251D01*
D02*
X1075Y947D02*
X760Y947D01*
D02*
X760Y947D02*
X760Y259D01*
D02*
X760Y259D02*
X950Y256D01*
D02*
X1075Y1033D02*
X1075Y947D01*
D02*
X1481Y453D02*
X1030Y453D01*
D02*
X1706Y258D02*
X1563Y256D01*
D02*
X2012Y453D02*
X1562Y453D01*
D02*
X423Y1224D02*
X130Y1224D01*
D02*
X111Y534D02*
X248Y534D01*
D02*
X248Y534D02*
X248Y259D01*
D02*
X130Y1224D02*
X111Y534D01*
D02*
X248Y259D02*
X419Y256D01*
D02*
X662Y456D02*
X499Y454D01*
D02*
X662Y121D02*
X662Y456D01*
D02*
X1231Y121D02*
X662Y121D01*
D02*
X1231Y456D02*
X1231Y121D01*
D02*
X425Y1097D02*
X423Y1224D01*
D02*
X1030Y454D02*
X1231Y456D01*
D02*
X2786Y2109D02*
X2767Y1320D01*
D02*
X2176Y2109D02*
X2786Y2109D01*
D02*
X2175Y2063D02*
X2176Y2109D01*
D02*
X2274Y946D02*
X2274Y1033D01*
D02*
X2591Y946D02*
X2274Y946D01*
D02*
X2591Y838D02*
X2591Y946D01*
D02*
X819Y1382D02*
X819Y1244D01*
D02*
X819Y1244D02*
X977Y1243D01*
D02*
X977Y1243D02*
X975Y1097D01*
D02*
X661Y2109D02*
X661Y2050D01*
D02*
X2079Y2109D02*
X661Y2109D01*
D02*
X2076Y2063D02*
X2079Y2109D01*
D02*
X1823Y946D02*
X1980Y946D01*
D02*
X1980Y946D02*
X1980Y838D01*
D02*
X1824Y1033D02*
X1823Y946D01*
D02*
X2196Y907D02*
X2192Y838D01*
D02*
X2059Y907D02*
X2196Y907D01*
D02*
X2059Y1204D02*
X2059Y907D01*
D02*
X2473Y1204D02*
X2059Y1204D01*
D02*
X2474Y1097D02*
X2473Y1204D01*
D02*
X2472Y1242D02*
X2474Y1097D01*
D02*
X2708Y986D02*
X2708Y1242D01*
D02*
X2708Y1242D02*
X2472Y1242D01*
D02*
X3062Y986D02*
X2708Y986D01*
D02*
X3062Y1558D02*
X3062Y986D01*
D02*
X2916Y1558D02*
X3062Y1558D01*
D02*
X1389Y1064D02*
X1389Y632D01*
D02*
X1207Y1065D02*
X1389Y1064D01*
D02*
X1982Y632D02*
X1981Y781D01*
D02*
X1389Y632D02*
X1982Y632D01*
D02*
X900Y809D02*
X1174Y810D01*
D02*
X1173Y946D02*
X1174Y1033D01*
D02*
X1174Y810D02*
X1173Y946D01*
D02*
X523Y927D02*
X525Y1033D01*
D02*
X229Y927D02*
X523Y927D01*
D02*
X224Y838D02*
X229Y927D01*
D02*
X1625Y1320D02*
X1624Y1097D01*
D02*
X2767Y1320D02*
X1625Y1320D01*
G54D20*
X411Y492D02*
X505Y492D01*
X942Y492D02*
X1036Y492D01*
X1473Y492D02*
X1568Y492D01*
X2005Y492D02*
X2099Y492D01*
X407Y491D02*
X509Y491D01*
X938Y491D02*
X1040Y491D01*
X1470Y491D02*
X1571Y491D01*
X2001Y491D02*
X2103Y491D01*
X404Y490D02*
X511Y490D01*
X935Y490D02*
X1043Y490D01*
X1467Y490D02*
X1574Y490D01*
X1998Y490D02*
X2105Y490D01*
X402Y489D02*
X514Y489D01*
X933Y489D02*
X1045Y489D01*
X1465Y489D02*
X1576Y489D01*
X1996Y489D02*
X2108Y489D01*
X400Y488D02*
X516Y488D01*
X931Y488D02*
X1047Y488D01*
X1463Y488D02*
X1578Y488D01*
X1994Y488D02*
X2110Y488D01*
X398Y487D02*
X517Y487D01*
X930Y487D02*
X1049Y487D01*
X1461Y487D02*
X1580Y487D01*
X1992Y487D02*
X2111Y487D01*
X397Y486D02*
X519Y486D01*
X928Y486D02*
X1050Y486D01*
X1459Y486D02*
X1582Y486D01*
X1991Y486D02*
X2113Y486D01*
X395Y485D02*
X520Y485D01*
X927Y485D02*
X1052Y485D01*
X1458Y485D02*
X1583Y485D01*
X1989Y485D02*
X2114Y485D01*
X394Y484D02*
X521Y484D01*
X925Y484D02*
X1053Y484D01*
X1457Y484D02*
X1584Y484D01*
X1988Y484D02*
X2116Y484D01*
X393Y483D02*
X456Y483D01*
X460Y483D02*
X523Y483D01*
X924Y483D02*
X987Y483D01*
X991Y483D02*
X1054Y483D01*
X1456Y483D02*
X1519Y483D01*
X1523Y483D02*
X1585Y483D01*
X1987Y483D02*
X2050Y483D01*
X2054Y483D02*
X2117Y483D01*
X392Y482D02*
X450Y482D01*
X466Y482D02*
X524Y482D01*
X923Y482D02*
X981Y482D01*
X998Y482D02*
X1055Y482D01*
X1455Y482D02*
X1512Y482D01*
X1529Y482D02*
X1586Y482D01*
X1986Y482D02*
X2044Y482D01*
X2060Y482D02*
X2118Y482D01*
X391Y481D02*
X447Y481D01*
X469Y481D02*
X525Y481D01*
X922Y481D02*
X978Y481D01*
X1001Y481D02*
X1056Y481D01*
X1453Y481D02*
X1509Y481D01*
X1532Y481D02*
X1588Y481D01*
X1985Y481D02*
X2041Y481D01*
X2063Y481D02*
X2119Y481D01*
X390Y480D02*
X444Y480D01*
X472Y480D02*
X526Y480D01*
X921Y480D02*
X976Y480D01*
X1003Y480D02*
X1057Y480D01*
X1453Y480D02*
X1507Y480D01*
X1534Y480D02*
X1588Y480D01*
X1984Y480D02*
X2039Y480D01*
X2066Y480D02*
X2120Y480D01*
X389Y479D02*
X443Y479D01*
X473Y479D02*
X527Y479D01*
X920Y479D02*
X974Y479D01*
X1005Y479D02*
X1058Y479D01*
X1452Y479D02*
X1505Y479D01*
X1536Y479D02*
X1589Y479D01*
X1983Y479D02*
X2037Y479D01*
X2068Y479D02*
X2121Y479D01*
X388Y478D02*
X441Y478D01*
X475Y478D02*
X527Y478D01*
X919Y478D02*
X972Y478D01*
X1006Y478D02*
X1059Y478D01*
X1451Y478D02*
X1504Y478D01*
X1538Y478D02*
X1590Y478D01*
X1982Y478D02*
X2035Y478D01*
X2069Y478D02*
X2122Y478D01*
X387Y477D02*
X440Y477D01*
X476Y477D02*
X528Y477D01*
X919Y477D02*
X971Y477D01*
X1008Y477D02*
X1059Y477D01*
X1450Y477D02*
X1502Y477D01*
X1539Y477D02*
X1591Y477D01*
X1981Y477D02*
X2034Y477D01*
X2071Y477D02*
X2122Y477D01*
X387Y476D02*
X438Y476D01*
X478Y476D02*
X529Y476D01*
X918Y476D02*
X970Y476D01*
X1009Y476D02*
X1060Y476D01*
X1449Y476D02*
X1501Y476D01*
X1540Y476D02*
X1592Y476D01*
X1981Y476D02*
X2032Y476D01*
X2072Y476D02*
X2123Y476D01*
X386Y475D02*
X437Y475D01*
X479Y475D02*
X530Y475D01*
X917Y475D02*
X969Y475D01*
X1010Y475D02*
X1061Y475D01*
X1449Y475D02*
X1500Y475D01*
X1541Y475D02*
X1592Y475D01*
X1980Y475D02*
X2031Y475D01*
X2073Y475D02*
X2124Y475D01*
X385Y474D02*
X436Y474D01*
X480Y474D02*
X530Y474D01*
X917Y474D02*
X968Y474D01*
X1011Y474D02*
X1062Y474D01*
X1448Y474D02*
X1499Y474D01*
X1543Y474D02*
X1593Y474D01*
X1979Y474D02*
X2030Y474D01*
X2074Y474D02*
X2124Y474D01*
X385Y473D02*
X435Y473D01*
X481Y473D02*
X531Y473D01*
X916Y473D02*
X967Y473D01*
X1012Y473D02*
X1062Y473D01*
X1447Y473D02*
X1498Y473D01*
X1543Y473D02*
X1594Y473D01*
X1979Y473D02*
X2029Y473D01*
X2075Y473D02*
X2125Y473D01*
X384Y472D02*
X434Y472D01*
X481Y472D02*
X531Y472D01*
X915Y472D02*
X966Y472D01*
X1013Y472D02*
X1063Y472D01*
X1447Y472D02*
X1497Y472D01*
X1544Y472D02*
X1594Y472D01*
X1978Y472D02*
X2029Y472D01*
X2076Y472D02*
X2125Y472D01*
X384Y471D02*
X434Y471D01*
X482Y471D02*
X532Y471D01*
X915Y471D02*
X965Y471D01*
X1014Y471D02*
X1063Y471D01*
X1446Y471D02*
X1496Y471D01*
X1545Y471D02*
X1595Y471D01*
X1978Y471D02*
X2028Y471D01*
X2076Y471D02*
X2126Y471D01*
X383Y470D02*
X433Y470D01*
X483Y470D02*
X532Y470D01*
X915Y470D02*
X964Y470D01*
X1014Y470D02*
X1064Y470D01*
X1446Y470D02*
X1496Y470D01*
X1546Y470D02*
X1595Y470D01*
X1977Y470D02*
X2027Y470D01*
X2077Y470D02*
X2126Y470D01*
X383Y469D02*
X432Y469D01*
X484Y469D02*
X533Y469D01*
X914Y469D02*
X964Y469D01*
X1015Y469D02*
X1064Y469D01*
X1445Y469D02*
X1495Y469D01*
X1546Y469D02*
X1596Y469D01*
X1977Y469D02*
X2026Y469D01*
X2078Y469D02*
X2127Y469D01*
X382Y468D02*
X432Y468D01*
X484Y468D02*
X533Y468D01*
X914Y468D02*
X963Y468D01*
X1016Y468D02*
X1065Y468D01*
X1445Y468D02*
X1495Y468D01*
X1547Y468D02*
X1596Y468D01*
X1976Y468D02*
X2026Y468D01*
X2078Y468D02*
X2127Y468D01*
X382Y467D02*
X431Y467D01*
X485Y467D02*
X534Y467D01*
X913Y467D02*
X963Y467D01*
X1016Y467D02*
X1065Y467D01*
X1445Y467D02*
X1494Y467D01*
X1548Y467D02*
X1596Y467D01*
X1976Y467D02*
X2025Y467D01*
X2079Y467D02*
X2128Y467D01*
X382Y466D02*
X431Y466D01*
X485Y466D02*
X534Y466D01*
X913Y466D02*
X962Y466D01*
X1017Y466D02*
X1065Y466D01*
X1444Y466D02*
X1494Y466D01*
X1548Y466D02*
X1597Y466D01*
X1976Y466D02*
X2025Y466D01*
X2079Y466D02*
X2128Y466D01*
X381Y465D02*
X430Y465D01*
X486Y465D02*
X534Y465D01*
X913Y465D02*
X962Y465D01*
X1017Y465D02*
X1066Y465D01*
X1444Y465D02*
X1493Y465D01*
X1548Y465D02*
X1597Y465D01*
X1975Y465D02*
X2024Y465D01*
X2080Y465D02*
X2128Y465D01*
X381Y464D02*
X430Y464D01*
X486Y464D02*
X534Y464D01*
X912Y464D02*
X961Y464D01*
X1017Y464D02*
X1066Y464D01*
X1444Y464D02*
X1493Y464D01*
X1549Y464D02*
X1597Y464D01*
X1975Y464D02*
X2024Y464D01*
X2080Y464D02*
X2129Y464D01*
X381Y463D02*
X429Y463D01*
X486Y463D02*
X535Y463D01*
X912Y463D02*
X961Y463D01*
X1018Y463D02*
X1066Y463D01*
X1443Y463D02*
X1492Y463D01*
X1549Y463D02*
X1598Y463D01*
X1975Y463D02*
X2024Y463D01*
X2081Y463D02*
X2129Y463D01*
X380Y462D02*
X429Y462D01*
X487Y462D02*
X535Y462D01*
X912Y462D02*
X961Y462D01*
X1018Y462D02*
X1066Y462D01*
X1443Y462D02*
X1492Y462D01*
X1550Y462D02*
X1598Y462D01*
X1975Y462D02*
X2023Y462D01*
X2081Y462D02*
X2129Y462D01*
X380Y461D02*
X429Y461D01*
X487Y461D02*
X535Y461D01*
X912Y461D02*
X960Y461D01*
X1018Y461D02*
X1067Y461D01*
X1443Y461D02*
X1492Y461D01*
X1550Y461D02*
X1598Y461D01*
X1974Y461D02*
X2023Y461D01*
X2081Y461D02*
X2129Y461D01*
X380Y460D02*
X429Y460D01*
X487Y460D02*
X535Y460D01*
X911Y460D02*
X960Y460D01*
X1019Y460D02*
X1067Y460D01*
X1443Y460D02*
X1491Y460D01*
X1550Y460D02*
X1598Y460D01*
X1974Y460D02*
X2023Y460D01*
X2081Y460D02*
X2130Y460D01*
X380Y459D02*
X428Y459D01*
X487Y459D02*
X536Y459D01*
X911Y459D02*
X960Y459D01*
X1019Y459D02*
X1067Y459D01*
X1443Y459D02*
X1491Y459D01*
X1550Y459D02*
X1598Y459D01*
X1974Y459D02*
X2023Y459D01*
X2082Y459D02*
X2130Y459D01*
X380Y458D02*
X428Y458D01*
X488Y458D02*
X536Y458D01*
X911Y458D02*
X960Y458D01*
X1019Y458D02*
X1067Y458D01*
X1443Y458D02*
X1491Y458D01*
X1550Y458D02*
X1598Y458D01*
X1974Y458D02*
X2022Y458D01*
X2082Y458D02*
X2130Y458D01*
X380Y457D02*
X428Y457D01*
X488Y457D02*
X536Y457D01*
X911Y457D02*
X960Y457D01*
X1019Y457D02*
X1067Y457D01*
X1442Y457D02*
X1491Y457D01*
X1551Y457D02*
X1599Y457D01*
X1974Y457D02*
X2022Y457D01*
X2082Y457D02*
X2130Y457D01*
X380Y456D02*
X428Y456D01*
X488Y456D02*
X536Y456D01*
X911Y456D02*
X959Y456D01*
X1019Y456D02*
X1067Y456D01*
X1442Y456D02*
X1491Y456D01*
X1551Y456D02*
X1599Y456D01*
X1974Y456D02*
X2022Y456D01*
X2082Y456D02*
X2130Y456D01*
X380Y455D02*
X428Y455D01*
X488Y455D02*
X536Y455D01*
X911Y455D02*
X959Y455D01*
X1019Y455D02*
X1067Y455D01*
X1442Y455D02*
X1491Y455D01*
X1551Y455D02*
X1599Y455D01*
X1974Y455D02*
X2022Y455D01*
X2082Y455D02*
X2130Y455D01*
X379Y454D02*
X428Y454D01*
X488Y454D02*
X536Y454D01*
X911Y454D02*
X959Y454D01*
X1019Y454D02*
X1067Y454D01*
X1442Y454D02*
X1491Y454D01*
X1551Y454D02*
X1599Y454D01*
X1974Y454D02*
X2022Y454D01*
X2082Y454D02*
X2130Y454D01*
X379Y453D02*
X428Y453D01*
X488Y453D02*
X536Y453D01*
X911Y453D02*
X959Y453D01*
X1019Y453D02*
X1067Y453D01*
X1442Y453D02*
X1491Y453D01*
X1551Y453D02*
X1599Y453D01*
X1974Y453D02*
X2022Y453D01*
X2082Y453D02*
X2130Y453D01*
X380Y452D02*
X428Y452D01*
X488Y452D02*
X536Y452D01*
X911Y452D02*
X959Y452D01*
X1019Y452D02*
X1067Y452D01*
X1442Y452D02*
X1491Y452D01*
X1551Y452D02*
X1599Y452D01*
X1974Y452D02*
X2022Y452D01*
X2082Y452D02*
X2130Y452D01*
X380Y451D02*
X428Y451D01*
X488Y451D02*
X536Y451D01*
X911Y451D02*
X959Y451D01*
X1019Y451D02*
X1067Y451D01*
X1442Y451D02*
X1491Y451D01*
X1551Y451D02*
X1599Y451D01*
X1974Y451D02*
X2022Y451D01*
X2082Y451D02*
X2130Y451D01*
X380Y450D02*
X428Y450D01*
X488Y450D02*
X536Y450D01*
X911Y450D02*
X960Y450D01*
X1019Y450D02*
X1067Y450D01*
X1442Y450D02*
X1491Y450D01*
X1551Y450D02*
X1599Y450D01*
X1974Y450D02*
X2022Y450D01*
X2082Y450D02*
X2130Y450D01*
X380Y449D02*
X428Y449D01*
X488Y449D02*
X536Y449D01*
X911Y449D02*
X960Y449D01*
X1019Y449D02*
X1067Y449D01*
X1443Y449D02*
X1491Y449D01*
X1550Y449D02*
X1598Y449D01*
X1974Y449D02*
X2022Y449D01*
X2082Y449D02*
X2130Y449D01*
X380Y448D02*
X428Y448D01*
X487Y448D02*
X536Y448D01*
X911Y448D02*
X960Y448D01*
X1019Y448D02*
X1067Y448D01*
X1443Y448D02*
X1491Y448D01*
X1550Y448D02*
X1598Y448D01*
X1974Y448D02*
X2023Y448D01*
X2082Y448D02*
X2130Y448D01*
X380Y447D02*
X429Y447D01*
X487Y447D02*
X535Y447D01*
X911Y447D02*
X960Y447D01*
X1019Y447D02*
X1067Y447D01*
X1443Y447D02*
X1491Y447D01*
X1550Y447D02*
X1598Y447D01*
X1974Y447D02*
X2023Y447D01*
X2081Y447D02*
X2130Y447D01*
X380Y446D02*
X429Y446D01*
X487Y446D02*
X535Y446D01*
X912Y446D02*
X960Y446D01*
X1018Y446D02*
X1067Y446D01*
X1443Y446D02*
X1492Y446D01*
X1550Y446D02*
X1598Y446D01*
X1974Y446D02*
X2023Y446D01*
X2081Y446D02*
X2129Y446D01*
X380Y445D02*
X429Y445D01*
X487Y445D02*
X535Y445D01*
X912Y445D02*
X961Y445D01*
X1018Y445D02*
X1066Y445D01*
X1443Y445D02*
X1492Y445D01*
X1549Y445D02*
X1598Y445D01*
X1975Y445D02*
X2023Y445D01*
X2081Y445D02*
X2129Y445D01*
X381Y444D02*
X430Y444D01*
X486Y444D02*
X535Y444D01*
X912Y444D02*
X961Y444D01*
X1018Y444D02*
X1066Y444D01*
X1443Y444D02*
X1492Y444D01*
X1549Y444D02*
X1598Y444D01*
X1975Y444D02*
X2024Y444D01*
X2081Y444D02*
X2129Y444D01*
X381Y443D02*
X430Y443D01*
X486Y443D02*
X534Y443D01*
X912Y443D02*
X961Y443D01*
X1017Y443D02*
X1066Y443D01*
X1444Y443D02*
X1493Y443D01*
X1549Y443D02*
X1597Y443D01*
X1975Y443D02*
X2024Y443D01*
X2080Y443D02*
X2129Y443D01*
X381Y442D02*
X430Y442D01*
X486Y442D02*
X534Y442D01*
X913Y442D02*
X962Y442D01*
X1017Y442D02*
X1066Y442D01*
X1444Y442D02*
X1493Y442D01*
X1548Y442D02*
X1597Y442D01*
X1975Y442D02*
X2024Y442D01*
X2080Y442D02*
X2128Y442D01*
X382Y441D02*
X431Y441D01*
X485Y441D02*
X534Y441D01*
X913Y441D02*
X962Y441D01*
X1017Y441D02*
X1065Y441D01*
X1444Y441D02*
X1494Y441D01*
X1548Y441D02*
X1597Y441D01*
X1976Y441D02*
X2025Y441D01*
X2079Y441D02*
X2128Y441D01*
X382Y440D02*
X431Y440D01*
X485Y440D02*
X534Y440D01*
X913Y440D02*
X963Y440D01*
X1016Y440D02*
X1065Y440D01*
X1445Y440D02*
X1494Y440D01*
X1547Y440D02*
X1596Y440D01*
X1976Y440D02*
X2025Y440D01*
X2079Y440D02*
X2128Y440D01*
X382Y439D02*
X432Y439D01*
X484Y439D02*
X533Y439D01*
X914Y439D02*
X963Y439D01*
X1016Y439D02*
X1065Y439D01*
X1445Y439D02*
X1495Y439D01*
X1547Y439D02*
X1596Y439D01*
X1976Y439D02*
X2026Y439D01*
X2078Y439D02*
X2127Y439D01*
X383Y438D02*
X432Y438D01*
X484Y438D02*
X533Y438D01*
X914Y438D02*
X964Y438D01*
X1015Y438D02*
X1064Y438D01*
X1445Y438D02*
X1495Y438D01*
X1546Y438D02*
X1596Y438D01*
X1977Y438D02*
X2027Y438D01*
X2078Y438D02*
X2127Y438D01*
X383Y437D02*
X433Y437D01*
X483Y437D02*
X532Y437D01*
X915Y437D02*
X964Y437D01*
X1014Y437D02*
X1064Y437D01*
X1446Y437D02*
X1496Y437D01*
X1546Y437D02*
X1595Y437D01*
X1977Y437D02*
X2027Y437D01*
X2077Y437D02*
X2126Y437D01*
X384Y436D02*
X434Y436D01*
X482Y436D02*
X532Y436D01*
X915Y436D02*
X965Y436D01*
X1014Y436D02*
X1063Y436D01*
X1446Y436D02*
X1497Y436D01*
X1545Y436D02*
X1595Y436D01*
X1978Y436D02*
X2028Y436D01*
X2076Y436D02*
X2126Y436D01*
X384Y435D02*
X435Y435D01*
X481Y435D02*
X531Y435D01*
X915Y435D02*
X966Y435D01*
X1013Y435D02*
X1063Y435D01*
X1447Y435D02*
X1497Y435D01*
X1544Y435D02*
X1594Y435D01*
X1978Y435D02*
X2029Y435D01*
X2076Y435D02*
X2125Y435D01*
X385Y434D02*
X435Y434D01*
X481Y434D02*
X531Y434D01*
X916Y434D02*
X967Y434D01*
X1012Y434D02*
X1062Y434D01*
X1447Y434D02*
X1498Y434D01*
X1543Y434D02*
X1594Y434D01*
X1979Y434D02*
X2030Y434D01*
X2075Y434D02*
X2125Y434D01*
X385Y433D02*
X436Y433D01*
X480Y433D02*
X530Y433D01*
X917Y433D02*
X968Y433D01*
X1011Y433D02*
X1062Y433D01*
X1448Y433D02*
X1499Y433D01*
X1542Y433D02*
X1593Y433D01*
X1979Y433D02*
X2030Y433D01*
X2074Y433D02*
X2124Y433D01*
X386Y432D02*
X437Y432D01*
X479Y432D02*
X530Y432D01*
X917Y432D02*
X969Y432D01*
X1010Y432D02*
X1061Y432D01*
X1449Y432D02*
X1500Y432D01*
X1541Y432D02*
X1592Y432D01*
X1980Y432D02*
X2032Y432D01*
X2073Y432D02*
X2124Y432D01*
X387Y431D02*
X438Y431D01*
X477Y431D02*
X529Y431D01*
X918Y431D02*
X970Y431D01*
X1009Y431D02*
X1060Y431D01*
X1449Y431D02*
X1501Y431D01*
X1540Y431D02*
X1592Y431D01*
X1981Y431D02*
X2033Y431D01*
X2072Y431D02*
X2123Y431D01*
X387Y430D02*
X440Y430D01*
X476Y430D02*
X528Y430D01*
X919Y430D02*
X971Y430D01*
X1008Y430D02*
X1059Y430D01*
X1450Y430D02*
X1503Y430D01*
X1539Y430D02*
X1591Y430D01*
X1981Y430D02*
X2034Y430D01*
X2070Y430D02*
X2122Y430D01*
X388Y429D02*
X441Y429D01*
X475Y429D02*
X527Y429D01*
X919Y429D02*
X972Y429D01*
X1006Y429D02*
X1059Y429D01*
X1451Y429D02*
X1504Y429D01*
X1538Y429D02*
X1590Y429D01*
X1982Y429D02*
X2035Y429D01*
X2069Y429D02*
X2122Y429D01*
X389Y428D02*
X443Y428D01*
X473Y428D02*
X527Y428D01*
X920Y428D02*
X974Y428D01*
X1005Y428D02*
X1058Y428D01*
X1452Y428D02*
X1506Y428D01*
X1536Y428D02*
X1589Y428D01*
X1983Y428D02*
X2037Y428D01*
X2067Y428D02*
X2121Y428D01*
X390Y427D02*
X445Y427D01*
X471Y427D02*
X526Y427D01*
X921Y427D02*
X976Y427D01*
X1003Y427D02*
X1057Y427D01*
X1453Y427D02*
X1507Y427D01*
X1534Y427D02*
X1588Y427D01*
X1984Y427D02*
X2039Y427D01*
X2065Y427D02*
X2120Y427D01*
X391Y426D02*
X447Y426D01*
X469Y426D02*
X525Y426D01*
X922Y426D02*
X978Y426D01*
X1000Y426D02*
X1056Y426D01*
X1453Y426D02*
X1510Y426D01*
X1532Y426D02*
X1587Y426D01*
X1985Y426D02*
X2041Y426D01*
X2063Y426D02*
X2119Y426D01*
X392Y425D02*
X450Y425D01*
X466Y425D02*
X524Y425D01*
X923Y425D02*
X982Y425D01*
X997Y425D02*
X1055Y425D01*
X1455Y425D02*
X1513Y425D01*
X1529Y425D02*
X1586Y425D01*
X1986Y425D02*
X2044Y425D01*
X2060Y425D02*
X2118Y425D01*
X393Y424D02*
X523Y424D01*
X924Y424D02*
X1054Y424D01*
X1456Y424D02*
X1585Y424D01*
X1987Y424D02*
X2117Y424D01*
X394Y423D02*
X521Y423D01*
X925Y423D02*
X1053Y423D01*
X1457Y423D02*
X1584Y423D01*
X1988Y423D02*
X2116Y423D01*
X395Y422D02*
X520Y422D01*
X927Y422D02*
X1052Y422D01*
X1458Y422D02*
X1583Y422D01*
X1989Y422D02*
X2114Y422D01*
X397Y421D02*
X519Y421D01*
X928Y421D02*
X1050Y421D01*
X1459Y421D02*
X1582Y421D01*
X1991Y421D02*
X2113Y421D01*
X398Y420D02*
X517Y420D01*
X930Y420D02*
X1049Y420D01*
X1461Y420D02*
X1580Y420D01*
X1992Y420D02*
X2111Y420D01*
X400Y419D02*
X516Y419D01*
X931Y419D02*
X1047Y419D01*
X1463Y419D02*
X1578Y419D01*
X1994Y419D02*
X2110Y419D01*
X402Y418D02*
X513Y418D01*
X933Y418D02*
X1045Y418D01*
X1465Y418D02*
X1576Y418D01*
X1996Y418D02*
X2108Y418D01*
X404Y417D02*
X511Y417D01*
X936Y417D02*
X1043Y417D01*
X1467Y417D02*
X1574Y417D01*
X1998Y417D02*
X2105Y417D01*
X407Y416D02*
X509Y416D01*
X938Y416D02*
X1040Y416D01*
X1470Y416D02*
X1571Y416D01*
X2001Y416D02*
X2103Y416D01*
X411Y415D02*
X505Y415D01*
X942Y415D02*
X1036Y415D01*
X1473Y415D02*
X1568Y415D01*
X2005Y415D02*
X2099Y415D01*
X418Y296D02*
X497Y296D01*
X950Y296D02*
X1029Y296D01*
X1481Y296D02*
X1560Y296D01*
X2012Y296D02*
X2091Y296D01*
X410Y295D02*
X505Y295D01*
X941Y295D02*
X1037Y295D01*
X1473Y295D02*
X1568Y295D01*
X2004Y295D02*
X2100Y295D01*
X406Y294D02*
X509Y294D01*
X938Y294D02*
X1040Y294D01*
X1469Y294D02*
X1572Y294D01*
X2001Y294D02*
X2103Y294D01*
X404Y293D02*
X512Y293D01*
X935Y293D02*
X1043Y293D01*
X1466Y293D02*
X1574Y293D01*
X1998Y293D02*
X2106Y293D01*
X402Y292D02*
X514Y292D01*
X933Y292D02*
X1045Y292D01*
X1464Y292D02*
X1577Y292D01*
X1996Y292D02*
X2108Y292D01*
X400Y291D02*
X516Y291D01*
X931Y291D02*
X1047Y291D01*
X1462Y291D02*
X1579Y291D01*
X1994Y291D02*
X2110Y291D01*
X398Y290D02*
X517Y290D01*
X929Y290D02*
X1049Y290D01*
X1461Y290D02*
X1580Y290D01*
X1992Y290D02*
X2112Y290D01*
X396Y289D02*
X519Y289D01*
X928Y289D02*
X1050Y289D01*
X1459Y289D02*
X1582Y289D01*
X1991Y289D02*
X2113Y289D01*
X395Y288D02*
X520Y288D01*
X926Y288D02*
X1052Y288D01*
X1458Y288D02*
X1583Y288D01*
X1989Y288D02*
X2114Y288D01*
X394Y287D02*
X522Y287D01*
X925Y287D02*
X1053Y287D01*
X1457Y287D02*
X1584Y287D01*
X1988Y287D02*
X2116Y287D01*
X393Y286D02*
X455Y286D01*
X460Y286D02*
X523Y286D01*
X924Y286D02*
X987Y286D01*
X991Y286D02*
X1054Y286D01*
X1455Y286D02*
X1518Y286D01*
X1523Y286D02*
X1586Y286D01*
X1987Y286D02*
X2050Y286D01*
X2054Y286D02*
X2117Y286D01*
X392Y285D02*
X449Y285D01*
X466Y285D02*
X524Y285D01*
X923Y285D02*
X981Y285D01*
X997Y285D02*
X1055Y285D01*
X1454Y285D02*
X1512Y285D01*
X1529Y285D02*
X1587Y285D01*
X1986Y285D02*
X2044Y285D01*
X2060Y285D02*
X2118Y285D01*
X391Y284D02*
X446Y284D01*
X469Y284D02*
X525Y284D01*
X922Y284D02*
X978Y284D01*
X1000Y284D02*
X1056Y284D01*
X1453Y284D02*
X1509Y284D01*
X1532Y284D02*
X1588Y284D01*
X1985Y284D02*
X2041Y284D01*
X2063Y284D02*
X2119Y284D01*
X390Y283D02*
X444Y283D01*
X471Y283D02*
X526Y283D01*
X921Y283D02*
X975Y283D01*
X1003Y283D02*
X1057Y283D01*
X1452Y283D02*
X1507Y283D01*
X1534Y283D02*
X1589Y283D01*
X1984Y283D02*
X2038Y283D01*
X2065Y283D02*
X2120Y283D01*
X389Y282D02*
X442Y282D01*
X473Y282D02*
X527Y282D01*
X920Y282D02*
X974Y282D01*
X1005Y282D02*
X1058Y282D01*
X1452Y282D02*
X1505Y282D01*
X1536Y282D02*
X1589Y282D01*
X1983Y282D02*
X2036Y282D01*
X2067Y282D02*
X2121Y282D01*
X388Y281D02*
X441Y281D01*
X475Y281D02*
X527Y281D01*
X919Y281D02*
X972Y281D01*
X1006Y281D02*
X1059Y281D01*
X1451Y281D02*
X1503Y281D01*
X1538Y281D02*
X1590Y281D01*
X1982Y281D02*
X2035Y281D01*
X2069Y281D02*
X2122Y281D01*
X387Y280D02*
X439Y280D01*
X476Y280D02*
X528Y280D01*
X919Y280D02*
X971Y280D01*
X1007Y280D02*
X1060Y280D01*
X1450Y280D02*
X1502Y280D01*
X1539Y280D02*
X1591Y280D01*
X1981Y280D02*
X2033Y280D01*
X2070Y280D02*
X2122Y280D01*
X386Y279D02*
X438Y279D01*
X477Y279D02*
X529Y279D01*
X918Y279D02*
X969Y279D01*
X1009Y279D02*
X1060Y279D01*
X1449Y279D02*
X1501Y279D01*
X1540Y279D02*
X1592Y279D01*
X1981Y279D02*
X2032Y279D01*
X2072Y279D02*
X2123Y279D01*
X386Y278D02*
X437Y278D01*
X478Y278D02*
X530Y278D01*
X917Y278D02*
X968Y278D01*
X1010Y278D02*
X1061Y278D01*
X1449Y278D02*
X1500Y278D01*
X1541Y278D02*
X1592Y278D01*
X1980Y278D02*
X2031Y278D01*
X2073Y278D02*
X2124Y278D01*
X385Y277D02*
X436Y277D01*
X479Y277D02*
X530Y277D01*
X917Y277D02*
X967Y277D01*
X1011Y277D02*
X1062Y277D01*
X1448Y277D02*
X1499Y277D01*
X1542Y277D02*
X1593Y277D01*
X1979Y277D02*
X2030Y277D01*
X2074Y277D02*
X2124Y277D01*
X385Y276D02*
X435Y276D01*
X480Y276D02*
X531Y276D01*
X916Y276D02*
X966Y276D01*
X1012Y276D02*
X1062Y276D01*
X1447Y276D02*
X1498Y276D01*
X1543Y276D02*
X1594Y276D01*
X1979Y276D02*
X2029Y276D01*
X2075Y276D02*
X2125Y276D01*
X384Y275D02*
X434Y275D01*
X481Y275D02*
X531Y275D01*
X915Y275D02*
X966Y275D01*
X1013Y275D02*
X1063Y275D01*
X1447Y275D02*
X1497Y275D01*
X1544Y275D02*
X1594Y275D01*
X1978Y275D02*
X2028Y275D01*
X2075Y275D02*
X2126Y275D01*
X384Y274D02*
X433Y274D01*
X482Y274D02*
X532Y274D01*
X915Y274D02*
X965Y274D01*
X1013Y274D02*
X1063Y274D01*
X1446Y274D02*
X1496Y274D01*
X1545Y274D02*
X1595Y274D01*
X1978Y274D02*
X2028Y274D01*
X2076Y274D02*
X2126Y274D01*
X383Y273D02*
X433Y273D01*
X483Y273D02*
X532Y273D01*
X914Y273D02*
X964Y273D01*
X1014Y273D02*
X1064Y273D01*
X1446Y273D02*
X1495Y273D01*
X1546Y273D02*
X1595Y273D01*
X1977Y273D02*
X2027Y273D01*
X2077Y273D02*
X2127Y273D01*
X383Y272D02*
X432Y272D01*
X483Y272D02*
X533Y272D01*
X914Y272D02*
X963Y272D01*
X1015Y272D02*
X1064Y272D01*
X1445Y272D02*
X1495Y272D01*
X1546Y272D02*
X1596Y272D01*
X1977Y272D02*
X2026Y272D01*
X2077Y272D02*
X2127Y272D01*
X382Y271D02*
X431Y271D01*
X484Y271D02*
X533Y271D01*
X914Y271D02*
X963Y271D01*
X1015Y271D02*
X1065Y271D01*
X1445Y271D02*
X1494Y271D01*
X1547Y271D02*
X1596Y271D01*
X1976Y271D02*
X2026Y271D01*
X2078Y271D02*
X2127Y271D01*
X382Y270D02*
X431Y270D01*
X484Y270D02*
X534Y270D01*
X913Y270D02*
X962Y270D01*
X1016Y270D02*
X1065Y270D01*
X1445Y270D02*
X1494Y270D01*
X1547Y270D02*
X1596Y270D01*
X1976Y270D02*
X2025Y270D01*
X2079Y270D02*
X2128Y270D01*
X381Y269D02*
X430Y269D01*
X485Y269D02*
X534Y269D01*
X913Y269D02*
X962Y269D01*
X1016Y269D02*
X1065Y269D01*
X1444Y269D02*
X1493Y269D01*
X1548Y269D02*
X1597Y269D01*
X1976Y269D02*
X2025Y269D01*
X2079Y269D02*
X2128Y269D01*
X381Y268D02*
X430Y268D01*
X485Y268D02*
X534Y268D01*
X913Y268D02*
X961Y268D01*
X1017Y268D02*
X1066Y268D01*
X1444Y268D02*
X1493Y268D01*
X1548Y268D02*
X1597Y268D01*
X1975Y268D02*
X2024Y268D01*
X2080Y268D02*
X2128Y268D01*
X381Y267D02*
X430Y267D01*
X486Y267D02*
X535Y267D01*
X912Y267D02*
X961Y267D01*
X1017Y267D02*
X1066Y267D01*
X1444Y267D02*
X1492Y267D01*
X1549Y267D02*
X1597Y267D01*
X1975Y267D02*
X2024Y267D01*
X2080Y267D02*
X2129Y267D01*
X381Y266D02*
X429Y266D01*
X486Y266D02*
X535Y266D01*
X912Y266D02*
X961Y266D01*
X1018Y266D02*
X1066Y266D01*
X1443Y266D02*
X1492Y266D01*
X1549Y266D02*
X1598Y266D01*
X1975Y266D02*
X2023Y266D01*
X2080Y266D02*
X2129Y266D01*
X380Y265D02*
X429Y265D01*
X486Y265D02*
X535Y265D01*
X912Y265D02*
X960Y265D01*
X1018Y265D02*
X1066Y265D01*
X1443Y265D02*
X1492Y265D01*
X1549Y265D02*
X1598Y265D01*
X1975Y265D02*
X2023Y265D01*
X2081Y265D02*
X2129Y265D01*
X380Y264D02*
X429Y264D01*
X487Y264D02*
X535Y264D01*
X912Y264D02*
X960Y264D01*
X1018Y264D02*
X1067Y264D01*
X1443Y264D02*
X1491Y264D01*
X1550Y264D02*
X1598Y264D01*
X1974Y264D02*
X2023Y264D01*
X2081Y264D02*
X2129Y264D01*
X380Y263D02*
X428Y263D01*
X487Y263D02*
X535Y263D01*
X911Y263D02*
X960Y263D01*
X1018Y263D02*
X1067Y263D01*
X1443Y263D02*
X1491Y263D01*
X1550Y263D02*
X1598Y263D01*
X1974Y263D02*
X2023Y263D01*
X2081Y263D02*
X2130Y263D01*
X380Y262D02*
X428Y262D01*
X487Y262D02*
X536Y262D01*
X911Y262D02*
X960Y262D01*
X1019Y262D02*
X1067Y262D01*
X1443Y262D02*
X1491Y262D01*
X1550Y262D02*
X1598Y262D01*
X1974Y262D02*
X2022Y262D01*
X2081Y262D02*
X2130Y262D01*
X380Y261D02*
X428Y261D01*
X487Y261D02*
X536Y261D01*
X911Y261D02*
X959Y261D01*
X1019Y261D02*
X1067Y261D01*
X1443Y261D02*
X1491Y261D01*
X1550Y261D02*
X1598Y261D01*
X1974Y261D02*
X2022Y261D01*
X2082Y261D02*
X2130Y261D01*
X380Y260D02*
X428Y260D01*
X488Y260D02*
X536Y260D01*
X911Y260D02*
X959Y260D01*
X1019Y260D02*
X1067Y260D01*
X1442Y260D02*
X1491Y260D01*
X1550Y260D02*
X1599Y260D01*
X1974Y260D02*
X2022Y260D01*
X2082Y260D02*
X2130Y260D01*
X380Y259D02*
X428Y259D01*
X488Y259D02*
X536Y259D01*
X911Y259D02*
X959Y259D01*
X1019Y259D02*
X1067Y259D01*
X1442Y259D02*
X1491Y259D01*
X1550Y259D02*
X1599Y259D01*
X1974Y259D02*
X2022Y259D01*
X2082Y259D02*
X2130Y259D01*
X380Y258D02*
X428Y258D01*
X488Y258D02*
X536Y258D01*
X911Y258D02*
X959Y258D01*
X1019Y258D02*
X1067Y258D01*
X1442Y258D02*
X1491Y258D01*
X1550Y258D02*
X1599Y258D01*
X1974Y258D02*
X2022Y258D01*
X2082Y258D02*
X2130Y258D01*
X380Y257D02*
X428Y257D01*
X488Y257D02*
X536Y257D01*
X911Y257D02*
X959Y257D01*
X1019Y257D02*
X1067Y257D01*
X1442Y257D02*
X1490Y257D01*
X1550Y257D02*
X1599Y257D01*
X1974Y257D02*
X2022Y257D01*
X2082Y257D02*
X2130Y257D01*
X380Y256D02*
X428Y256D01*
X488Y256D02*
X536Y256D01*
X911Y256D02*
X959Y256D01*
X1019Y256D02*
X1067Y256D01*
X1442Y256D02*
X1490Y256D01*
X1550Y256D02*
X1599Y256D01*
X1974Y256D02*
X2022Y256D01*
X2082Y256D02*
X2130Y256D01*
X380Y255D02*
X428Y255D01*
X488Y255D02*
X536Y255D01*
X911Y255D02*
X959Y255D01*
X1019Y255D02*
X1067Y255D01*
X1442Y255D02*
X1491Y255D01*
X1550Y255D02*
X1599Y255D01*
X1974Y255D02*
X2022Y255D01*
X2082Y255D02*
X2130Y255D01*
X380Y254D02*
X428Y254D01*
X488Y254D02*
X536Y254D01*
X911Y254D02*
X959Y254D01*
X1019Y254D02*
X1067Y254D01*
X1442Y254D02*
X1491Y254D01*
X1550Y254D02*
X1599Y254D01*
X1974Y254D02*
X2022Y254D01*
X2082Y254D02*
X2130Y254D01*
X380Y253D02*
X428Y253D01*
X487Y253D02*
X536Y253D01*
X911Y253D02*
X959Y253D01*
X1019Y253D02*
X1067Y253D01*
X1442Y253D02*
X1491Y253D01*
X1550Y253D02*
X1599Y253D01*
X1974Y253D02*
X2022Y253D01*
X2082Y253D02*
X2130Y253D01*
X380Y252D02*
X428Y252D01*
X487Y252D02*
X536Y252D01*
X911Y252D02*
X959Y252D01*
X1019Y252D02*
X1067Y252D01*
X1443Y252D02*
X1491Y252D01*
X1550Y252D02*
X1598Y252D01*
X1974Y252D02*
X2022Y252D01*
X2081Y252D02*
X2130Y252D01*
X380Y251D02*
X428Y251D01*
X487Y251D02*
X535Y251D01*
X911Y251D02*
X960Y251D01*
X1019Y251D02*
X1067Y251D01*
X1443Y251D02*
X1491Y251D01*
X1550Y251D02*
X1598Y251D01*
X1974Y251D02*
X2022Y251D01*
X2081Y251D02*
X2130Y251D01*
X380Y250D02*
X428Y250D01*
X487Y250D02*
X535Y250D01*
X911Y250D02*
X960Y250D01*
X1018Y250D02*
X1067Y250D01*
X1443Y250D02*
X1491Y250D01*
X1550Y250D02*
X1598Y250D01*
X1974Y250D02*
X2023Y250D01*
X2081Y250D02*
X2129Y250D01*
X380Y249D02*
X429Y249D01*
X487Y249D02*
X535Y249D01*
X912Y249D02*
X960Y249D01*
X1018Y249D02*
X1067Y249D01*
X1443Y249D02*
X1492Y249D01*
X1549Y249D02*
X1598Y249D01*
X1974Y249D02*
X2023Y249D01*
X2081Y249D02*
X2129Y249D01*
X380Y248D02*
X429Y248D01*
X486Y248D02*
X535Y248D01*
X912Y248D02*
X960Y248D01*
X1018Y248D02*
X1066Y248D01*
X1443Y248D02*
X1492Y248D01*
X1549Y248D02*
X1598Y248D01*
X1975Y248D02*
X2023Y248D01*
X2081Y248D02*
X2129Y248D01*
X381Y247D02*
X429Y247D01*
X486Y247D02*
X535Y247D01*
X912Y247D02*
X961Y247D01*
X1017Y247D02*
X1066Y247D01*
X1444Y247D02*
X1492Y247D01*
X1549Y247D02*
X1597Y247D01*
X1975Y247D02*
X2023Y247D01*
X2080Y247D02*
X2129Y247D01*
X381Y246D02*
X430Y246D01*
X486Y246D02*
X534Y246D01*
X912Y246D02*
X961Y246D01*
X1017Y246D02*
X1066Y246D01*
X1444Y246D02*
X1492Y246D01*
X1548Y246D02*
X1597Y246D01*
X1975Y246D02*
X2024Y246D01*
X2080Y246D02*
X2129Y246D01*
X381Y245D02*
X430Y245D01*
X485Y245D02*
X534Y245D01*
X913Y245D02*
X961Y245D01*
X1017Y245D02*
X1066Y245D01*
X1444Y245D02*
X1493Y245D01*
X1548Y245D02*
X1597Y245D01*
X1975Y245D02*
X2024Y245D01*
X2079Y245D02*
X2128Y245D01*
X382Y244D02*
X431Y244D01*
X485Y244D02*
X534Y244D01*
X913Y244D02*
X962Y244D01*
X1016Y244D02*
X1065Y244D01*
X1444Y244D02*
X1493Y244D01*
X1548Y244D02*
X1597Y244D01*
X1976Y244D02*
X2025Y244D01*
X2079Y244D02*
X2128Y244D01*
X382Y243D02*
X431Y243D01*
X484Y243D02*
X533Y243D01*
X913Y243D02*
X962Y243D01*
X1016Y243D02*
X1065Y243D01*
X1445Y243D02*
X1494Y243D01*
X1547Y243D02*
X1596Y243D01*
X1976Y243D02*
X2025Y243D01*
X2079Y243D02*
X2128Y243D01*
X382Y242D02*
X432Y242D01*
X484Y242D02*
X533Y242D01*
X914Y242D02*
X963Y242D01*
X1015Y242D02*
X1064Y242D01*
X1445Y242D02*
X1494Y242D01*
X1547Y242D02*
X1596Y242D01*
X1977Y242D02*
X2026Y242D01*
X2078Y242D02*
X2127Y242D01*
X383Y241D02*
X432Y241D01*
X483Y241D02*
X533Y241D01*
X914Y241D02*
X964Y241D01*
X1015Y241D02*
X1064Y241D01*
X1446Y241D02*
X1495Y241D01*
X1546Y241D02*
X1595Y241D01*
X1977Y241D02*
X2026Y241D01*
X2077Y241D02*
X2127Y241D01*
X383Y240D02*
X433Y240D01*
X483Y240D02*
X532Y240D01*
X915Y240D02*
X964Y240D01*
X1014Y240D02*
X1064Y240D01*
X1446Y240D02*
X1496Y240D01*
X1545Y240D02*
X1595Y240D01*
X1977Y240D02*
X2027Y240D01*
X2077Y240D02*
X2126Y240D01*
X384Y239D02*
X434Y239D01*
X482Y239D02*
X532Y239D01*
X915Y239D02*
X965Y239D01*
X1013Y239D02*
X1063Y239D01*
X1447Y239D02*
X1496Y239D01*
X1545Y239D02*
X1594Y239D01*
X1978Y239D02*
X2028Y239D01*
X2076Y239D02*
X2126Y239D01*
X384Y238D02*
X434Y238D01*
X481Y238D02*
X531Y238D01*
X916Y238D02*
X966Y238D01*
X1012Y238D02*
X1063Y238D01*
X1447Y238D02*
X1497Y238D01*
X1544Y238D02*
X1594Y238D01*
X1978Y238D02*
X2029Y238D01*
X2075Y238D02*
X2125Y238D01*
X385Y237D02*
X435Y237D01*
X480Y237D02*
X531Y237D01*
X916Y237D02*
X967Y237D01*
X1012Y237D02*
X1062Y237D01*
X1448Y237D02*
X1498Y237D01*
X1543Y237D02*
X1593Y237D01*
X1979Y237D02*
X2029Y237D01*
X2074Y237D02*
X2125Y237D01*
X385Y236D02*
X436Y236D01*
X479Y236D02*
X530Y236D01*
X917Y236D02*
X968Y236D01*
X1011Y236D02*
X1061Y236D01*
X1448Y236D02*
X1499Y236D01*
X1542Y236D02*
X1593Y236D01*
X1980Y236D02*
X2030Y236D01*
X2073Y236D02*
X2124Y236D01*
X386Y235D02*
X437Y235D01*
X478Y235D02*
X529Y235D01*
X917Y235D02*
X969Y235D01*
X1010Y235D02*
X1061Y235D01*
X1449Y235D02*
X1500Y235D01*
X1541Y235D02*
X1592Y235D01*
X1980Y235D02*
X2031Y235D01*
X2072Y235D02*
X2124Y235D01*
X387Y234D02*
X438Y234D01*
X477Y234D02*
X529Y234D01*
X918Y234D02*
X970Y234D01*
X1008Y234D02*
X1060Y234D01*
X1449Y234D02*
X1501Y234D01*
X1540Y234D02*
X1591Y234D01*
X1981Y234D02*
X2032Y234D01*
X2071Y234D02*
X2123Y234D01*
X387Y233D02*
X440Y233D01*
X476Y233D02*
X528Y233D01*
X919Y233D02*
X971Y233D01*
X1007Y233D02*
X1059Y233D01*
X1450Y233D02*
X1502Y233D01*
X1539Y233D02*
X1591Y233D01*
X1982Y233D02*
X2034Y233D01*
X2070Y233D02*
X2122Y233D01*
X388Y232D02*
X441Y232D01*
X474Y232D02*
X527Y232D01*
X920Y232D02*
X972Y232D01*
X1006Y232D02*
X1059Y232D01*
X1451Y232D02*
X1504Y232D01*
X1537Y232D02*
X1590Y232D01*
X1982Y232D02*
X2035Y232D01*
X2069Y232D02*
X2121Y232D01*
X389Y231D02*
X443Y231D01*
X473Y231D02*
X526Y231D01*
X920Y231D02*
X974Y231D01*
X1004Y231D02*
X1058Y231D01*
X1452Y231D02*
X1505Y231D01*
X1536Y231D02*
X1589Y231D01*
X1983Y231D02*
X2037Y231D01*
X2067Y231D02*
X2121Y231D01*
X390Y230D02*
X445Y230D01*
X471Y230D02*
X525Y230D01*
X921Y230D02*
X976Y230D01*
X1002Y230D02*
X1057Y230D01*
X1453Y230D02*
X1507Y230D01*
X1534Y230D02*
X1588Y230D01*
X1984Y230D02*
X2039Y230D01*
X2065Y230D02*
X2120Y230D01*
X391Y229D02*
X447Y229D01*
X468Y229D02*
X525Y229D01*
X922Y229D02*
X978Y229D01*
X1000Y229D02*
X1056Y229D01*
X1454Y229D02*
X1510Y229D01*
X1531Y229D02*
X1587Y229D01*
X1985Y229D02*
X2041Y229D01*
X2063Y229D02*
X2119Y229D01*
X392Y228D02*
X450Y228D01*
X465Y228D02*
X523Y228D01*
X923Y228D02*
X982Y228D01*
X996Y228D02*
X1055Y228D01*
X1455Y228D02*
X1513Y228D01*
X1528Y228D02*
X1586Y228D01*
X1986Y228D02*
X2044Y228D01*
X2059Y228D02*
X2118Y228D01*
X393Y227D02*
X522Y227D01*
X924Y227D02*
X1054Y227D01*
X1456Y227D02*
X1585Y227D01*
X1987Y227D02*
X2117Y227D01*
X394Y226D02*
X521Y226D01*
X926Y226D02*
X1053Y226D01*
X1457Y226D02*
X1584Y226D01*
X1988Y226D02*
X2115Y226D01*
X396Y225D02*
X520Y225D01*
X927Y225D02*
X1051Y225D01*
X1458Y225D02*
X1583Y225D01*
X1990Y225D02*
X2114Y225D01*
X397Y224D02*
X519Y224D01*
X928Y224D02*
X1050Y224D01*
X1460Y224D02*
X1581Y224D01*
X1991Y224D02*
X2113Y224D01*
X399Y223D02*
X517Y223D01*
X930Y223D02*
X1048Y223D01*
X1461Y223D02*
X1580Y223D01*
X1993Y223D02*
X2111Y223D01*
X400Y222D02*
X515Y222D01*
X932Y222D02*
X1047Y222D01*
X1463Y222D02*
X1578Y222D01*
X1994Y222D02*
X2109Y222D01*
X402Y221D02*
X513Y221D01*
X934Y221D02*
X1045Y221D01*
X1465Y221D02*
X1576Y221D01*
X1996Y221D02*
X2107Y221D01*
X405Y220D02*
X511Y220D01*
X936Y220D02*
X1042Y220D01*
X1467Y220D02*
X1574Y220D01*
X1999Y220D02*
X2105Y220D01*
X407Y219D02*
X508Y219D01*
X939Y219D02*
X1039Y219D01*
X1470Y219D02*
X1571Y219D01*
X2002Y219D02*
X2102Y219D01*
X412Y218D02*
X504Y218D01*
X943Y218D02*
X1035Y218D01*
X1474Y218D02*
X1567Y218D01*
X2006Y218D02*
X2098Y218D01*
D02*
G04 End of Copper1*
M02*