; NON-PLATED HOLES START AT T1
; THROUGH (PLATED) HOLES START AT T100
M48
INCH
T100C0.062992
T101C0.059055
T102C0.042000
T103C0.040639
T104C0.038000
T105C0.015748
T106C0.098425
T107C0.035000
%
T100
X026377Y003251
X028267Y004353
X026377Y005534
T101
X005634Y003546
X009897Y002562
X020536Y002559
X010949Y003546
X004592Y002559
X015212Y004530
X020527Y002562
X015222Y002559
X009897Y004530
X016264Y003546
X004582Y002562
X020527Y004530
X004582Y004530
X021579Y003546
X009906Y002559
X015212Y002562
T102
X010747Y010652
X022739Y010652
X024739Y010652
X017243Y010652
X023739Y010652
X018243Y010652
X016243Y010652
X005251Y010652
X011747Y010652
X004251Y010652
X003251Y010652
X009747Y010652
T103
X022747Y019313
X016747Y019313
X013747Y020313
X015747Y019313
X025747Y020313
X022747Y020313
X012747Y020313
X009747Y020313
X019747Y019313
X008747Y019313
X017747Y019313
X016747Y020313
X015747Y020313
X020747Y019313
X017747Y020313
X018747Y019313
X008747Y020313
X020747Y020313
X013747Y019313
X010747Y019313
X007747Y020313
X021747Y020313
X011747Y020313
X014747Y019313
X021747Y019313
X025747Y019313
X023747Y019313
X007747Y019313
X023747Y020313
X024747Y019313
X010747Y020313
X026747Y019313
X018747Y020313
X024747Y020313
X011747Y019313
X014747Y020313
X009747Y019313
X026747Y020313
X012747Y019313
X019747Y020313
T104
X028858Y013573
X028858Y012573
X028858Y014573
X028858Y011573
X028858Y015573
T105
X022841Y002283
X017247Y002586
X026304Y006909
X006611Y020307
X008191Y014010
T106
X030236Y020298
X001299Y020298
X001299Y001203
X030236Y001203
T107
X025905Y008093
X021905Y008093
X015802Y008093
X019802Y008093
X002220Y008093
X008716Y008093
X006220Y008093
X012716Y008093
T00
M30
