# This file may be used to create an environment using:
# $ conda create --name <env> --file <this file>
# platform: linux-64
blas=1.0=mkl
bzip2=1.0.6=h470a237_2
ca-certificates=2018.10.15=ha4d7672_0
certifi=2018.10.15=py37_1000
cloudpickle=0.6.1=py_0
cycler=0.10.0=py_1
dask-core=0.20.0=py_0
dbus=1.13.0=h3a4f0e9_0
decorator=4.3.0=py_0
expat=2.2.5=hfc679d8_2
fontconfig=2.13.1=h65d0f4c_0
freetype=2.9.1=h6debe1e_4
gettext=0.19.8.1=h5e8e0c9_1
glib=2.56.2=h464dc38_0
gst-plugins-base=1.12.5=hde13a9d_0
gstreamer=1.12.5=h5856ed1_0
icu=58.2=hfc679d8_0
imageio=2.4.1=py_0
intel-openmp=2019.0=118
jpeg=9c=h470a237_1
kiwisolver=1.0.1=py37h2d50403_2
libedit=3.1.20170329=h6b74fdf_2
libffi=3.2.1=hd88cf55_4
libgcc-ng=8.2.0=hdf63c60_1
libgfortran-ng=7.3.0=hdf63c60_0
libiconv=1.15=h470a237_3
libpng=1.6.35=ha92aebf_2
libstdcxx-ng=8.2.0=hdf63c60_1
libtiff=4.0.9=he85c1e1_2
libuuid=2.32.1=h470a237_2
libxcb=1.13=h470a237_2
libxml2=2.9.8=h422b904_5
matplotlib=2.2.3=py37h8e2386c_0
mkl=2019.0=118
mkl_fft=1.0.6=py37h7dd41cf_0
mkl_random=1.0.1=py37h4414c95_1
natsort=5.4.1=py37_0
ncurses=6.1=hf484d3e_0
networkx=2.2=py_1
numpy=1.15.3=py37h1d66e8a_0
numpy-base=1.15.3=py37h81de0dd_0
olefile=0.46=py37_0
openssl=1.0.2p=h470a237_1
pandas=0.23.4=py37h04863e7_0
pcre=8.41=hfc679d8_3
pillow=5.3.0=py37h34e0f95_0
pip=18.1=py37_0
pthread-stubs=0.4=h470a237_1
pyparsing=2.3.0=py_0
pyqt=5.6.0=py37h8210e8a_7
python=3.7.0=h5001a0f_4
python-dateutil=2.7.5=py37_0
pytz=2018.7=py37_0
pywavelets=1.0.1=py37h7eb728f_0
qt=5.6.2=hf70d934_9
readline=7.0=h7b6447c_5
scikit-image=0.14.1=py37hfc679d8_0
scipy=1.1.0=py37hfa4b5c9_1
setuptools=40.5.0=py37_0
sip=4.18.1=py37hfc679d8_0
six=1.11.0=py37_1
sqlite=3.25.2=h7b6447c_0
tk=8.6.8=hbc83047_0
toolz=0.9.0=py_1
tornado=5.1.1=py37h470a237_0
wheel=0.32.2=py37_0
xorg-libxau=1.0.8=h470a237_6
xorg-libxdmcp=1.1.2=h470a237_7
xz=5.2.4=h14c3975_4
zlib=1.2.11=ha838bed_2
